27
2
2
1 0 17 9 0 -1.000000
1 3 17 3 0 3.000000
haar
0.003581 0 1
3
1 2 8 8 0 -1.000000
1 2 4 4 0 2.000000
5 6 4 4 0 2.000000
haar
-0.002855 -1 -2
0.199510 0.737307 0.292174 
2
2
9 5 6 4 0 -1.000000
9 5 3 4 0 2.000000
haar
0.001976 0 1
2
10 9 7 10 0 -1.000000
10 14 7 5 0 2.000000
haar
0.003258 -1 -2
0.195642 0.569205 0.183906 
2
2
5 5 6 4 0 -1.000000
8 5 3 4 0 2.000000
haar
0.000237 0 1
2
0 7 20 6 0 -1.000000
0 9 20 2 0 3.000000
haar
0.002594 -1 -2
0.217167 0.271999 0.715024 
2
2
6 5 9 10 0 -1.000000
6 10 9 5 0 2.000000
haar
-0.025032 0 1
2
8 4 4 12 0 -1.000000
8 10 4 6 0 2.000000
haar
0.006309 -1 -2
0.182518 0.569984 0.350985 
2
2
6 6 8 3 0 -1.000000
6 7 8 1 0 3.000000
haar
-0.003249 1 0
3
3 13 10 6 0 -1.000000
3 13 5 3 0 2.000000
8 16 5 3 0 2.000000
haar
-0.014886 -1 -2
0.402393 0.360410 0.729200 
2
2
15 1 4 11 0 -1.000000
15 1 2 11 0 2.000000
haar
0.008062 1 0
3
5 7 10 10 0 -1.000000
10 7 5 5 0 2.000000
5 12 5 5 0 2.000000
haar
0.027406 -1 -2
0.649149 0.551899 0.265968 
2
2
1 1 4 11 0 -1.000000
3 1 2 11 0 2.000000
haar
0.034369 1 0
2
1 5 8 12 0 -1.000000
1 11 8 6 0 2.000000
haar
-0.027293 -1 -2
0.671251 0.169138 0.432628 
2
3
13 7 6 4 0 -1.000000
16 7 3 2 0 2.000000
13 9 3 2 0 2.000000
haar
0.000745 0 1
2
11 10 7 4 0 -1.000000
11 12 7 2 0 2.000000
haar
0.000703 -1 -2
0.340510 0.551679 0.331139 
2
3
0 4 20 12 0 -1.000000
0 4 10 6 0 2.000000
10 10 10 6 0 2.000000
haar
-0.122755 0 1
2
1 5 6 15 0 -1.000000
1 10 6 5 0 3.000000
haar
0.003256 -1 -2
0.167532 0.361575 0.642078 
2
2
11 10 3 8 0 -1.000000
11 14 3 4 0 2.000000
haar
-0.032090 0 1
2
11 12 7 6 0 -1.000000
11 14 7 2 0 3.000000
haar
0.003296 -1 -2
0.292108 0.561303 0.335786 
2
2
9 11 2 3 0 -1.000000
9 12 2 1 0 3.000000
haar
-0.003227 0 1
2
8 13 4 3 0 -1.000000
8 14 4 1 0 3.000000
haar
0.001117 -1 -2
0.697064 0.354115 0.614401 
2
3
3 14 14 4 0 -1.000000
10 14 7 2 0 2.000000
3 16 7 2 0 2.000000
haar
-0.017280 1 0
2
18 7 2 4 0 -1.000000
18 9 2 2 0 2.000000
haar
0.011741 -1 -2
0.553718 0.534196 0.275710 
2
2
3 12 6 6 0 -1.000000
3 14 6 2 0 3.000000
haar
0.004641 1 0
2
0 4 3 6 0 -1.000000
0 6 3 2 0 3.000000
haar
-0.016913 -1 -2
0.248952 0.171193 0.552395 
2
2
9 14 3 3 0 -1.000000
9 15 3 1 0 3.000000
haar
0.010060 1 0
3
10 7 10 4 0 -1.000000
15 7 5 2 0 2.000000
10 9 5 2 0 2.000000
haar
-0.000607 -1 -2
0.827345 0.377939 0.547625 
2
2
7 2 6 8 0 -1.000000
7 6 6 4 0 2.000000
haar
-0.001087 1 0
2
6 3 6 2 0 -1.000000
8 3 2 2 0 3.000000
haar
0.008936 -1 -2
0.329654 0.606288 0.243422 
2
2
10 6 3 5 0 -1.000000
11 6 1 5 0 3.000000
haar
-0.000264 1 0
2
9 0 6 19 0 -1.000000
11 0 2 19 0 3.000000
haar
0.013110 -1 -2
0.381409 0.551762 0.372689 
2
2
3 12 1 2 0 -1.000000
3 13 1 1 0 2.000000
haar
-0.002981 0 1
2
7 14 5 3 0 -1.000000
7 15 5 1 0 3.000000
haar
-0.004162 -1 -2
0.122966 0.725227 0.497346 
2
3
2 1 18 4 0 -1.000000
11 1 9 2 0 2.000000
2 3 9 2 0 2.000000
haar
0.033842 0 1
2
10 5 3 8 0 -1.000000
11 5 1 8 0 3.000000
haar
-0.001256 -1 -2
0.534831 0.585191 0.438417 
2
3
0 1 18 4 0 -1.000000
0 1 9 2 0 2.000000
9 3 9 2 0 2.000000
haar
-0.019635 0 1
2
7 5 3 8 0 -1.000000
8 5 1 8 0 3.000000
haar
-0.000996 -1 -2
0.229783 0.629594 0.413160 
2
2
9 5 2 6 0 -1.000000
9 7 2 2 0 3.000000
haar
-0.023127 0 1
2
10 8 5 2 0 -1.000000
10 9 5 1 0 2.000000
haar
0.023526 -1 -2
0.169546 0.517413 0.059519 
2
2
2 10 15 1 0 -1.000000
7 10 5 1 0 3.000000
haar
-0.019357 0 1
2
2 7 2 6 0 -1.000000
2 9 2 2 0 3.000000
haar
-0.004179 -1 -2
0.135725 0.299663 0.579170 
2
2
9 14 3 3 0 -1.000000
9 15 3 1 0 3.000000
haar
0.003149 1 0
2
9 7 4 10 0 -1.000000
9 12 4 5 0 2.000000
haar
0.007397 -1 -2
0.659259 0.530717 0.379512 
2
3
0 8 8 2 0 -1.000000
0 8 4 1 0 2.000000
4 9 4 1 0 2.000000
haar
0.000007 0 1
3
5 9 10 8 0 -1.000000
5 9 5 4 0 2.000000
10 13 5 4 0 2.000000
haar
0.047114 -1 -2
0.312831 0.553789 0.102731 
2
2
9 7 2 4 0 -1.000000
9 7 1 4 0 2.000000
haar
0.007288 0 1
2
9 6 3 4 0 -1.000000
10 6 1 4 0 3.000000
haar
-0.006189 -1 -2
0.466086 0.715886 0.472445 
2
2
8 3 2 1 0 -1.000000
9 3 1 1 0 2.000000
haar
0.002976 1 0
2
8 6 3 4 0 -1.000000
9 6 1 4 0 3.000000
haar
-0.001845 -1 -2
0.059346 0.702730 0.471873 
2
3
12 0 4 14 0 -1.000000
14 0 2 7 0 2.000000
12 7 2 7 0 2.000000
haar
0.000102 0 1
2
12 5 6 9 0 -1.000000
12 5 3 9 0 2.000000
haar
0.002428 -1 -2
0.589473 0.486236 0.524759 
2
2
0 2 6 16 0 -1.000000
3 2 3 16 0 2.000000
haar
-0.064751 0 1
2
1 12 4 2 0 -1.000000
1 13 4 1 0 2.000000
haar
0.000394 -1 -2
0.691747 0.466962 0.238241 
12.578500

-1
-1
