11
1
2
3 4 15 15 0 -1
3 9 15 5 0 3
haar_y3
4.170660e-002 0 -1
-7.799100e-001 5.576038e-001 
1
2
6 1 18 8 0 -1
15 1 9 8 0 2
haar_x2
-5.333138e-002 0 -1
5.010599e-001 -6.967010e-001 
1
2
7 6 4 3 0 -1
9 6 2 3 0 2
haar_x2
2.450173e-003 0 -1
-4.378619e-001 5.602646e-001 
1
2
2 6 6 4 0 -1
2 8 6 2 0 2
haar_y2
3.112645e-003 0 -1
-3.558010e-001 3.837456e-001 
1
2
5 12 4 5 0 -1
7 12 2 5 0 2
haar_x2
2.365301e-003 0 -1
-2.635025e-001 4.650864e-001 
1
2
1 0 22 5 0 -1
12 0 11 5 0 2
haar_x2
-5.989247e-002 0 -1
3.529510e-001 -3.650914e-001 
1
2
0 4 6 14 0 -1
3 4 3 14 0 2
haar_x2
4.986204e-002 0 -1
-1.680339e-001 6.500395e-001 
1
2
12 17 1 2 0 -1
12 18 1 1 0 2
haar_y2
-1.164040e-005 0 -1
3.106593e-001 -3.633949e-001 
1
2
10 14 5 3 0 -1
10 15 5 1 0 3
haar_y3
2.234531e-003 0 -1
1.244708e-001 -8.566308e-001 
1
2
11 15 2 2 0 -1
11 16 2 1 0 2
haar_y2
-1.241917e-005 0 -1
2.674952e-001 -4.004964e-001 
1
2
3 0 9 4 0 -1
3 2 9 2 0 2
haar_y2
5.217661e-003 0 -1
-2.635599e-001 3.483278e-001 
-1.958314e+000

-1
-1
