7
1
2
1 1 16 12 0 -1
1 5 16 4 0 3
haar_y3
1.122760e-001 0 -1
-7.609643e-001 6.369547e-001 
1
2
2 0 6 2 0 -1
2 1 6 1 0 2
haar_y2
-4.247711e-003 0 -1
6.887032e-001 -5.037820e-001 
1
2
14 4 3 16 0 -1
14 12 3 8 0 2
haar_y2
-7.932693e-002 0 -1
6.253858e-001 -1.881236e-001 
1
2
6 8 9 12 0 -1
6 14 9 6 0 2
haar_y2
6.848733e-002 0 -1
-2.489274e-001 5.713297e-001 
1
2
12 1 7 8 0 -1
12 5 7 4 0 2
haar_y2
-1.612942e-002 0 -1
-6.660556e-001 2.470917e-001 
1
2
0 1 3 3 0 -1
1 1 1 3 0 3
haar_x3
-2.377993e-004 0 -1
-3.287781e-001 3.399118e-001 
1
2
1 7 15 3 0 -1
6 7 5 3 0 3
haar_x3
1.062672e-002 0 -1
2.262237e-001 -4.052125e-001 
-1.557260e+000

-1
-1
