134
1
2
0 1 12 19 0 -1
4 1 4 19 0 3
haar_x3
-5.095590e-001 0 -1
3.120145e-001 -1.684797e-001 
1
2
8 2 3 18 0 -1
8 8 3 6 0 3
haar_y3
-9.296302e-002 0 -1
2.847125e-001 -1.211867e-001 
1
3
1 11 4 8 0 -1
1 11 2 4 0 2
3 15 2 4 0 2
haar_x2_y2
-1.399429e-002 0 -1
2.027926e-001 -1.448584e-001 
1
2
3 4 5 16 0 -1
3 12 5 8 0 2
haar_y2
-3.042868e-001 0 -1
5.190667e-001 -8.175808e-002 
1
2
3 7 2 2 0 -1
3 8 2 1 0 2
haar_y2
-9.038755e-005 0 -1
9.581894e-002 -2.022310e-001 
1
2
2 4 7 6 0 -1
2 6 7 2 0 3
haar_y3
-2.176782e-002 0 -1
3.208077e-001 -1.744791e-002 
1
2
8 24 2 1 0 -1
9 24 1 1 0 2
haar_x2
6.466249e-005 0 -1
-2.517037e-001 5.829322e-002 
1
2
3 1 7 6 0 -1
3 3 7 2 0 3
haar_y3
-2.328042e-002 0 -1
1.292521e-001 -1.493409e-001 
1
2
2 6 6 3 0 -1
5 6 3 3 0 2
haar_x2
-1.960171e-002 0 -1
-1.979408e-001 1.263343e-001 
1
3
4 8 2 6 0 -1
4 8 1 3 0 2
5 11 1 3 0 2
haar_x2_y2
-1.769976e-003 0 -1
-2.582082e-001 6.627559e-002 
1
2
6 8 2 2 0 -1
7 8 1 2 0 2
haar_x2
-6.016522e-005 0 -1
1.144095e-001 -1.602333e-001 
1
3
0 0 2 2 0 -1
0 0 1 1 0 2
1 1 1 1 0 2
haar_x2_y2
-6.240703e-004 0 -1
-2.897308e-001 6.247259e-002 
1
2
1 0 7 2 0 -1
1 1 7 1 0 2
haar_y2
-8.476425e-003 0 -1
1.924741e-001 -8.371907e-002 
1
2
9 0 1 4 0 -1
9 2 1 2 0 2
haar_y2
-4.399713e-003 0 -1
-3.498113e-001 6.903171e-002 
1
3
1 16 4 10 0 -1
1 16 2 5 0 2
3 21 2 5 0 2
haar_x2_y2
-1.994646e-002 0 -1
2.466492e-001 -7.713097e-002 
1
2
0 4 6 9 0 -1
3 4 3 9 0 2
haar_x2
-5.900401e-002 0 -1
1.619239e-001 -9.494348e-002 
1
2
2 2 6 4 0 -1
4 2 2 4 0 3
haar_x3
8.430536e-003 0 -1
-8.808707e-002 2.221347e-001 
1
2
5 0 2 1 0 -1
6 0 1 1 0 2
haar_x2
-3.701581e-003 0 -1
-4.619148e-001 3.379771e-002 
1
2
3 1 3 9 0 -1
4 1 1 9 0 3
haar_x3
-8.564091e-003 0 -1
1.757046e-001 -7.834012e-002 
1
2
1 0 4 9 0 -1
3 0 2 9 0 2
haar_x2
-8.893013e-002 0 -1
-3.972927e-001 3.411097e-002 
1
3
0 10 2 12 0 -1
0 10 1 6 0 2
1 16 1 6 0 2
haar_x2_y2
5.037561e-003 0 -1
-9.583493e-002 1.424007e-001 
1
2
0 22 2 1 0 -1
1 22 1 1 0 2
haar_x2
3.912361e-004 0 -1
4.891627e-002 -2.414409e-001 
1
2
11 11 1 14 0 -1
11 18 1 7 0 2
haar_y2
3.727510e-002 0 -1
2.866230e-002 -4.587313e-001 
1
2
5 11 5 12 0 -1
5 15 5 4 0 3
haar_y3
-4.734673e-002 0 -1
1.761264e-001 -7.402224e-002 
1
2
0 22 6 4 0 -1
2 22 2 4 0 3
haar_x3
9.996148e-003 0 -1
-8.571175e-002 1.604678e-001 
1
2
2 9 9 15 0 -1
5 9 3 15 0 3
haar_x3
-3.124797e-001 0 -1
-3.100665e-001 4.310958e-002 
1
2
4 9 2 3 0 -1
5 9 1 3 0 2
haar_x2
-6.521435e-005 0 -1
1.054954e-001 -1.316113e-001 
1
2
10 4 2 2 0 -1
11 4 1 2 0 2
haar_x2
-2.211484e-003 0 -1
-2.991864e-001 4.329562e-002 
1
2
2 8 2 6 0 -1
2 10 2 2 0 3
haar_y3
-7.009333e-005 0 -1
9.202448e-002 -1.373141e-001 
1
2
7 0 3 14 0 -1
7 7 3 7 0 2
haar_y2
5.217712e-002 0 -1
-4.367785e-002 2.676945e-001 
1
2
4 3 3 1 0 -1
5 3 1 1 0 3
haar_x3
-2.169920e-003 0 -1
1.798613e-001 -7.694701e-002 
1
2
4 6 2 3 0 -1
4 7 2 1 0 3
haar_y3
1.124450e-003 0 -1
6.271478e-002 -2.030994e-001 
1
2
3 8 6 3 0 -1
3 9 6 1 0 3
haar_y3
-7.813734e-005 0 -1
1.010567e-001 -1.299126e-001 
1
2
0 25 4 1 0 -1
2 25 2 1 0 2
haar_x2
-2.160716e-004 0 -1
6.797305e-002 -1.801842e-001 
1
2
0 6 6 20 0 -1
3 6 3 20 0 2
haar_x2
-4.095368e-001 0 -1
-5.684332e-001 1.647590e-002 
1
2
7 5 5 4 0 -1
7 7 5 2 0 2
haar_y2
-3.771626e-002 0 -1
-4.232877e-001 2.639852e-002 
1
2
2 0 3 7 0 -1
3 0 1 7 0 3
haar_x3
-3.585038e-003 0 -1
1.457398e-001 -8.098765e-002 
1
3
7 9 4 4 0 -1
7 9 2 2 0 2
9 11 2 2 0 2
haar_x2_y2
2.666689e-003 0 -1
-8.610468e-002 1.304573e-001 
1
2
9 12 3 2 0 -1
10 12 1 2 0 3
haar_x3
-4.641197e-003 0 -1
2.382878e-001 -5.979755e-002 
1
2
9 13 3 2 0 -1
10 13 1 2 0 3
haar_x3
4.047199e-003 0 -1
-6.719700e-002 2.039354e-001 
1
2
10 4 2 1 0 -1
11 4 1 1 0 2
haar_x2
5.532212e-004 0 -1
6.447903e-002 -1.728454e-001 
1
2
3 20 3 6 0 -1
4 20 1 6 0 3
haar_x3
5.655659e-003 0 -1
-5.296707e-002 2.068178e-001 
1
2
4 14 2 11 0 -1
5 14 1 11 0 2
haar_x2
1.085988e-002 0 -1
-4.023964e-002 2.693522e-001 
1
2
5 16 2 1 0 -1
6 16 1 1 0 2
haar_x2
6.831503e-004 0 -1
5.997495e-002 -2.059774e-001 
1
3
2 20 6 2 0 -1
2 20 3 1 0 2
5 21 3 1 0 2
haar_x2_y2
6.271129e-003 0 -1
2.503247e-002 -4.083049e-001 
1
2
6 4 6 6 0 -1
6 6 6 2 0 3
haar_y3
-6.160558e-002 0 -1
-6.972300e-001 1.364922e-002 
1
2
5 24 6 1 0 -1
7 24 2 1 0 3
haar_x3
1.113196e-003 0 -1
-7.317656e-002 1.406246e-001 
1
2
4 22 6 4 0 -1
7 22 3 4 0 2
haar_x2
6.937603e-002 0 -1
2.697442e-002 -4.059802e-001 
1
2
1 0 1 6 0 -1
1 2 1 2 0 3
haar_y3
1.263323e-002 0 -1
2.339059e-002 -4.920790e-001 
1
2
6 1 4 24 0 -1
6 9 4 8 0 3
haar_y3
-3.367660e-001 0 -1
-5.858459e-001 1.556617e-002 
1
2
3 10 8 16 0 -1
3 18 8 8 0 2
haar_y2
7.893877e-002 0 -1
-8.543135e-002 1.287599e-001 
1
2
5 10 2 16 0 -1
5 18 2 8 0 2
haar_y2
-1.081299e-001 0 -1
4.775746e-001 -2.782185e-002 
1
2
4 13 3 1 0 -1
5 13 1 1 0 3
haar_x3
2.159894e-003 0 -1
3.749182e-002 -3.177942e-001 
1
2
3 0 6 1 0 -1
5 0 2 1 0 3
haar_x3
2.058598e-002 0 -1
1.306580e-002 -6.596240e-001 
1
2
9 10 2 2 0 -1
9 11 2 1 0 2
haar_y2
-8.426870e-005 0 -1
8.622628e-002 -1.189101e-001 
1
3
9 7 2 12 0 -1
9 7 1 6 0 2
10 13 1 6 0 2
haar_x2_y2
-8.752720e-003 0 -1
1.781148e-001 -5.451308e-002 
1
2
11 0 1 18 0 -1
11 6 1 6 0 3
haar_y3
3.158771e-002 0 -1
3.863478e-002 -2.989012e-001 
1
3
2 3 4 6 0 -1
2 3 2 3 0 2
4 6 2 3 0 2
haar_x2_y2
-5.074941e-003 0 -1
1.503531e-001 -7.153232e-002 
1
3
0 1 6 2 0 -1
0 1 3 1 0 2
3 2 3 1 0 2
haar_x2_y2
-2.198415e-003 0 -1
1.291703e-001 -9.766405e-002 
1
2
4 0 6 3 0 -1
4 1 6 1 0 3
haar_y3
-1.336933e-002 0 -1
3.151844e-001 -3.997223e-002 
1
2
9 24 2 1 0 -1
10 24 1 1 0 2
haar_x2
-9.703964e-004 0 -1
-3.773017e-001 2.942845e-002 
1
2
7 23 3 3 0 -1
8 23 1 3 0 3
haar_x3
2.336843e-003 0 -1
-6.462275e-002 1.670391e-001 
1
2
7 11 3 4 0 -1
7 13 3 2 0 2
haar_y2
-2.648364e-003 0 -1
1.107061e-001 -1.035665e-001 
1
3
6 18 2 8 0 -1
6 18 1 4 0 2
7 22 1 4 0 2
haar_x2_y2
-6.931459e-003 0 -1
2.436712e-001 -4.416626e-002 
1
2
7 2 3 24 0 -1
8 2 1 24 0 3
haar_x3
6.950723e-002 0 -1
1.700603e-002 -7.814802e-001 
1
2
10 0 1 3 0 -1
10 1 1 1 0 3
haar_y3
-5.274334e-004 0 -1
-1.951181e-001 5.611835e-002 
1
2
1 10 3 13 0 -1
2 10 1 13 0 3
haar_x3
8.885918e-003 0 -1
-6.987681e-002 1.563826e-001 
1
2
1 15 3 5 0 -1
2 15 1 5 0 3
haar_x3
-7.612500e-003 0 -1
1.956130e-001 -5.706956e-002 
1
2
5 3 2 1 0 -1
6 3 1 1 0 2
haar_x2
-8.626210e-005 0 -1
1.101067e-001 -9.062605e-002 
1
2
5 3 6 3 0 -1
7 3 2 3 0 3
haar_x3
3.512516e-003 0 -1
-9.998529e-002 1.173226e-001 
1
2
2 4 8 3 0 -1
2 5 8 1 0 3
haar_y3
-2.704657e-003 0 -1
1.357568e-001 -8.444491e-002 
1
2
2 5 3 4 0 -1
2 7 3 2 0 2
haar_y2
-2.794879e-003 0 -1
8.873601e-002 -1.282426e-001 
1
2
0 2 11 12 0 -1
0 6 11 4 0 3
haar_y3
6.538614e-002 0 -1
-8.397610e-002 1.321056e-001 
1
2
1 5 4 3 0 -1
1 6 4 1 0 3
haar_y3
-2.808248e-004 0 -1
1.399980e-001 -1.175845e-001 
1
2
2 3 1 3 0 -1
2 4 1 1 0 3
haar_y3
-5.689755e-005 0 -1
1.061263e-001 -1.023187e-001 
1
2
1 2 1 2 0 -1
1 3 1 1 0 2
haar_y2
-4.508465e-004 0 -1
-1.619335e-001 6.921312e-002 
1
2
6 7 1 3 0 -1
6 8 1 1 0 3
haar_y3
5.029063e-004 0 -1
5.887663e-002 -1.798131e-001 
1
2
2 0 9 11 0 -1
5 0 3 11 0 3
haar_x3
-2.820765e-001 0 -1
-5.143339e-001 1.874815e-002 
1
2
0 1 1 4 0 -1
0 3 1 2 0 2
haar_y2
5.164294e-003 0 -1
2.917505e-002 -3.321257e-001 
1
2
5 6 5 3 0 -1
5 7 5 1 0 3
haar_y3
-9.376287e-004 0 -1
1.039441e-001 -9.241627e-002 
1
2
5 6 1 2 0 -1
5 7 1 1 0 2
haar_y2
-1.936866e-003 0 -1
-2.524871e-001 4.568274e-002 
1
2
7 7 1 4 0 -1
7 9 1 2 0 2
haar_y2
-1.007866e-004 0 -1
7.706578e-002 -1.593285e-001 
1
3
10 0 2 16 0 -1
10 0 1 8 0 2
11 8 1 8 0 2
haar_x2_y2
-7.466877e-003 0 -1
2.084829e-001 -5.057272e-002 
1
2
6 12 6 2 0 -1
8 12 2 2 0 3
haar_x3
-4.237934e-003 0 -1
9.241360e-002 -1.065877e-001 
1
2
11 9 1 12 0 -1
11 13 1 4 0 3
haar_y3
1.300221e-002 0 -1
4.078483e-002 -2.364948e-001 
1
2
4 2 6 24 0 -1
4 10 6 8 0 3
haar_y3
-3.361675e-001 0 -1
-2.906398e-001 3.500943e-002 
1
2
10 0 2 1 0 -1
11 0 1 1 0 2
haar_x2
-8.368910e-005 0 -1
1.260098e-001 -8.628245e-002 
1
3
6 13 4 12 0 -1
6 13 2 6 0 2
8 19 2 6 0 2
haar_x2_y2
-1.869084e-002 0 -1
1.706353e-001 -5.430584e-002 
1
3
5 14 2 2 0 -1
5 14 1 1 0 2
6 15 1 1 0 2
haar_x2_y2
-1.596073e-004 0 -1
-1.489828e-001 6.853586e-002 
1
2
10 24 2 1 0 -1
11 24 1 1 0 2
haar_x2
1.204541e-003 0 -1
4.558910e-002 -2.202909e-001 
1
2
10 24 2 1 0 -1
11 24 1 1 0 2
haar_x2
5.375746e-005 0 -1
-1.264499e-001 8.942259e-002 
1
2
5 10 3 3 0 -1
5 11 3 1 0 3
haar_y3
-7.460908e-005 0 -1
9.671322e-002 -1.082549e-001 
1
3
0 6 2 6 0 -1
0 6 1 3 0 2
1 9 1 3 0 2
haar_x2_y2
4.954461e-003 0 -1
-4.707880e-002 2.108246e-001 
1
2
3 11 6 1 0 -1
5 11 2 1 0 3
haar_x3
1.603913e-004 0 -1
-8.299284e-002 1.153529e-001 
1
2
0 6 6 6 0 -1
0 8 6 2 0 3
haar_y3
-5.444924e-003 0 -1
1.049738e-001 -9.320303e-002 
1
2
0 7 6 7 0 -1
2 7 2 7 0 3
haar_x3
-1.303242e-001 0 -1
-8.925396e-001 9.308081e-003 
1
2
0 7 1 2 0 -1
0 8 1 1 0 2
haar_y2
-2.060029e-003 0 -1
-2.607512e-001 3.477370e-002 
1
2
8 1 4 2 0 -1
8 2 4 1 0 2
haar_y2
1.833341e-003 0 -1
-5.181550e-002 1.735384e-001 
1
2
7 2 5 2 0 -1
7 3 5 1 0 2
haar_y2
-1.138229e-003 0 -1
1.126616e-001 -8.194085e-002 
1
2
9 1 1 3 0 -1
9 2 1 1 0 3
haar_y3
3.849985e-004 0 -1
6.154612e-002 -1.502437e-001 
1
2
9 6 2 8 0 -1
9 10 2 4 0 2
haar_y2
-8.150500e-002 0 -1
8.619919e-001 -1.025946e-002 
1
3
0 18 4 2 0 -1
0 18 2 1 0 2
2 19 2 1 0 2
haar_x2_y2
5.947043e-003 0 -1
2.304342e-002 -4.477006e-001 
1
3
0 18 4 2 0 -1
0 18 2 1 0 2
2 19 2 1 0 2
haar_x2_y2
-9.601643e-004 0 -1
-1.601678e-001 5.642039e-002 
1
2
4 25 4 1 0 -1
6 25 2 1 0 2
haar_x2
-1.562869e-002 0 -1
-7.535080e-001 9.809598e-003 
1
2
4 9 2 3 0 -1
4 10 2 1 0 3
haar_y3
5.022098e-004 0 -1
5.833246e-002 -1.457464e-001 
1
2
3 11 3 6 0 -1
3 13 3 2 0 3
haar_y3
-4.311237e-003 0 -1
1.273913e-001 -8.165073e-002 
1
2
6 22 6 2 0 -1
9 22 3 2 0 2
haar_x2
5.238860e-003 0 -1
-1.374379e-001 6.632949e-002 
1
2
11 11 1 14 0 -1
11 18 1 7 0 2
haar_y2
-1.260484e-003 0 -1
9.593341e-002 -1.039013e-001 
1
2
8 8 3 6 0 -1
9 8 1 6 0 3
haar_x3
-2.482675e-002 0 -1
-4.073089e-001 2.447685e-002 
1
2
5 14 3 12 0 -1
6 14 1 12 0 3
haar_x3
4.181886e-003 0 -1
-5.898611e-002 1.657634e-001 
1
2
5 1 3 25 0 -1
6 1 1 25 0 3
haar_x3
-1.036644e-002 0 -1
1.246535e-001 -1.046921e-001 
1
2
5 0 4 3 0 -1
7 0 2 3 0 2
haar_x2
4.317509e-002 0 -1
1.451489e-002 -6.729000e-001 
1
2
3 0 3 5 0 -1
4 0 1 5 0 3
haar_x3
-2.506188e-003 0 -1
1.225426e-001 -9.226122e-002 
1
2
4 10 2 2 0 -1
4 11 2 1 0 2
haar_y2
8.621850e-004 0 -1
4.456559e-002 -2.264401e-001 
1
2
1 3 9 19 0 -1
4 3 3 19 0 3
haar_x3
-3.588778e-001 0 -1
-2.862831e-001 3.606826e-002 
1
2
0 0 12 25 0 -1
4 0 4 25 0 3
haar_x3
-8.978289e-001 0 -1
3.363469e-001 -2.713347e-002 
1
2
6 13 6 1 0 -1
9 13 3 1 0 2
haar_x2
1.600706e-002 0 -1
5.833109e-002 -1.776732e-001 
1
2
0 0 8 9 0 -1
0 3 8 3 0 3
haar_y3
2.509251e-002 0 -1
-7.111670e-002 1.412084e-001 
1
2
1 3 11 3 0 -1
1 4 11 1 0 3
haar_y3
-7.899320e-003 0 -1
1.674097e-001 -6.542063e-002 
1
2
0 3 5 9 0 -1
0 6 5 3 0 3
haar_y3
1.379518e-001 0 -1
1.611191e-002 -5.840880e-001 
1
3
0 3 2 4 0 -1
0 3 1 2 0 2
1 5 1 2 0 2
haar_x2_y2
9.321330e-003 0 -1
-2.026455e-002 4.895418e-001 
1
2
0 5 1 2 0 -1
0 6 1 1 0 2
haar_y2
-9.119997e-004 0 -1
-1.820395e-001 5.668664e-002 
1
2
2 4 2 3 0 -1
2 5 2 1 0 3
haar_y3
-5.510543e-005 0 -1
1.009804e-001 -1.005797e-001 
1
2
1 6 10 9 0 -1
1 9 10 3 0 3
haar_y3
-5.845908e-002 0 -1
1.795733e-001 -6.098406e-002 
1
2
4 15 3 1 0 -1
5 15 1 1 0 3
haar_x3
-8.715189e-004 0 -1
-1.797509e-001 5.591327e-002 
1
2
3 6 2 3 0 -1
3 7 2 1 0 3
haar_y3
-5.470472e-005 0 -1
8.277646e-002 -1.111135e-001 
1
3
0 6 2 2 0 -1
0 6 1 1 0 2
1 7 1 1 0 2
haar_x2_y2
9.003932e-005 0 -1
-8.148008e-002 1.174552e-001 
1
2
8 5 3 21 0 -1
9 5 1 21 0 3
haar_x3
8.666994e-002 0 -1
1.398122e-002 -8.311641e-001 
1
2
7 18 4 3 0 -1
9 18 2 3 0 2
haar_x2
5.207055e-002 0 -1
-2.403472e-002 5.014381e-001 
1
2
3 16 3 10 0 -1
4 16 1 10 0 3
haar_x3
-8.841967e-003 0 -1
1.359170e-001 -6.974003e-002 
1
2
4 13 2 3 0 -1
5 13 1 3 0 2
haar_x2
-1.040579e-004 0 -1
8.366026e-002 -1.098136e-001 
1
2
0 10 10 3 0 -1
5 10 5 3 0 2
haar_x2
7.666199e-002 0 -1
-2.549294e-002 4.663248e-001 
1
2
3 22 6 3 0 -1
5 22 2 3 0 3
haar_x3
4.381133e-002 0 -1
1.579443e-002 -7.025872e-001 
1
2
2 2 5 3 0 -1
2 3 5 1 0 3
haar_y3
-1.859558e-003 0 -1
9.163427e-002 -1.009746e-001 
-1.092134e+000

17
-1
