12
1
2
10 1 9 4 0 -1
13 1 3 4 0 3
haar_x3
2.064585e-002 0 -1
-2.156518e-001 6.761845e-001 
1
2
12 15 11 4 0 -1
12 17 11 2 0 2
haar_y2
-2.059944e-003 0 -1
2.442442e-001 -5.379801e-001 
1
2
27 0 3 15 0 -1
28 0 1 15 0 3
haar_x3
-7.072969e-003 0 -1
5.095538e-001 -2.232469e-001 
1
2
15 2 3 9 0 -1
16 2 1 9 0 3
haar_x3
-8.941505e-003 0 -1
7.952043e-001 -1.394389e-001 
1
2
18 1 7 18 0 -1
18 10 7 9 0 2
haar_y2
1.591913e-003 0 -1
-6.158518e-001 1.893891e-001 
1
2
28 5 2 4 0 -1
29 5 1 4 0 2
haar_x2
-4.297422e-003 0 -1
5.293357e-001 -2.075979e-001 
1
2
16 4 3 5 0 -1
17 4 1 5 0 3
haar_x3
-4.149016e-003 0 -1
7.001262e-001 -1.043360e-001 
1
2
14 2 3 11 0 -1
15 2 1 11 0 3
haar_x3
-6.863864e-003 0 -1
6.398320e-001 -1.429606e-001 
1
2
11 15 3 3 0 -1
11 16 3 1 0 3
haar_y3
1.598177e-003 0 -1
-2.188537e-001 4.376348e-001 
1
2
6 3 21 8 0 -1
13 3 7 8 0 3
haar_x3
1.645865e-001 0 -1
1.550561e-001 -6.648456e-001 
1
3
3 4 16 16 0 -1
3 4 8 8 0 2
11 12 8 8 0 2
haar_x2_y2
7.146583e-002 0 -1
1.234746e-001 -7.102284e-001 
1
2
10 9 3 1 0 -1
11 9 1 1 0 3
haar_x3
1.367141e-003 0 -1
-1.838056e-001 5.700129e-001 
-9.017204e-001

1
-1
