120
1
2
6 10 6 16 0 -1
9 10 3 16 0 2
haar_x2
1.052003e-001 0 -1
-2.167375e-001 1.984717e-001 
1
2
7 1 4 6 0 -1
7 4 4 3 0 2
haar_y2
-3.869305e-002 0 -1
3.049450e-001 -1.174086e-001 
1
3
2 7 4 14 0 -1
2 7 2 7 0 2
4 14 2 7 0 2
haar_x2_y2
-3.908850e-002 0 -1
2.184004e-001 -1.374524e-001 
1
3
0 24 2 2 0 -1
0 24 1 1 0 2
1 25 1 1 0 2
haar_x2_y2
-7.211609e-004 0 -1
-4.941798e-001 1.228045e-002 
1
2
8 25 3 1 0 -1
9 25 1 1 0 3
haar_x3
-6.250751e-004 0 -1
-2.289445e-001 1.269764e-001 
1
2
8 25 3 1 0 -1
9 25 1 1 0 3
haar_x3
5.572656e-004 0 -1
7.171337e-002 -3.223906e-001 
1
2
4 9 5 4 0 -1
4 11 5 2 0 2
haar_y2
-5.600420e-002 0 -1
5.643348e-001 -1.928238e-002 
1
2
3 9 6 10 0 -1
3 14 6 5 0 2
haar_y2
3.251443e-002 0 -1
-1.122812e-001 1.693272e-001 
1
2
11 2 1 2 0 -1
11 3 1 1 0 2
haar_y2
-6.850726e-004 0 -1
-2.575456e-001 6.728876e-002 
1
2
9 1 2 2 0 -1
10 1 1 2 0 2
haar_x2
-1.893642e-003 0 -1
-2.942037e-001 6.296333e-002 
1
2
0 1 6 1 0 -1
3 1 3 1 0 2
haar_x2
-3.277091e-003 0 -1
1.124701e-001 -1.400678e-001 
1
2
9 0 3 15 0 -1
10 0 1 15 0 3
haar_x3
-1.020377e-002 0 -1
1.901004e-001 -9.722861e-002 
1
2
0 19 3 4 0 -1
1 19 1 4 0 3
haar_x3
-1.358981e-003 0 -1
-2.157389e-001 8.438109e-002 
1
2
5 1 2 2 0 -1
6 1 1 2 0 2
haar_x2
-2.028077e-003 0 -1
1.655660e-001 -9.794941e-002 
1
2
9 1 2 1 0 -1
10 1 1 1 0 2
haar_x2
4.744121e-004 0 -1
1.023277e-001 -1.794204e-001 
1
3
2 1 10 20 0 -1
2 1 5 10 0 2
7 11 5 10 0 2
haar_x2_y2
3.020996e-001 0 -1
2.564624e-002 -5.110046e-001 
1
2
2 8 1 18 0 -1
2 14 1 6 0 3
haar_y3
-1.303387e-002 0 -1
1.794828e-001 -8.726508e-002 
1
2
10 25 2 1 0 -1
11 25 1 1 0 2
haar_x2
6.112230e-005 0 -1
-1.512919e-001 1.014702e-001 
1
2
1 9 1 12 0 -1
1 13 1 4 0 3
haar_y3
3.953710e-003 0 -1
-1.063501e-001 1.468824e-001 
1
2
0 0 2 1 0 -1
1 0 1 1 0 2
haar_x2
-7.360045e-004 0 -1
-2.249863e-001 7.354461e-002 
1
2
3 20 3 3 0 -1
4 20 1 3 0 3
haar_x3
-8.382620e-003 0 -1
2.447489e-001 -6.116152e-002 
1
2
1 21 6 4 0 -1
3 21 2 4 0 3
haar_x3
6.377274e-003 0 -1
-9.655446e-002 1.529304e-001 
1
2
0 25 2 1 0 -1
1 25 1 1 0 2
haar_x2
-6.344727e-005 0 -1
1.140893e-001 -1.428303e-001 
1
3
0 2 2 2 0 -1
0 2 1 1 0 2
1 3 1 1 0 2
haar_x2_y2
-5.223512e-004 0 -1
-1.930621e-001 7.185384e-002 
1
2
0 23 10 1 0 -1
5 23 5 1 0 2
haar_x2
-3.602934e-002 0 -1
-6.174294e-001 2.503074e-002 
1
2
1 15 6 1 0 -1
3 15 2 1 0 3
haar_x3
-2.606368e-002 0 -1
-9.237208e-001 9.095405e-003 
1
2
3 11 8 14 0 -1
3 18 8 7 0 2
haar_y2
2.873525e-001 0 -1
2.051336e-002 -5.295178e-001 
1
2
2 6 1 3 0 -1
2 7 1 1 0 3
haar_y3
-5.326424e-005 0 -1
1.028783e-001 -1.219403e-001 
1
2
3 2 9 3 0 -1
3 3 9 1 0 3
haar_y3
-4.854177e-003 0 -1
1.531491e-001 -7.918359e-002 
1
2
3 2 5 2 0 -1
3 3 5 1 0 2
haar_y2
5.578130e-003 0 -1
-6.787311e-002 2.033768e-001 
1
2
8 5 3 2 0 -1
8 6 3 1 0 2
haar_y2
-5.833272e-005 0 -1
8.410191e-002 -1.645990e-001 
1
3
0 2 12 6 0 -1
0 2 6 3 0 2
6 5 6 3 0 2
haar_x2_y2
-8.856693e-002 0 -1
-4.671853e-001 2.285468e-002 
1
2
3 0 1 15 0 -1
3 5 1 5 0 3
haar_y3
6.248521e-002 0 -1
-2.848497e-002 4.656369e-001 
1
2
3 3 3 11 0 -1
4 3 1 11 0 3
haar_x3
-4.619963e-003 0 -1
1.308586e-001 -9.861989e-002 
1
3
2 19 8 2 0 -1
2 19 4 1 0 2
6 20 4 1 0 2
haar_x2_y2
7.560918e-003 0 -1
3.150726e-002 -3.860671e-001 
1
2
8 4 3 22 0 -1
8 15 3 11 0 2
haar_y2
7.403802e-002 0 -1
-8.231667e-002 1.466940e-001 
1
2
10 18 2 5 0 -1
11 18 1 5 0 2
haar_x2
2.165394e-004 0 -1
-1.712468e-001 7.526624e-002 
1
2
8 3 3 21 0 -1
9 3 1 21 0 3
haar_x3
2.488052e-002 0 -1
-5.822606e-002 2.387580e-001 
1
2
5 10 6 12 0 -1
7 10 2 12 0 3
haar_x3
5.073456e-002 0 -1
-5.336981e-002 2.712346e-001 
1
2
6 16 2 9 0 -1
7 16 1 9 0 2
haar_x2
-2.467618e-003 0 -1
1.523301e-001 -8.486678e-002 
1
2
4 1 3 7 0 -1
5 1 1 7 0 3
haar_x3
-6.272081e-003 0 -1
1.431282e-001 -8.545262e-002 
1
2
1 3 6 3 0 -1
1 4 6 1 0 3
haar_y3
-6.000828e-003 0 -1
1.896355e-001 -6.699564e-002 
1
2
1 19 3 7 0 -1
2 19 1 7 0 3
haar_x3
-5.242666e-004 0 -1
-1.455328e-001 8.754465e-002 
1
2
1 0 3 20 0 -1
2 0 1 20 0 3
haar_x3
-1.170588e-002 0 -1
1.570412e-001 -8.435741e-002 
1
2
6 11 2 1 0 -1
7 11 1 1 0 2
haar_x2
4.551477e-004 0 -1
7.553921e-002 -1.603106e-001 
1
2
5 0 6 23 0 -1
7 0 2 23 0 3
haar_x3
-3.100707e-001 0 -1
-8.373889e-001 1.295537e-002 
1
2
1 1 1 2 0 -1
1 2 1 1 0 2
haar_y2
4.323022e-004 0 -1
6.122998e-002 -1.882169e-001 
1
2
6 2 2 1 0 -1
7 2 1 1 0 2
haar_x2
-7.563157e-004 0 -1
1.651688e-001 -7.634523e-002 
1
2
2 0 2 1 0 -1
3 0 1 1 0 2
haar_x2
-2.010913e-003 0 -1
-2.192334e-001 5.849893e-002 
1
2
2 0 3 13 0 -1
3 0 1 13 0 3
haar_x3
-1.384543e-002 0 -1
1.699720e-001 -7.286111e-002 
1
2
2 8 3 2 0 -1
3 8 1 2 0 3
haar_x3
-1.525555e-002 0 -1
-5.240949e-001 2.204662e-002 
1
2
9 1 3 2 0 -1
10 1 1 2 0 3
haar_x3
-1.583591e-003 0 -1
-2.140420e-001 5.607156e-002 
1
3
0 4 2 6 0 -1
0 4 1 3 0 2
1 7 1 3 0 2
haar_x2_y2
4.646361e-003 0 -1
-5.830377e-002 2.131372e-001 
1
2
3 18 2 7 0 -1
4 18 1 7 0 2
haar_x2
6.467026e-003 0 -1
-4.885124e-002 2.367189e-001 
1
2
0 24 3 2 0 -1
1 24 1 2 0 3
haar_x3
-9.667251e-004 0 -1
-2.104742e-001 6.243571e-002 
1
3
0 22 6 4 0 -1
0 22 3 2 0 2
3 24 3 2 0 2
haar_x2_y2
1.814705e-003 0 -1
-1.225651e-001 1.085161e-001 
1
2
0 22 3 1 0 -1
1 22 1 1 0 3
haar_x3
4.960782e-004 0 -1
7.347667e-002 -1.629205e-001 
1
2
9 9 3 17 0 -1
10 9 1 17 0 3
haar_x3
9.557666e-003 0 -1
-7.669636e-002 1.566582e-001 
1
2
7 0 3 24 0 -1
8 0 1 24 0 3
haar_x3
1.184753e-002 0 -1
-7.284711e-002 1.746140e-001 
1
2
2 4 8 4 0 -1
6 4 4 4 0 2
haar_x2
1.268894e-002 0 -1
9.077711e-002 -1.540561e-001 
1
2
4 0 4 5 0 -1
6 0 2 5 0 2
haar_x2
1.808111e-002 0 -1
-7.744499e-002 1.768452e-001 
1
2
4 4 3 16 0 -1
5 4 1 16 0 3
haar_x3
-7.140492e-002 0 -1
-6.933656e-001 1.671495e-002 
1
2
3 3 5 3 0 -1
3 4 5 1 0 3
haar_y3
5.627670e-003 0 -1
-6.591931e-002 1.739472e-001 
1
2
4 11 6 1 0 -1
6 11 2 1 0 3
haar_x3
-1.908309e-002 0 -1
-5.135852e-001 2.389164e-002 
1
3
2 18 10 2 0 -1
2 18 5 1 0 2
7 19 5 1 0 2
haar_x2_y2
1.091646e-002 0 -1
2.009997e-002 -5.207700e-001 
1
2
8 3 3 9 0 -1
8 6 3 3 0 3
haar_y3
-7.735543e-002 0 -1
-5.949926e-001 1.465352e-002 
1
2
8 0 3 24 0 -1
8 8 3 8 0 3
haar_y3
2.534612e-001 0 -1
-1.780144e-002 6.424722e-001 
1
2
2 2 9 7 0 -1
5 2 3 7 0 3
haar_x3
-2.810221e-002 0 -1
1.129969e-001 -1.070043e-001 
1
2
7 8 2 1 0 -1
8 8 1 1 0 2
haar_x2
-5.486646e-005 0 -1
9.735867e-002 -1.137999e-001 
1
2
5 20 6 1 0 -1
7 20 2 1 0 3
haar_x3
4.821670e-003 0 -1
-5.481426e-002 1.887836e-001 
1
2
8 19 4 1 0 -1
10 19 2 1 0 2
haar_x2
1.822991e-004 0 -1
-1.655311e-001 6.825273e-002 
1
2
10 20 2 1 0 -1
11 20 1 1 0 2
haar_x2
6.923722e-004 0 -1
7.962693e-002 -1.510911e-001 
1
3
4 20 8 6 0 -1
4 20 4 3 0 2
8 23 4 3 0 2
haar_x2_y2
-3.114588e-002 0 -1
-2.475425e-001 4.288447e-002 
1
2
0 0 11 3 0 -1
0 1 11 1 0 3
haar_y3
-4.344976e-003 0 -1
1.237221e-001 -8.407035e-002 
1
2
0 3 3 3 0 -1
1 3 1 3 0 3
haar_x3
-2.428328e-002 0 -1
-7.763071e-001 1.278500e-002 
1
3
10 9 2 6 0 -1
10 9 1 3 0 2
11 12 1 3 0 2
haar_x2_y2
8.583341e-003 0 -1
-3.790174e-002 3.012778e-001 
1
2
1 9 8 6 0 -1
1 11 8 2 0 3
haar_y3
1.244902e-002 0 -1
-6.321747e-002 1.721116e-001 
1
2
3 11 6 1 0 -1
5 11 2 1 0 3
haar_x3
-3.013326e-005 0 -1
9.776695e-002 -1.334650e-001 
1
3
0 0 4 8 0 -1
0 0 2 4 0 2
2 4 2 4 0 2
haar_x2_y2
-2.759967e-002 0 -1
2.117998e-001 -4.784275e-002 
1
2
4 1 3 2 0 -1
5 1 1 2 0 3
haar_x3
1.973979e-003 0 -1
-7.395738e-002 1.538700e-001 
1
2
4 5 4 6 0 -1
6 5 2 6 0 2
haar_x2
-9.653772e-002 0 -1
7.243219e-001 -1.255437e-002 
1
3
2 6 4 6 0 -1
2 6 2 3 0 2
4 9 2 3 0 2
haar_x2_y2
-4.954090e-002 0 -1
-7.625459e-001 1.456228e-002 
1
2
0 0 10 12 0 -1
5 0 5 12 0 2
haar_x2
-4.627696e-001 0 -1
-9.489473e-001 8.236010e-003 
1
2
11 10 1 2 0 -1
11 11 1 1 0 2
haar_y2
2.388580e-003 0 -1
2.315995e-002 -3.639431e-001 
1
2
5 0 2 4 0 -1
5 2 2 2 0 2
haar_y2
1.796309e-002 0 -1
2.801793e-002 -3.439031e-001 
1
2
2 25 10 1 0 -1
7 25 5 1 0 2
haar_x2
2.766790e-002 0 -1
1.887794e-002 -5.021493e-001 
1
2
2 24 8 1 0 -1
6 24 4 1 0 2
haar_x2
5.014495e-003 0 -1
-6.599037e-002 1.760211e-001 
1
2
0 11 12 15 0 -1
0 16 12 5 0 3
haar_y3
-4.633891e-002 0 -1
1.176229e-001 -8.685655e-002 
1
2
9 5 3 12 0 -1
9 9 3 4 0 3
haar_y3
-8.776175e-003 0 -1
1.152001e-001 -1.168593e-001 
1
3
0 6 12 16 0 -1
0 6 6 8 0 2
6 14 6 8 0 2
haar_x2_y2
2.100401e-001 0 -1
2.974852e-002 -3.649107e-001 
1
3
6 2 4 8 0 -1
6 2 2 4 0 2
8 6 2 4 0 2
haar_x2_y2
1.304537e-002 0 -1
-5.459614e-002 1.893949e-001 
1
2
2 0 6 2 0 -1
5 0 3 2 0 2
haar_x2
4.400926e-002 0 -1
1.886537e-002 -6.706704e-001 
1
2
8 3 4 6 0 -1
8 5 4 2 0 3
haar_y3
-3.562529e-003 0 -1
1.171012e-001 -8.913137e-002 
1
2
4 1 8 3 0 -1
4 2 8 1 0 3
haar_y3
-5.511304e-003 0 -1
1.557694e-001 -7.967488e-002 
1
2
9 5 2 3 0 -1
9 6 2 1 0 3
haar_y3
-4.312428e-003 0 -1
-2.954688e-001 3.662847e-002 
1
2
3 0 9 2 0 -1
3 1 9 1 0 2
haar_y2
3.985777e-003 0 -1
-6.089430e-002 1.700682e-001 
1
2
3 25 2 1 0 -1
4 25 1 1 0 2
haar_x2
9.928751e-004 0 -1
3.997713e-002 -2.611160e-001 
1
2
3 18 3 8 0 -1
4 18 1 8 0 3
haar_x3
5.663178e-003 0 -1
-6.682671e-002 1.607836e-001 
1
2
0 22 4 4 0 -1
2 22 2 4 0 2
haar_x2
-2.572898e-003 0 -1
8.613839e-002 -1.306780e-001 
1
2
0 25 4 1 0 -1
2 25 2 1 0 2
haar_x2
-2.751830e-003 0 -1
-1.903841e-001 5.976644e-002 
1
2
7 12 3 1 0 -1
8 12 1 1 0 3
haar_x3
4.111747e-004 0 -1
7.015136e-002 -1.481397e-001 
1
2
3 22 6 4 0 -1
5 22 2 4 0 3
haar_x3
1.244179e-002 0 -1
-5.597949e-002 1.797328e-001 
1
2
4 22 6 4 0 -1
7 22 3 4 0 2
haar_x2
1.118697e-002 0 -1
-7.730716e-002 1.400638e-001 
1
2
4 22 2 4 0 -1
5 22 1 4 0 2
haar_x2
-8.080433e-005 0 -1
8.181297e-002 -1.205038e-001 
1
2
4 25 3 1 0 -1
5 25 1 1 0 3
haar_x3
-1.169789e-003 0 -1
-2.025273e-001 5.557173e-002 
1
3
6 10 4 14 0 -1
6 10 2 7 0 2
8 17 2 7 0 2
haar_x2_y2
-4.565199e-002 0 -1
2.214169e-001 -4.406476e-002 
1
3
10 5 2 6 0 -1
10 5 1 3 0 2
11 8 1 3 0 2
haar_x2_y2
4.448527e-003 0 -1
-6.112798e-002 1.735800e-001 
1
2
6 14 6 1 0 -1
9 14 3 1 0 2
haar_x2
-1.723883e-002 0 -1
5.094113e-001 -2.061994e-002 
1
3
0 17 6 2 0 -1
0 17 3 1 0 2
3 18 3 1 0 2
haar_x2_y2
1.042049e-002 0 -1
2.048320e-002 -5.484341e-001 
1
2
9 0 3 10 0 -1
10 0 1 10 0 3
haar_x3
3.815005e-002 0 -1
1.748051e-002 -4.731666e-001 
1
2
10 2 2 10 0 -1
11 2 1 10 0 2
haar_x2
-2.916756e-002 0 -1
5.315135e-001 -1.903509e-002 
1
2
10 13 2 2 0 -1
11 13 1 2 0 2
haar_x2
-9.701802e-004 0 -1
-2.151217e-001 5.282967e-002 
1
2
8 0 1 3 0 -1
8 1 1 1 0 3
haar_y3
6.097832e-004 0 -1
6.211886e-002 -1.590326e-001 
1
2
6 17 3 2 0 -1
7 17 1 2 0 3
haar_x3
-2.322057e-003 0 -1
1.282530e-001 -7.836335e-002 
1
2
2 2 2 3 0 -1
2 3 2 1 0 3
haar_y3
-1.849354e-003 0 -1
1.417537e-001 -6.426801e-002 
1
2
11 3 1 2 0 -1
11 4 1 1 0 2
haar_y2
1.927642e-003 0 -1
3.087994e-002 -3.386533e-001 
1
3
8 3 4 2 0 -1
8 3 2 1 0 2
10 4 2 1 0 2
haar_x2_y2
4.666685e-003 0 -1
-4.334680e-002 2.436281e-001 
1
2
1 6 10 4 0 -1
1 8 10 2 0 2
haar_y2
-7.818216e-002 0 -1
-7.631402e-001 1.231258e-002 
1
2
1 4 10 1 0 -1
6 4 5 1 0 2
haar_x2
4.596144e-002 0 -1
-1.668707e-002 6.698978e-001 
1
2
6 15 3 8 0 -1
7 15 1 8 0 3
haar_x3
5.777389e-003 0 -1
-5.816237e-002 1.619389e-001 
-1.051107e+000

16
-1
