19
2
2
6 3 8 6 0 -1.000000
6 6 8 3 0 2.000000
haar
-0.004933 1 0
2
4 7 12 2 0 -1.000000
8 7 4 2 0 3.000000
haar
0.000028 -1 -2
0.199806 0.229938 0.739321 
2
2
10 9 6 8 0 -1.000000
10 13 6 4 0 2.000000
haar
0.003088 1 0
2
12 5 3 10 0 -1.000000
12 10 3 5 0 2.000000
haar
0.000007 -1 -2
0.153384 0.203686 0.585492 
2
2
4 6 3 9 0 -1.000000
4 9 3 3 0 3.000000
haar
0.001874 0 1
2
7 4 6 4 0 -1.000000
9 4 2 4 0 3.000000
haar
0.000934 -1 -2
0.204990 0.323420 0.732301 
2
2
12 3 8 3 0 -1.000000
12 3 4 3 0 2.000000
haar
0.001915 0 1
2
15 0 3 6 0 -1.000000
15 3 3 3 0 2.000000
haar
-0.005968 -1 -2
0.304515 0.293213 0.562130 
2
3
2 12 10 8 0 -1.000000
2 12 5 4 0 2.000000
7 16 5 4 0 2.000000
haar
-0.000721 0 1
2
5 5 6 8 0 -1.000000
5 9 6 4 0 2.000000
haar
-0.005966 -1 -2
0.365804 0.271216 0.722633 
2
2
12 3 8 3 0 -1.000000
12 3 4 3 0 2.000000
haar
0.030874 0 1
2
15 0 3 6 0 -1.000000
15 3 3 3 0 2.000000
haar
-0.011100 -1 -2
0.441984 0.361298 0.525145 
2
2
0 3 8 3 0 -1.000000
4 3 4 3 0 2.000000
haar
0.002116 0 1
2
2 1 4 4 0 -1.000000
2 3 4 2 0 2.000000
haar
-0.009432 -1 -2
0.362862 0.160110 0.705228 
2
2
10 2 3 2 0 -1.000000
11 2 1 2 0 3.000000
haar
-0.003527 0 1
2
10 3 3 1 0 -1.000000
11 3 1 1 0 3.000000
haar
-0.001691 -1 -2
0.130129 0.178632 0.552153 
2
2
7 15 3 4 0 -1.000000
7 17 3 2 0 2.000000
haar
0.000465 0 1
2
4 13 3 6 0 -1.000000
4 15 3 2 0 3.000000
haar
-0.010216 -1 -2
0.348738 0.267399 0.666792 
2
2
10 5 1 14 0 -1.000000
10 12 1 7 0 2.000000
haar
0.001263 1 0
2
5 4 10 6 0 -1.000000
5 6 10 2 0 3.000000
haar
-0.011875 -1 -2
0.343786 0.599534 0.349772 
2
2
5 0 6 3 0 -1.000000
7 0 2 3 0 3.000000
haar
-0.010732 0 1
2
6 0 3 5 0 -1.000000
7 0 1 5 0 3.000000
haar
0.007184 -1 -2
0.215049 0.627144 0.251954 
2
2
7 15 6 5 0 -1.000000
9 15 2 5 0 3.000000
haar
-0.028341 0 1
2
9 10 2 6 0 -1.000000
9 12 2 2 0 3.000000
haar
-0.000458 -1 -2
0.082412 0.591006 0.370520 
2
2
8 17 3 2 0 -1.000000
9 17 1 2 0 3.000000
haar
0.004294 1 0
2
1 12 7 6 0 -1.000000
1 14 7 2 0 3.000000
haar
0.010751 -1 -2
0.159473 0.598048 0.283251 
2
2
9 6 3 7 0 -1.000000
10 6 1 7 0 3.000000
haar
0.022465 1 0
2
16 3 4 9 0 -1.000000
16 6 4 3 0 3.000000
haar
-0.057989 -1 -2
0.787709 0.155574 0.523966 
2
2
8 6 3 7 0 -1.000000
9 6 1 7 0 3.000000
haar
0.007211 1 0
3
0 5 18 8 0 -1.000000
0 5 9 4 0 2.000000
9 9 9 4 0 2.000000
haar
-0.048368 -1 -2
0.662037 0.142472 0.442983 
2
2
13 5 2 10 0 -1.000000
13 10 2 5 0 2.000000
haar
-0.014418 0 1
2
12 10 2 6 0 -1.000000
12 13 2 3 0 2.000000
haar
-0.023156 -1 -2
0.158854 0.237580 0.521713 
2
2
7 0 3 5 0 -1.000000
8 0 1 5 0 3.000000
haar
0.007699 1 0
2
6 5 8 6 0 -1.000000
6 7 8 2 0 3.000000
haar
-0.005625 -1 -2
0.194173 0.627841 0.374604 
2
3
10 3 6 14 0 -1.000000
13 3 3 7 0 2.000000
10 10 3 7 0 2.000000
haar
-0.000729 1 0
2
13 5 1 8 0 -1.000000
13 9 1 4 0 2.000000
haar
0.000618 -1 -2
0.384092 0.310649 0.553785 
2
3
4 3 6 14 0 -1.000000
4 3 3 7 0 2.000000
7 10 3 7 0 2.000000
haar
-0.000046 1 0
2
6 5 1 8 0 -1.000000
6 9 1 4 0 2.000000
haar
-0.000015 -1 -2
0.344445 0.272955 0.642895 
8.511786

-1
-1
