94
1
2
0 24 24 22 0 -1
8 24 8 22 0 3
haar_x3
-2.665964e-001 0 -1
2.586123e-001 -1.446301e-001 
1
3
20 9 4 34 0 -1
20 9 2 17 0 2
22 26 2 17 0 2
haar_x2_y2
-8.116782e-003 0 -1
2.422681e-001 -1.307873e-001 
1
2
21 43 2 5 0 -1
22 43 1 5 0 2
haar_x2
1.355726e-005 0 -1
-2.415614e-001 1.095123e-001 
1
2
17 48 6 4 0 -1
19 48 2 4 0 3
haar_x3
-6.610426e-004 0 -1
-3.164402e-001 8.086944e-002 
1
3
2 5 8 10 0 -1
2 5 4 5 0 2
6 10 4 5 0 2
haar_x2_y2
1.104893e-002 0 -1
-1.029954e-001 2.434149e-001 
1
2
11 17 4 12 0 -1
11 23 4 6 0 2
haar_y2
-3.587576e-002 0 -1
4.504161e-001 -5.437705e-002 
1
2
2 2 17 36 0 -1
2 14 17 12 0 3
haar_y3
-1.602817e-001 0 -1
1.950986e-001 -1.214916e-001 
1
3
21 12 2 26 0 -1
21 12 1 13 0 2
22 25 1 13 0 2
haar_x2_y2
2.705467e-003 0 -1
-4.261076e-002 3.240394e-001 
1
2
10 28 6 23 0 -1
12 28 2 23 0 3
haar_x3
8.162210e-003 0 -1
-6.194001e-002 2.576636e-001 
1
2
11 26 3 22 0 -1
12 26 1 22 0 3
haar_x3
-3.653791e-003 0 -1
2.478855e-001 -9.176500e-002 
1
2
5 5 4 3 0 -1
5 6 4 1 0 3
haar_y3
7.527191e-004 0 -1
-7.864259e-002 2.364305e-001 
1
2
4 5 9 3 0 -1
4 6 9 1 0 3
haar_y3
-7.624229e-004 0 -1
1.850644e-001 -9.431984e-002 
1
2
17 12 7 2 0 -1
17 13 7 1 0 2
haar_y2
-1.493029e-004 0 -1
1.273584e-001 -1.387597e-001 
1
2
9 3 12 42 0 -1
9 17 12 14 0 3
haar_y3
1.817964e-001 0 -1
-3.943823e-002 4.070945e-001 
1
2
7 26 15 2 0 -1
12 26 5 2 0 3
haar_x3
-3.599569e-004 0 -1
9.473427e-002 -2.135998e-001 
1
2
2 51 3 1 0 -1
3 51 1 1 0 3
haar_x3
1.046979e-004 0 -1
4.260662e-002 -3.144388e-001 
1
2
0 46 24 2 0 -1
12 46 12 2 0 2
haar_x2
-2.653837e-002 0 -1
-5.640939e-001 1.843630e-002 
1
2
15 26 2 5 0 -1
16 26 1 5 0 2
haar_x2
3.675821e-004 0 -1
9.867467e-002 -1.637274e-001 
1
2
0 2 3 27 0 -1
1 2 1 27 0 3
haar_x3
-3.403704e-003 0 -1
2.708471e-001 -5.728536e-002 
1
2
0 0 12 29 0 -1
4 0 4 29 0 3
haar_x3
-5.321313e-002 0 -1
1.809039e-001 -8.914800e-002 
1
2
4 3 18 2 0 -1
10 3 6 2 0 3
haar_x3
-6.587668e-003 0 -1
1.303928e-001 -1.439795e-001 
1
2
3 20 6 23 0 -1
5 20 2 23 0 3
haar_x3
8.211866e-003 0 -1
-9.113720e-002 1.961722e-001 
1
2
5 1 1 24 0 -1
5 9 1 8 0 3
haar_y3
1.057303e-002 0 -1
-4.512956e-002 3.643358e-001 
1
2
8 1 9 5 0 -1
11 1 3 5 0 3
haar_x3
5.229867e-003 0 -1
-7.636491e-002 2.244595e-001 
1
2
5 12 3 26 0 -1
6 12 1 26 0 3
haar_x3
-3.251460e-003 0 -1
2.206718e-001 -7.925404e-002 
1
2
18 2 4 1 0 -1
20 2 2 1 0 2
haar_x2
1.891009e-004 0 -1
8.802171e-002 -1.985878e-001 
1
2
2 5 2 5 0 -1
3 5 1 5 0 2
haar_x2
1.029457e-003 0 -1
4.411975e-002 -3.660480e-001 
1
2
10 2 4 4 0 -1
12 2 2 4 0 2
haar_x2
-1.418157e-003 0 -1
1.785622e-001 -8.979808e-002 
1
2
8 0 6 16 0 -1
10 0 2 16 0 3
haar_x3
-7.472455e-003 0 -1
1.858627e-001 -9.079310e-002 
1
2
20 50 4 1 0 -1
22 50 2 1 0 2
haar_x2
1.298593e-005 0 -1
-1.890906e-001 8.568975e-002 
1
3
18 16 4 8 0 -1
18 16 2 4 0 2
20 20 2 4 0 2
haar_x2_y2
-3.184957e-003 0 -1
2.652552e-001 -6.517793e-002 
1
3
7 29 10 2 0 -1
7 29 5 1 0 2
12 30 5 1 0 2
haar_x2_y2
8.977691e-004 0 -1
4.474284e-002 -3.433576e-001 
1
2
13 6 4 6 0 -1
13 8 4 2 0 3
haar_y3
-5.850352e-004 0 -1
1.458785e-001 -1.130292e-001 
1
2
13 9 11 4 0 -1
13 11 11 2 0 2
haar_y2
-9.177187e-004 0 -1
9.998155e-002 -1.591040e-001 
1
2
19 2 5 30 0 -1
19 17 5 15 0 2
haar_y2
-9.047695e-002 0 -1
-4.373278e-001 3.261630e-002 
1
2
5 46 18 1 0 -1
11 46 6 1 0 3
haar_x3
1.573142e-003 0 -1
-6.428709e-002 2.399698e-001 
1
3
4 48 12 4 0 -1
4 48 6 2 0 2
10 50 6 2 0 2
haar_x2_y2
5.394584e-004 0 -1
-1.192754e-001 1.448144e-001 
1
2
0 4 1 42 0 -1
0 18 1 14 0 3
haar_y3
-2.899434e-002 0 -1
-6.919280e-001 1.798095e-002 
1
2
6 31 3 20 0 -1
7 31 1 20 0 3
haar_x3
-1.194500e-002 0 -1
-8.125603e-001 1.657348e-002 
1
3
7 49 10 2 0 -1
7 49 5 1 0 2
12 50 5 1 0 2
haar_x2_y2
-4.408012e-004 0 -1
2.092068e-001 -6.855436e-002 
1
2
20 0 4 2 0 -1
22 0 2 2 0 2
haar_x2
-5.807012e-004 0 -1
-2.669172e-001 5.244067e-002 
1
2
10 0 12 42 0 -1
14 0 4 42 0 3
haar_x3
-2.348481e-001 0 -1
-8.956026e-001 1.532808e-002 
1
3
0 48 2 4 0 -1
0 48 1 2 0 2
1 50 1 2 0 2
haar_x2_y2
-1.593797e-004 0 -1
-3.104220e-001 4.206652e-002 
1
3
17 7 4 4 0 -1
17 7 2 2 0 2
19 9 2 2 0 2
haar_x2_y2
-1.578243e-003 0 -1
2.530680e-001 -5.498365e-002 
1
3
6 17 4 32 0 -1
6 17 2 16 0 2
8 33 2 16 0 2
haar_x2_y2
1.364471e-002 0 -1
-5.045885e-002 2.599890e-001 
1
3
4 15 6 36 0 -1
4 15 3 18 0 2
7 33 3 18 0 2
haar_x2_y2
-4.107764e-002 0 -1
2.778629e-001 -5.818361e-002 
1
2
2 4 2 2 0 -1
2 5 2 1 0 2
haar_y2
-1.497289e-005 0 -1
1.161998e-001 -1.208951e-001 
1
2
1 49 4 1 0 -1
3 49 2 1 0 2
haar_x2
-2.106019e-005 0 -1
9.197349e-002 -1.482350e-001 
1
2
0 51 3 1 0 -1
1 51 1 1 0 3
haar_x3
6.322510e-005 0 -1
5.760856e-002 -2.539703e-001 
1
2
3 45 12 5 0 -1
7 45 4 5 0 3
haar_x3
2.256250e-003 0 -1
-9.735353e-002 1.472433e-001 
1
2
6 50 6 2 0 -1
8 50 2 2 0 3
haar_x3
2.246150e-003 0 -1
3.730944e-002 -4.154296e-001 
1
2
15 10 9 12 0 -1
15 14 9 4 0 3
haar_y3
-3.209972e-002 0 -1
-4.483975e-001 3.023876e-002 
1
2
15 12 8 9 0 -1
15 15 8 3 0 3
haar_y3
-5.640449e-004 0 -1
9.682317e-002 -1.472073e-001 
1
3
0 45 10 4 0 -1
0 45 5 2 0 2
5 47 5 2 0 2
haar_x2_y2
1.507400e-004 0 -1
-1.235157e-001 1.126844e-001 
1
2
0 10 6 42 0 -1
0 24 6 14 0 3
haar_y3
1.509523e-001 0 -1
2.100302e-002 -7.225444e-001 
1
3
9 0 4 2 0 -1
9 0 2 1 0 2
11 1 2 1 0 2
haar_x2_y2
-7.849842e-004 0 -1
2.928740e-001 -5.061635e-002 
1
2
1 0 8 6 0 -1
1 2 8 2 0 3
haar_y3
-7.501075e-004 0 -1
1.494612e-001 -1.004763e-001 
1
2
2 0 1 2 0 -1
2 1 1 1 0 2
haar_y2
-1.568845e-004 0 -1
-3.078301e-001 5.312721e-002 
1
2
0 7 10 24 0 -1
0 19 10 12 0 2
haar_y2
8.494154e-002 0 -1
-4.865288e-002 3.257932e-001 
1
2
0 9 2 8 0 -1
1 9 1 8 0 2
haar_x2
2.403112e-005 0 -1
-9.218938e-002 1.546984e-001 
1
2
1 25 12 5 0 -1
5 25 4 5 0 3
haar_x3
-2.927665e-003 0 -1
1.273894e-001 -1.233379e-001 
1
2
3 14 9 35 0 -1
6 14 3 35 0 3
haar_x3
1.782654e-002 0 -1
-8.680079e-002 1.851014e-001 
1
2
5 6 6 1 0 -1
7 6 2 1 0 3
haar_x3
-3.507091e-004 0 -1
1.447058e-001 -1.031055e-001 
1
3
2 0 14 2 0 -1
2 0 7 1 0 2
9 1 7 1 0 2
haar_x2_y2
1.608543e-003 0 -1
-5.163720e-002 2.687128e-001 
1
2
4 1 2 1 0 -1
5 1 1 1 0 2
haar_x2
-9.928306e-005 0 -1
-2.039124e-001 7.734489e-002 
1
3
0 3 22 12 0 -1
0 3 11 6 0 2
11 9 11 6 0 2
haar_x2_y2
-7.012805e-002 0 -1
-5.475510e-001 2.529379e-002 
1
2
4 48 2 1 0 -1
5 48 1 1 0 2
haar_x2
-1.244206e-005 0 -1
1.027411e-001 -1.368022e-001 
1
2
0 21 8 12 0 -1
0 25 8 4 0 3
haar_y3
-3.808611e-002 0 -1
-7.370223e-001 1.944376e-002 
1
2
11 2 6 39 0 -1
13 2 2 39 0 3
haar_x3
-1.314524e-002 0 -1
1.560451e-001 -9.442005e-002 
1
2
5 0 15 43 0 -1
10 0 5 43 0 3
haar_x3
-2.814735e-001 0 -1
-5.205138e-001 3.385814e-002 
1
2
8 28 6 2 0 -1
10 28 2 2 0 3
haar_x3
9.176238e-005 0 -1
8.600643e-002 -1.700679e-001 
1
2
23 6 1 44 0 -1
23 28 1 22 0 2
haar_y2
-7.965176e-004 0 -1
1.289894e-001 -1.145970e-001 
1
2
22 0 2 24 0 -1
22 8 2 8 0 3
haar_y3
2.688335e-002 0 -1
2.240767e-002 -6.552246e-001 
1
2
5 16 15 2 0 -1
10 16 5 2 0 3
haar_x3
3.635794e-002 0 -1
-2.128738e-002 7.939757e-001 
1
2
3 0 9 16 0 -1
6 0 3 16 0 3
haar_x3
-6.959775e-002 0 -1
-6.678569e-001 2.533485e-002 
1
2
8 0 2 8 0 -1
8 4 2 4 0 2
haar_y2
-6.508968e-003 0 -1
-2.663423e-001 4.564388e-002 
1
2
5 0 7 8 0 -1
5 4 7 4 0 2
haar_y2
1.978216e-002 0 -1
3.209845e-002 -4.303523e-001 
1
2
2 0 18 24 0 -1
2 8 18 8 0 3
haar_y3
6.953284e-002 0 -1
-6.843696e-002 2.153651e-001 
1
2
2 5 22 4 0 -1
2 7 22 2 0 2
haar_y2
-7.987780e-003 0 -1
1.862896e-001 -8.414271e-002 
1
2
8 7 11 3 0 -1
8 8 11 1 0 3
haar_y3
1.761989e-003 0 -1
-5.912647e-002 2.640190e-001 
1
2
18 48 3 4 0 -1
19 48 1 4 0 3
haar_x3
3.855020e-004 0 -1
5.395535e-002 -2.787527e-001 
1
2
6 6 11 18 0 -1
6 12 11 6 0 3
haar_y3
1.386922e-001 0 -1
1.474626e-002 -9.735919e-001 
1
2
16 0 3 12 0 -1
17 0 1 12 0 3
haar_x3
6.466202e-003 0 -1
1.650387e-002 -6.025720e-001 
1
2
16 6 6 39 0 -1
18 6 2 39 0 3
haar_x3
1.296990e-002 0 -1
-7.505453e-002 1.979604e-001 
1
2
15 20 9 15 0 -1
18 20 3 15 0 3
haar_x3
-6.185167e-003 0 -1
1.412892e-001 -1.089459e-001 
1
3
2 39 22 4 0 -1
2 39 11 2 0 2
13 41 11 2 0 2
haar_x2_y2
1.343905e-002 0 -1
1.848722e-002 -8.295935e-001 
1
3
11 0 4 4 0 -1
11 0 2 2 0 2
13 2 2 2 0 2
haar_x2_y2
6.398780e-004 0 -1
-8.779062e-002 1.662983e-001 
1
2
12 2 2 3 0 -1
13 2 1 3 0 2
haar_x2
-4.595985e-005 0 -1
1.275414e-001 -1.093505e-001 
1
2
9 22 3 2 0 -1
10 22 1 2 0 3
haar_x3
-2.154859e-004 0 -1
-2.057064e-001 7.070732e-002 
1
3
14 34 6 6 0 -1
14 34 3 3 0 2
17 37 3 3 0 2
haar_x2_y2
-9.369986e-004 0 -1
1.523472e-001 -9.102797e-002 
1
3
22 28 2 18 0 -1
22 28 1 9 0 2
23 37 1 9 0 2
haar_x2_y2
1.874629e-003 0 -1
4.084596e-002 -3.502954e-001 
1
2
22 32 2 3 0 -1
23 32 1 3 0 2
haar_x2
2.255671e-004 0 -1
7.572779e-002 -1.915036e-001 
1
3
20 17 4 24 0 -1
20 17 2 12 0 2
22 29 2 12 0 2
haar_x2_y2
5.854716e-003 0 -1
-6.553452e-002 2.264723e-001 
1
2
21 0 3 2 0 -1
21 1 3 1 0 2
haar_y2
-1.758745e-005 0 -1
1.340322e-001 -1.072994e-001 
-1.006646e+000

17
-1
