20
1
2
4 0 14 11 0 -1
11 0 7 11 0 2
haar_x2
-6.879547e-003 0 -1
-5.077346e-001 2.424950e-001 
1
2
12 8 3 3 0 -1
13 8 1 3 0 3
haar_x3
3.355833e-003 0 -1
-1.538326e-001 5.281771e-001 
1
2
13 10 3 1 0 -1
14 10 1 1 0 3
haar_x3
1.413846e-003 0 -1
-1.295553e-001 5.042722e-001 
1
2
15 10 3 1 0 -1
16 10 1 1 0 3
haar_x3
1.409074e-003 0 -1
-1.396591e-001 5.007102e-001 
1
3
22 5 6 12 0 -1
22 5 3 6 0 2
25 11 3 6 0 2
haar_x2_y2
1.509721e-002 0 -1
1.217435e-001 -6.059908e-001 
1
2
17 9 3 2 0 -1
18 9 1 2 0 3
haar_x3
2.399304e-003 0 -1
-1.521529e-001 5.136815e-001 
1
2
10 9 3 2 0 -1
11 9 1 2 0 3
haar_x3
1.917040e-003 0 -1
-1.022275e-001 4.561240e-001 
1
2
5 18 12 1 0 -1
11 18 6 1 0 2
haar_x2
-1.112140e-003 0 -1
1.637122e-001 -3.503926e-001 
1
2
26 0 2 18 0 -1
27 0 1 18 0 2
haar_x2
-4.925596e-003 0 -1
2.302565e-001 -2.619364e-001 
1
2
6 18 3 2 0 -1
6 19 3 1 0 2
haar_y2
-2.635786e-003 0 -1
-7.011416e-001 8.328676e-002 
1
2
4 1 11 8 0 -1
4 5 11 4 0 2
haar_y2
-5.555256e-003 0 -1
1.185021e-001 -4.299483e-001 
1
2
9 0 9 8 0 -1
12 0 3 8 0 3
haar_x3
-3.085519e-002 0 -1
5.002937e-001 -1.185093e-001 
1
2
10 9 3 3 0 -1
11 9 1 3 0 3
haar_x3
-5.601354e-003 0 -1
7.908198e-001 -5.409736e-002 
1
2
14 10 3 1 0 -1
15 10 1 1 0 3
haar_x3
1.429078e-003 0 -1
-1.298158e-001 4.096411e-001 
1
2
0 1 8 19 0 -1
4 1 4 19 0 2
haar_x2
6.774855e-002 0 -1
-2.060602e-001 2.375741e-001 
1
3
6 2 18 18 0 -1
6 2 9 9 0 2
15 11 9 9 0 2
haar_x2_y2
-1.388195e-001 0 -1
-8.566189e-001 6.604163e-002 
1
2
6 14 6 3 0 -1
6 15 6 1 0 3
haar_y3
8.436369e-004 0 -1
-2.566245e-001 2.030588e-001 
1
2
10 6 8 6 0 -1
10 9 8 3 0 2
haar_y2
9.014154e-003 0 -1
-4.340006e-001 1.254929e-001 
1
2
16 11 9 3 0 -1
16 12 9 1 0 3
haar_y3
-6.102585e-003 0 -1
7.394926e-001 -7.772932e-002 
1
3
19 12 2 2 0 -1
19 12 1 1 0 2
20 13 1 1 0 2
haar_x2_y2
-1.133415e-003 0 -1
7.616915e-001 -5.403228e-002 
-1.112507e+000

10
-1
