89
1
2
0 16 12 2 0 -1
4 16 4 2 0 3
haar_x3
-3.884449e-002 0 -1
2.378047e-001 -3.744835e-001 
1
2
1 2 9 2 0 -1
4 2 3 2 0 3
haar_x3
-5.021038e-002 0 -1
4.304273e-001 -1.433119e-001 
1
2
2 4 8 9 0 -1
2 7 8 3 0 3
haar_y3
-4.476359e-002 0 -1
2.894190e-001 -1.279127e-001 
1
2
0 25 6 1 0 -1
2 25 2 1 0 3
haar_x3
8.137980e-004 0 -1
-1.861445e-001 1.788127e-001 
1
2
0 22 4 4 0 -1
2 22 2 4 0 2
haar_x2
-9.535978e-004 0 -1
1.143087e-001 -2.733825e-001 
1
2
11 0 1 15 0 -1
11 5 1 5 0 3
haar_y3
-9.712690e-003 0 -1
-2.662958e-001 1.254713e-001 
1
3
10 2 2 2 0 -1
10 2 1 1 0 2
11 3 1 1 0 2
haar_x2_y2
3.328792e-004 0 -1
9.400569e-002 -2.590999e-001 
1
2
7 11 2 1 0 -1
8 11 1 1 0 2
haar_x2
-5.555626e-005 0 -1
1.244326e-001 -1.718856e-001 
1
2
7 8 1 2 0 -1
7 9 1 1 0 2
haar_y2
-2.417420e-005 0 -1
1.549104e-001 -1.603652e-001 
1
3
0 8 2 14 0 -1
0 8 1 7 0 2
1 15 1 7 0 2
haar_x2_y2
7.514792e-003 0 -1
-1.162028e-001 1.977111e-001 
1
2
11 6 1 8 0 -1
11 10 1 4 0 2
haar_y2
-1.025766e-002 0 -1
-2.995871e-001 7.127847e-002 
1
3
7 5 4 6 0 -1
7 5 2 3 0 2
9 8 2 3 0 2
haar_x2_y2
-5.116486e-003 0 -1
2.042608e-001 -9.697884e-002 
1
2
2 5 8 16 0 -1
2 13 8 8 0 2
haar_y2
-4.310803e-001 0 -1
5.632808e-001 -3.834656e-002 
1
2
2 1 5 6 0 -1
2 4 5 3 0 2
haar_y2
-2.940125e-002 0 -1
1.936790e-001 -1.005853e-001 
1
2
4 12 3 14 0 -1
5 12 1 14 0 3
haar_x3
1.317305e-002 0 -1
-6.557366e-002 3.506972e-001 
1
2
0 5 11 15 0 -1
0 10 11 5 0 3
haar_y3
-1.382227e-001 0 -1
1.813003e-001 -1.037970e-001 
1
2
2 8 1 12 0 -1
2 14 1 6 0 2
haar_y2
-2.085994e-002 0 -1
2.736877e-001 -8.050514e-002 
1
2
4 19 3 6 0 -1
5 19 1 6 0 3
haar_x3
-9.569474e-003 0 -1
2.644984e-001 -7.620679e-002 
1
2
3 6 4 3 0 -1
3 7 4 1 0 3
haar_y3
1.109878e-003 0 -1
8.858047e-002 -1.900529e-001 
1
2
2 3 10 8 0 -1
2 7 10 4 0 2
haar_y2
-2.216154e-001 0 -1
-7.610654e-001 1.997817e-002 
1
2
1 1 1 2 0 -1
1 2 1 1 0 2
haar_y2
2.558483e-003 0 -1
2.424639e-002 -5.631070e-001 
1
2
8 9 3 2 0 -1
9 9 1 2 0 3
haar_x3
4.653891e-003 0 -1
-5.984765e-002 2.850337e-001 
1
2
4 7 5 3 0 -1
4 8 5 1 0 3
haar_y3
-7.137014e-005 0 -1
1.213013e-001 -1.337710e-001 
1
2
7 9 1 2 0 -1
7 10 1 1 0 2
haar_y2
-5.428174e-005 0 -1
1.234134e-001 -1.704657e-001 
1
2
1 1 10 24 0 -1
1 9 10 8 0 3
haar_y3
6.103114e-001 0 -1
-3.058775e-002 6.338992e-001 
1
2
8 2 4 15 0 -1
10 2 2 15 0 2
haar_x2
5.860948e-002 0 -1
-9.848057e-002 1.540135e-001 
1
2
3 1 9 3 0 -1
3 2 9 1 0 3
haar_y3
-4.814039e-003 0 -1
1.633118e-001 -1.076284e-001 
1
2
1 3 10 3 0 -1
1 4 10 1 0 3
haar_y3
-5.135518e-003 0 -1
1.741774e-001 -1.042893e-001 
1
2
1 5 4 6 0 -1
1 7 4 2 0 3
haar_y3
-3.844873e-002 0 -1
-5.458820e-001 3.186527e-002 
1
3
2 6 2 2 0 -1
2 6 1 1 0 2
3 7 1 1 0 2
haar_x2_y2
6.113855e-005 0 -1
-1.242610e-001 1.232155e-001 
1
2
0 4 6 4 0 -1
2 4 2 4 0 3
haar_x3
1.130288e-002 0 -1
-8.664752e-002 1.789121e-001 
1
2
10 23 2 1 0 -1
11 23 1 1 0 2
haar_x2
-4.418375e-004 0 -1
-2.651436e-001 6.420411e-002 
1
2
10 21 2 3 0 -1
11 21 1 3 0 2
haar_x2
2.082287e-003 0 -1
8.804145e-002 -2.297058e-001 
1
2
6 23 6 2 0 -1
9 23 3 2 0 2
haar_x2
3.008317e-003 0 -1
-1.934879e-001 7.453406e-002 
1
2
2 22 9 3 0 -1
5 22 3 3 0 3
haar_x3
6.751341e-003 0 -1
-5.520933e-002 2.845035e-001 
1
2
4 14 2 1 0 -1
5 14 1 1 0 2
haar_x2
-2.337998e-003 0 -1
-4.301974e-001 3.661619e-002 
1
2
4 0 3 2 0 -1
5 0 1 2 0 3
haar_x3
-1.137105e-002 0 -1
-6.291736e-001 1.881562e-002 
1
2
1 4 2 6 0 -1
1 6 2 2 0 3
haar_y3
-6.030581e-003 0 -1
1.835110e-001 -8.022150e-002 
1
2
3 2 3 3 0 -1
4 2 1 3 0 3
haar_x3
5.296854e-003 0 -1
-5.720815e-002 2.667587e-001 
1
2
3 0 3 7 0 -1
4 0 1 7 0 3
haar_x3
-2.798354e-003 0 -1
1.583292e-001 -1.222204e-001 
1
3
1 22 10 2 0 -1
1 22 5 1 0 2
6 23 5 1 0 2
haar_x2_y2
-9.987043e-003 0 -1
-4.314288e-001 3.293596e-002 
1
2
0 13 3 1 0 -1
1 13 1 1 0 3
haar_x3
-6.114987e-004 0 -1
1.493264e-001 -1.007471e-001 
1
2
0 12 3 2 0 -1
1 12 1 2 0 3
haar_x3
5.004478e-003 0 -1
-5.842790e-002 3.173723e-001 
1
2
3 6 3 2 0 -1
3 7 3 1 0 2
haar_y2
-9.850913e-005 0 -1
9.144877e-002 -1.694821e-001 
1
2
0 0 10 12 0 -1
5 0 5 12 0 2
haar_x2
-4.476784e-001 0 -1
-8.574947e-001 1.621850e-002 
1
2
4 1 2 1 0 -1
5 1 1 1 0 2
haar_x2
-6.868537e-005 0 -1
1.162414e-001 -1.272179e-001 
1
2
2 2 6 2 0 -1
5 2 3 2 0 2
haar_x2
2.569926e-003 0 -1
-1.045971e-001 1.654832e-001 
1
2
4 4 2 10 0 -1
5 4 1 10 0 2
haar_x2
-2.279398e-004 0 -1
1.151313e-001 -1.501898e-001 
1
2
3 5 9 6 0 -1
6 5 3 6 0 3
haar_x3
8.854008e-002 0 -1
-6.082708e-002 3.329796e-001 
1
2
5 7 2 1 0 -1
6 7 1 1 0 2
haar_x2
6.718164e-004 0 -1
9.004217e-002 -2.272339e-001 
1
2
10 5 2 12 0 -1
10 9 2 4 0 3
haar_y3
1.813265e-003 0 -1
-1.178095e-001 1.321305e-001 
1
2
4 8 2 3 0 -1
5 8 1 3 0 2
haar_x2
-2.298308e-003 0 -1
-2.188549e-001 7.594307e-002 
1
3
4 6 6 10 0 -1
4 6 3 5 0 2
7 11 3 5 0 2
haar_x2_y2
-7.946539e-002 0 -1
4.910279e-001 -3.336615e-002 
1
2
11 3 1 3 0 -1
11 4 1 1 0 3
haar_y3
7.702755e-004 0 -1
6.553626e-002 -2.445456e-001 
1
3
9 4 2 10 0 -1
9 4 1 5 0 2
10 9 1 5 0 2
haar_x2_y2
-2.305877e-003 0 -1
1.740399e-001 -8.211157e-002 
1
3
0 6 12 2 0 -1
0 6 6 1 0 2
6 7 6 1 0 2
haar_x2_y2
8.043390e-003 0 -1
5.345576e-002 -2.704644e-001 
1
2
4 20 8 3 0 -1
8 20 4 3 0 2
haar_x2
6.028983e-003 0 -1
-1.872758e-001 7.559887e-002 
1
2
5 19 4 5 0 -1
7 19 2 5 0 2
haar_x2
-6.824129e-004 0 -1
1.585193e-001 -9.821818e-002 
1
2
5 15 6 11 0 -1
7 15 2 11 0 3
haar_x3
1.412384e-002 0 -1
-6.837343e-002 2.196958e-001 
1
2
0 7 10 6 0 -1
0 10 10 3 0 2
haar_y2
-2.176942e-002 0 -1
1.157985e-001 -1.340140e-001 
1
2
6 21 3 2 0 -1
7 21 1 2 0 3
haar_x3
-9.597955e-003 0 -1
4.015924e-001 -3.904924e-002 
1
2
4 0 6 1 0 -1
6 0 2 1 0 3
haar_x3
4.678570e-003 0 -1
6.541086e-002 -2.290143e-001 
1
2
4 4 8 6 0 -1
4 6 8 2 0 3
haar_y3
-8.225635e-003 0 -1
1.515588e-001 -9.538369e-002 
1
2
9 0 3 11 0 -1
10 0 1 11 0 3
haar_x3
-4.240882e-002 0 -1
-7.570232e-001 1.733989e-002 
1
2
5 8 4 3 0 -1
5 9 4 1 0 3
haar_y3
-1.130343e-004 0 -1
1.057951e-001 -1.269638e-001 
1
3
7 8 4 8 0 -1
7 8 2 4 0 2
9 12 2 4 0 2
haar_x2_y2
7.732250e-003 0 -1
-1.141252e-001 1.242040e-001 
1
2
9 1 1 22 0 -1
9 12 1 11 0 2
haar_y2
-1.965579e-002 0 -1
1.220855e-001 -1.135715e-001 
1
2
4 8 8 18 0 -1
4 14 8 6 0 3
haar_y3
-3.310660e-001 0 -1
-5.862964e-001 2.816541e-002 
1
2
5 2 4 3 0 -1
5 3 4 1 0 3
haar_y3
-2.302087e-003 0 -1
1.265361e-001 -1.054704e-001 
1
2
4 8 6 18 0 -1
4 17 6 9 0 2
haar_y2
9.581664e-002 0 -1
-7.492113e-002 1.951876e-001 
1
2
1 1 1 3 0 -1
1 2 1 1 0 3
haar_y3
-7.656299e-004 0 -1
-2.385232e-001 6.364179e-002 
1
3
1 3 2 8 0 -1
1 3 1 4 0 2
2 7 1 4 0 2
haar_x2_y2
2.861452e-003 0 -1
-9.324241e-002 1.709263e-001 
1
3
1 8 2 6 0 -1
1 8 1 3 0 2
2 11 1 3 0 2
haar_x2_y2
1.818204e-003 0 -1
-8.477020e-002 1.728475e-001 
1
3
0 9 10 4 0 -1
0 9 5 2 0 2
5 11 5 2 0 2
haar_x2_y2
1.808799e-002 0 -1
4.653452e-002 -2.969536e-001 
1
3
7 14 4 10 0 -1
7 14 2 5 0 2
9 19 2 5 0 2
haar_x2_y2
1.566341e-002 0 -1
-6.958023e-002 2.040101e-001 
1
3
6 18 6 2 0 -1
6 18 3 1 0 2
9 19 3 1 0 2
haar_x2_y2
-8.318946e-005 0 -1
1.303913e-001 -1.389638e-001 
1
3
1 14 8 8 0 -1
1 14 4 4 0 2
5 18 4 4 0 2
haar_x2_y2
5.283419e-002 0 -1
2.939152e-002 -4.188897e-001 
1
3
2 22 2 2 0 -1
2 22 1 1 0 2
3 23 1 1 0 2
haar_x2_y2
-6.321270e-005 0 -1
1.285754e-001 -9.955411e-002 
1
2
4 5 3 21 0 -1
5 5 1 21 0 3
haar_x3
-1.121247e-002 0 -1
1.387892e-001 -8.965686e-002 
1
2
11 3 1 2 0 -1
11 4 1 1 0 2
haar_y2
-2.143229e-003 0 -1
-4.353157e-001 2.900460e-002 
1
2
0 6 2 19 0 -1
1 6 1 19 0 2
haar_x2
-7.831449e-003 0 -1
9.129378e-002 -1.280686e-001 
1
2
3 8 8 18 0 -1
3 17 8 9 0 2
haar_y2
-2.488639e-001 0 -1
2.615246e-001 -5.545318e-002 
1
2
4 15 2 1 0 -1
5 15 1 1 0 2
haar_x2
3.636651e-004 0 -1
6.597748e-002 -2.022237e-001 
1
3
1 15 2 2 0 -1
1 15 1 1 0 2
2 16 1 1 0 2
haar_x2_y2
1.302806e-004 0 -1
-1.001123e-001 1.376704e-001 
1
2
4 0 8 3 0 -1
4 1 8 1 0 3
haar_y3
-5.381675e-003 0 -1
1.862045e-001 -6.679195e-002 
1
2
4 0 8 3 0 -1
4 1 8 1 0 3
haar_y3
5.451428e-003 0 -1
-7.349610e-002 1.795740e-001 
1
2
0 5 1 3 0 -1
0 6 1 1 0 3
haar_y3
-4.564178e-003 0 -1
-6.244262e-001 2.047233e-002 
1
3
0 2 10 24 0 -1
0 2 5 12 0 2
5 14 5 12 0 2
haar_x2_y2
-4.104922e-001 0 -1
-6.205917e-001 1.641644e-002 
1
2
5 1 7 4 0 -1
5 3 7 2 0 2
haar_y2
-5.471983e-002 0 -1
-4.195285e-001 2.724233e-002 
-1.179959e+000

13
-1
