14
1
2
12 1 4 12 0 -1
12 5 4 4 0 3
haar_y3
4.580224e-002 0 -1
-6.184084e-001 5.171901e-001 
1
2
3 1 3 8 0 -1
3 5 3 4 0 2
haar_y2
1.749846e-002 0 -1
-5.871434e-001 3.006575e-001 
1
2
5 9 10 6 0 -1
5 11 10 2 0 3
haar_y3
-3.401487e-002 0 -1
4.499498e-001 -2.735481e-001 
1
2
4 2 2 3 0 -1
4 3 2 1 0 3
haar_y3
-4.431616e-003 0 -1
4.328192e-001 -2.270544e-001 
1
2
0 5 13 3 0 -1
0 6 13 1 0 3
haar_y3
1.910663e-002 0 -1
2.504615e-001 -5.037407e-001 
1
2
4 0 4 2 0 -1
4 1 4 1 0 2
haar_y2
-8.852710e-003 0 -1
3.786887e-001 -2.687010e-001 
1
2
10 12 1 3 0 -1
10 13 1 1 0 3
haar_y3
-1.673000e-003 0 -1
5.860258e-001 -1.422831e-001 
1
2
10 3 2 1 0 -1
11 3 1 1 0 2
haar_x2
-1.270120e-003 0 -1
4.706409e-001 -1.674371e-001 
1
2
16 0 4 1 0 -1
18 0 2 1 0 2
haar_x2
-2.492889e-004 0 -1
2.477049e-001 -3.722773e-001 
1
3
6 14 10 4 0 -1
6 14 5 2 0 2
11 16 5 2 0 2
haar_x2_y2
1.664071e-002 0 -1
8.038914e-002 -6.149405e-001 
1
3
1 10 2 6 0 -1
1 10 1 3 0 2
2 13 1 3 0 2
haar_x2_y2
-2.319395e-003 0 -1
3.295462e-001 -1.976969e-001 
1
2
5 17 11 2 0 -1
5 18 11 1 0 2
haar_y2
3.492110e-003 0 -1
1.299395e-001 -4.970185e-001 
1
2
10 5 3 1 0 -1
11 5 1 1 0 3
haar_x3
2.460298e-003 0 -1
-1.170190e-001 6.440713e-001 
1
3
5 2 10 18 0 -1
5 2 5 9 0 2
10 11 5 9 0 2
haar_x2_y2
-4.341653e-002 0 -1
-4.169620e-001 1.930712e-001 
-1.594210e+000

13
-1
