61
1
2
4 4 2 14 0 -1
4 11 2 7 0 2
haar_y2
-6.008203e-002 0 -1
5.688651e-001 -1.519992e-001 
1
2
3 13 11 4 0 -1
3 15 11 2 0 2
haar_y2
-1.580997e-002 0 -1
3.478013e-001 -1.404582e-001 
1
2
3 1 11 6 0 -1
3 3 11 2 0 3
haar_y3
-1.087540e-001 0 -1
-4.035019e-001 8.570608e-002 
1
2
9 18 4 2 0 -1
9 19 4 1 0 2
haar_y2
-1.982696e-003 0 -1
1.153312e-001 -2.806318e-001 
1
3
5 6 6 14 0 -1
5 6 3 7 0 2
8 13 3 7 0 2
haar_x2_y2
1.711328e-002 0 -1
1.991130e-001 -1.591679e-001 
1
2
14 8 2 9 0 -1
14 11 2 3 0 3
haar_y3
-1.521206e-002 0 -1
2.702228e-001 -1.305766e-001 
1
2
1 8 18 4 0 -1
7 8 6 4 0 3
haar_x3
4.853028e-002 0 -1
6.686835e-002 -5.355257e-001 
1
2
2 15 16 2 0 -1
10 15 8 2 0 2
haar_x2
2.861871e-002 0 -1
9.634531e-002 -2.925316e-001 
1
2
18 7 2 4 0 -1
19 7 1 4 0 2
haar_x2
-5.922964e-003 0 -1
2.181586e-001 -1.288911e-001 
1
2
16 8 1 6 0 -1
16 11 1 3 0 2
haar_y2
2.914831e-003 0 -1
-6.825966e-002 4.845528e-001 
1
2
8 14 3 2 0 -1
9 14 1 2 0 3
haar_x3
-1.245697e-003 0 -1
2.820737e-001 -7.813731e-002 
1
3
15 0 4 10 0 -1
15 0 2 5 0 2
17 5 2 5 0 2
haar_x2_y2
3.650986e-003 0 -1
9.556962e-002 -2.906715e-001 
1
2
6 15 3 1 0 -1
7 15 1 1 0 3
haar_x3
-1.432737e-003 0 -1
3.603723e-001 -8.944549e-002 
1
2
1 2 17 16 0 -1
1 10 17 8 0 2
haar_y2
-4.218682e-001 0 -1
4.740976e-001 -2.662054e-002 
1
2
0 9 13 6 0 -1
0 12 13 3 0 2
haar_y2
-7.834710e-002 0 -1
-5.084147e-001 3.898156e-002 
1
2
19 6 1 3 0 -1
19 7 1 1 0 3
haar_y3
2.149168e-003 0 -1
3.905462e-002 -5.553674e-001 
1
2
5 13 2 6 0 -1
6 13 1 6 0 2
haar_x2
8.008945e-003 0 -1
-5.605788e-002 4.197445e-001 
1
2
14 8 3 11 0 -1
15 8 1 11 0 3
haar_x3
-1.558857e-002 0 -1
4.903736e-001 -4.357816e-002 
1
2
0 16 8 2 0 -1
4 16 4 2 0 2
haar_x2
7.485544e-002 0 -1
-2.386274e-002 8.523670e-001 
1
2
9 8 6 12 0 -1
9 14 6 6 0 2
haar_y2
-6.930491e-002 0 -1
2.735637e-001 -7.654177e-002 
1
2
9 8 5 12 0 -1
9 14 5 6 0 2
haar_y2
4.306841e-002 0 -1
-1.023610e-001 2.574571e-001 
1
2
3 1 1 8 0 -1
3 5 1 4 0 2
haar_y2
7.983617e-003 0 -1
-1.911570e-001 1.232611e-001 
1
2
9 13 3 6 0 -1
10 13 1 6 0 3
haar_x3
-4.275152e-003 0 -1
3.923351e-001 -6.230776e-002 
1
2
10 15 6 3 0 -1
12 15 2 3 0 3
haar_x3
-8.874793e-003 0 -1
3.479753e-001 -5.530158e-002 
1
2
18 2 1 16 0 -1
18 10 1 8 0 2
haar_y2
3.858194e-002 0 -1
3.655295e-002 -6.813855e-001 
1
3
5 18 6 2 0 -1
5 18 3 1 0 2
8 19 3 1 0 2
haar_x2_y2
-7.457185e-003 0 -1
2.792738e-001 -7.880995e-002 
1
2
9 16 3 3 0 -1
9 17 3 1 0 3
haar_y3
4.857264e-003 0 -1
1.022582e-001 -2.558283e-001 
1
2
10 16 3 3 0 -1
10 17 3 1 0 3
haar_y3
-4.216740e-003 0 -1
-4.503405e-001 6.000183e-002 
1
2
2 7 2 8 0 -1
2 11 2 4 0 2
haar_y2
-3.064549e-002 0 -1
3.467753e-001 -6.262746e-002 
1
2
2 9 18 1 0 -1
11 9 9 1 0 2
haar_x2
2.769747e-002 0 -1
-5.351479e-002 4.031270e-001 
1
2
14 16 3 4 0 -1
14 18 3 2 0 2
haar_y2
-1.845282e-002 0 -1
3.974884e-001 -4.707506e-002 
1
2
13 13 2 5 0 -1
14 13 1 5 0 2
haar_x2
-6.970682e-003 0 -1
3.276372e-001 -6.091012e-002 
1
2
8 18 3 1 0 -1
9 18 1 1 0 3
haar_x3
-7.089010e-004 0 -1
2.868166e-001 -6.600916e-002 
1
3
2 17 16 2 0 -1
2 17 8 1 0 2
10 18 8 1 0 2
haar_x2_y2
-1.346163e-002 0 -1
-5.707732e-001 3.924057e-002 
1
2
4 18 1 2 0 -1
4 19 1 1 0 2
haar_y2
1.430955e-003 0 -1
-8.436565e-002 2.531895e-001 
1
3
2 10 8 4 0 -1
2 10 4 2 0 2
6 12 4 2 0 2
haar_x2_y2
-2.433678e-002 0 -1
5.378109e-001 -3.594807e-002 
1
2
2 6 18 4 0 -1
8 6 6 4 0 3
haar_x3
-5.807973e-002 0 -1
2.592072e-001 -7.090201e-002 
1
2
4 2 12 16 0 -1
4 10 12 8 0 2
haar_y2
-1.083712e-001 0 -1
1.510797e-001 -1.616212e-001 
1
2
3 14 4 2 0 -1
3 15 4 1 0 2
haar_y2
1.748925e-003 0 -1
-9.401932e-002 2.436579e-001 
1
2
8 11 2 9 0 -1
9 11 1 9 0 2
haar_x2
-8.302051e-003 0 -1
-5.000311e-001 4.804072e-002 
1
2
5 7 4 1 0 -1
7 7 2 1 0 2
haar_x2
8.299930e-004 0 -1
-1.015527e-001 1.977206e-001 
1
2
4 5 9 1 0 -1
7 5 3 1 0 3
haar_x3
-1.164300e-002 0 -1
4.226180e-001 -4.803361e-002 
1
2
4 12 3 5 0 -1
5 12 1 5 0 3
haar_x3
6.133391e-003 0 -1
-5.922679e-002 3.062383e-001 
1
2
4 13 3 4 0 -1
5 13 1 4 0 3
haar_x3
-5.405664e-003 0 -1
3.377664e-001 -6.102297e-002 
1
2
4 14 16 6 0 -1
4 17 16 3 0 2
haar_y2
-8.337083e-002 0 -1
2.111361e-001 -8.812010e-002 
1
2
9 13 1 6 0 -1
9 15 1 2 0 3
haar_y3
9.283379e-003 0 -1
6.818378e-002 -3.247718e-001 
1
2
11 16 3 1 0 -1
12 16 1 1 0 3
haar_x3
-7.049184e-004 0 -1
2.851269e-001 -8.063795e-002 
1
3
12 4 8 4 0 -1
12 4 4 2 0 2
16 6 4 2 0 2
haar_x2_y2
-1.646989e-002 0 -1
-2.377987e-001 8.554706e-002 
1
2
13 6 4 10 0 -1
15 6 2 10 0 2
haar_x2
4.171380e-002 0 -1
3.055630e-002 -6.039881e-001 
1
2
10 16 3 1 0 -1
11 16 1 1 0 3
haar_x3
-1.149104e-003 0 -1
3.484378e-001 -5.914018e-002 
1
2
9 11 6 6 0 -1
11 11 2 6 0 3
haar_x3
-3.582935e-002 0 -1
-7.380535e-001 3.139715e-002 
1
3
12 1 6 6 0 -1
12 1 3 3 0 2
15 4 3 3 0 2
haar_x2_y2
-2.394433e-002 0 -1
-4.299768e-001 3.729340e-002 
1
2
9 9 3 3 0 -1
9 10 3 1 0 3
haar_y3
-1.570003e-002 0 -1
-4.461546e-001 3.889576e-002 
1
2
13 12 7 4 0 -1
13 14 7 2 0 2
haar_y2
-3.867237e-002 0 -1
-7.195081e-001 2.703382e-002 
1
2
12 8 3 9 0 -1
12 11 3 3 0 3
haar_y3
-7.087573e-002 0 -1
-7.238461e-001 2.153992e-002 
1
2
0 4 1 6 0 -1
0 6 1 2 0 3
haar_y3
6.111369e-003 0 -1
4.197330e-002 -3.872641e-001 
1
2
5 0 1 3 0 -1
5 1 1 1 0 3
haar_y3
-2.008086e-003 0 -1
1.648841e-001 -1.107828e-001 
1
3
0 0 18 6 0 -1
0 0 9 3 0 2
9 3 9 3 0 2
haar_x2_y2
2.398563e-002 0 -1
-1.057152e-001 1.920281e-001 
1
2
5 12 10 6 0 -1
5 15 10 3 0 2
haar_y2
7.770899e-002 0 -1
-5.593214e-002 3.803991e-001 
1
2
2 11 9 8 0 -1
2 15 9 4 0 2
haar_y2
-7.759720e-002 0 -1
3.396416e-001 -6.381386e-002 
1
2
16 3 3 12 0 -1
17 3 1 12 0 3
haar_x3
-1.948817e-002 0 -1
-7.177888e-001 2.700052e-002 
-9.896027e-001

14
-1
