3
2
2
2 7 16 4 0 -1.000000
2 9 16 2 0 2.000000
haar
0.004327 0 1
2
8 4 3 14 0 -1.000000
8 11 3 7 0 2.000000
haar
0.013076 -1 -2
0.038382 0.896526 0.262931 
2
2
13 6 1 6 0 -1.000000
13 9 1 3 0 2.000000
haar
0.000524 0 1
2
4 2 12 8 0 -1.000000
8 2 4 8 0 3.000000
haar
0.004457 -1 -2
0.102166 0.123840 0.691038 
2
2
6 3 1 9 0 -1.000000
6 6 1 3 0 3.000000
haar
-0.000927 1 0
2
3 7 14 9 0 -1.000000
3 10 14 3 0 3.000000
haar
0.000340 -1 -2
0.195370 0.210144 0.825867 
0.350692

-1
-1
