71
1
2
14 6 10 43 0 -1
19 6 5 43 0 2
haar_x2
9.668337e-002 0 -1
-2.236088e-001 2.270022e-001 
1
2
1 37 9 15 0 -1
4 37 3 15 0 3
haar_x3
1.646790e-003 0 -1
-2.330929e-001 1.868170e-001 
1
2
15 10 7 42 0 -1
15 31 7 21 0 2
haar_y2
8.774582e-002 0 -1
-1.321603e-001 2.667700e-001 
1
2
9 7 10 32 0 -1
9 23 10 16 0 2
haar_y2
-2.193517e-001 0 -1
6.269591e-001 -5.677167e-002 
1
2
0 0 14 5 0 -1
7 0 7 5 0 2
haar_x2
-8.974549e-003 0 -1
1.719335e-001 -1.982951e-001 
1
2
0 43 6 9 0 -1
3 43 3 9 0 2
haar_x2
-5.740722e-004 0 -1
1.729440e-001 -2.034649e-001 
1
2
0 50 3 1 0 -1
1 50 1 1 0 3
haar_x3
9.036280e-005 0 -1
2.608397e-002 -4.101165e-001 
1
2
17 12 5 2 0 -1
17 13 5 1 0 2
haar_y2
-5.395673e-005 0 -1
1.488287e-001 -1.981898e-001 
1
2
0 50 3 2 0 -1
1 50 1 2 0 3
haar_x3
-1.407166e-004 0 -1
-4.000819e-001 8.910406e-002 
1
2
1 6 6 12 0 -1
3 6 2 12 0 3
haar_x3
-3.124565e-003 0 -1
1.775316e-001 -1.746843e-001 
1
2
2 12 3 4 0 -1
3 12 1 4 0 3
haar_x3
8.838862e-004 0 -1
-7.555710e-002 3.059225e-001 
1
2
0 0 24 43 0 -1
8 0 8 43 0 3
haar_x3
1.432463e-001 0 -1
-4.797501e-002 4.039656e-001 
1
2
22 36 2 3 0 -1
23 36 1 3 0 2
haar_x2
2.295425e-004 0 -1
9.627598e-002 -2.466424e-001 
1
2
20 12 3 37 0 -1
21 12 1 37 0 3
haar_x3
-2.603028e-003 0 -1
2.616989e-001 -9.912246e-002 
1
2
20 44 2 1 0 -1
21 44 1 1 0 2
haar_x2
1.360648e-005 0 -1
-1.761505e-001 1.536731e-001 
1
2
5 1 10 3 0 -1
5 2 10 1 0 3
haar_y3
-1.476283e-003 0 -1
2.441127e-001 -1.141167e-001 
1
3
22 50 2 2 0 -1
22 50 1 1 0 2
23 51 1 1 0 2
haar_x2_y2
-4.774992e-005 0 -1
-3.245200e-001 8.880097e-002 
1
3
22 50 2 2 0 -1
22 50 1 1 0 2
23 51 1 1 0 2
haar_x2_y2
5.813004e-005 0 -1
5.391945e-002 -4.494396e-001 
1
2
8 1 11 3 0 -1
8 2 11 1 0 3
haar_y3
1.389925e-003 0 -1
-7.540106e-002 3.104474e-001 
1
2
3 1 1 2 0 -1
3 2 1 1 0 2
haar_y2
-1.787510e-004 0 -1
-3.604095e-001 5.558919e-002 
1
2
8 0 14 6 0 -1
8 2 14 2 0 3
haar_y3
-2.333757e-003 0 -1
1.744829e-001 -1.246701e-001 
1
2
10 34 6 16 0 -1
12 34 2 16 0 3
haar_x3
6.413502e-003 0 -1
-9.230023e-002 2.488957e-001 
1
2
10 36 6 6 0 -1
12 36 2 6 0 3
haar_x3
-2.742133e-003 0 -1
2.310475e-001 -1.283024e-001 
1
2
11 5 2 6 0 -1
11 7 2 2 0 3
haar_y3
-4.543769e-004 0 -1
1.605287e-001 -1.325140e-001 
1
2
20 1 3 4 0 -1
21 1 1 4 0 3
haar_x3
-2.601553e-004 0 -1
-2.814950e-001 7.796464e-002 
1
2
10 4 5 3 0 -1
10 5 5 1 0 3
haar_y3
-3.206401e-004 0 -1
1.944130e-001 -1.132533e-001 
1
3
8 3 4 12 0 -1
8 3 2 6 0 2
10 9 2 6 0 2
haar_x2_y2
-3.641530e-003 0 -1
2.616293e-001 -7.763640e-002 
1
2
0 4 1 3 0 -1
0 5 1 1 0 3
haar_y3
1.656337e-004 0 -1
6.343115e-002 -3.486363e-001 
1
2
0 10 10 4 0 -1
0 12 10 2 0 2
haar_y2
-8.907808e-004 0 -1
1.480159e-001 -1.420229e-001 
1
2
2 2 2 44 0 -1
2 24 2 22 0 2
haar_y2
1.231201e-002 0 -1
-1.275615e-001 1.598110e-001 
1
2
2 0 5 30 0 -1
2 10 5 10 0 3
haar_y3
4.647945e-002 0 -1
-6.584846e-002 3.976819e-001 
1
2
16 21 6 24 0 -1
18 21 2 24 0 3
haar_x3
1.642009e-002 0 -1
-6.609189e-002 2.885543e-001 
1
2
16 9 6 30 0 -1
18 9 2 30 0 3
haar_x3
-1.068651e-002 0 -1
2.165298e-001 -1.114579e-001 
1
2
8 2 6 5 0 -1
10 2 2 5 0 3
haar_x3
-2.747090e-003 0 -1
1.969039e-001 -1.074591e-001 
1
2
5 6 6 3 0 -1
7 6 2 3 0 3
haar_x3
-1.000989e-003 0 -1
1.622948e-001 -1.306997e-001 
1
2
11 3 4 3 0 -1
13 3 2 3 0 2
haar_x2
-5.747250e-004 0 -1
1.808956e-001 -1.127744e-001 
1
2
20 0 2 1 0 -1
21 0 1 1 0 2
haar_x2
1.407534e-004 0 -1
6.581540e-002 -3.229159e-001 
1
2
5 0 19 48 0 -1
5 16 19 16 0 3
haar_y3
4.286582e-001 0 -1
-3.661909e-002 5.941234e-001 
1
2
0 36 3 4 0 -1
1 36 1 4 0 3
haar_x3
-7.867750e-004 0 -1
-4.328764e-001 5.311011e-002 
1
3
14 40 2 8 0 -1
14 40 1 4 0 2
15 44 1 4 0 2
haar_x2_y2
8.320007e-004 0 -1
-6.786399e-002 2.928798e-001 
1
2
0 17 1 4 0 -1
0 19 1 2 0 2
haar_y2
4.212782e-004 0 -1
6.570037e-002 -3.118294e-001 
1
2
9 10 15 2 0 -1
9 11 15 1 0 2
haar_y2
-7.340960e-004 0 -1
1.541988e-001 -1.223510e-001 
1
2
20 50 4 2 0 -1
22 50 2 2 0 2
haar_x2
1.360599e-005 0 -1
-2.022358e-001 1.013804e-001 
1
2
20 50 4 2 0 -1
22 50 2 2 0 2
haar_x2
6.551106e-004 0 -1
7.242055e-002 -2.976443e-001 
1
2
17 8 7 12 0 -1
17 12 7 4 0 3
haar_y3
-3.098935e-002 0 -1
-6.107861e-001 2.908234e-002 
1
2
4 20 6 21 0 -1
6 20 2 21 0 3
haar_x3
-1.024561e-002 0 -1
2.152937e-001 -8.957388e-002 
1
2
4 24 6 20 0 -1
6 24 2 20 0 3
haar_x3
4.752224e-003 0 -1
-1.126369e-001 2.121978e-001 
1
2
10 51 3 1 0 -1
11 51 1 1 0 3
haar_x3
-3.977859e-004 0 -1
-4.896379e-001 3.964295e-002 
1
2
5 42 10 2 0 -1
10 42 5 2 0 2
haar_x2
4.444188e-003 0 -1
-6.794205e-002 3.049490e-001 
1
2
9 33 6 17 0 -1
11 33 2 17 0 3
haar_x3
-8.272645e-003 0 -1
2.093800e-001 -9.905163e-002 
1
2
12 33 6 5 0 -1
14 33 2 5 0 3
haar_x3
-1.345205e-003 0 -1
1.694038e-001 -1.302462e-001 
1
2
8 16 6 21 0 -1
11 16 3 21 0 2
haar_x2
-6.146040e-002 0 -1
-7.988836e-001 2.559931e-002 
1
2
19 6 3 27 0 -1
19 15 3 9 0 3
haar_y3
3.917208e-002 0 -1
-4.452708e-002 5.395407e-001 
1
2
11 22 2 4 0 -1
12 22 1 4 0 2
haar_x2
4.447012e-004 0 -1
8.185155e-002 -2.702288e-001 
1
3
2 3 6 10 0 -1
2 3 3 5 0 2
5 8 3 5 0 2
haar_x2_y2
1.707577e-002 0 -1
-4.559322e-002 4.703755e-001 
1
2
19 1 3 26 0 -1
20 1 1 26 0 3
haar_x3
-1.637175e-003 0 -1
2.108260e-001 -9.419607e-002 
1
2
10 24 4 4 0 -1
12 24 2 4 0 2
haar_x2
-2.123922e-003 0 -1
-2.915401e-001 6.655443e-002 
1
2
4 6 15 4 0 -1
9 6 5 4 0 3
haar_x3
-2.814583e-002 0 -1
2.627940e-001 -7.429425e-002 
1
2
13 0 6 16 0 -1
15 0 2 16 0 3
haar_x3
-3.511849e-003 0 -1
1.661011e-001 -1.123352e-001 
1
2
16 11 1 4 0 -1
16 13 1 2 0 2
haar_y2
5.489838e-005 0 -1
8.726009e-002 -2.089329e-001 
1
2
4 49 18 3 0 -1
13 49 9 3 0 2
haar_x2
2.336084e-002 0 -1
3.245163e-002 -5.659208e-001 
1
2
2 0 14 1 0 -1
9 0 7 1 0 2
haar_x2
8.627818e-003 0 -1
2.590508e-002 -6.151910e-001 
1
2
7 49 2 2 0 -1
8 49 1 2 0 2
haar_x2
-1.374403e-005 0 -1
1.157984e-001 -1.539906e-001 
1
2
8 0 7 3 0 -1
8 1 7 1 0 3
haar_y3
-9.741820e-004 0 -1
2.145250e-001 -9.361912e-002 
1
2
6 41 9 10 0 -1
9 41 3 10 0 3
haar_x3
6.370936e-003 0 -1
-8.924382e-002 2.174365e-001 
1
2
10 51 3 1 0 -1
11 51 1 1 0 3
haar_x3
1.359342e-004 0 -1
6.609389e-002 -3.324244e-001 
1
2
2 2 3 2 0 -1
3 2 1 2 0 3
haar_x3
2.130530e-004 0 -1
7.853196e-002 -2.580080e-001 
1
2
8 2 7 3 0 -1
8 3 7 1 0 3
haar_y3
-9.977636e-004 0 -1
2.391863e-001 -8.333376e-002 
1
2
21 9 2 27 0 -1
22 9 1 27 0 2
haar_x2
-4.380177e-003 0 -1
4.451747e-001 -4.180068e-002 
1
2
22 31 2 2 0 -1
23 31 1 2 0 2
haar_x2
-1.569320e-004 0 -1
-3.531123e-001 6.424151e-002 
1
2
10 0 12 43 0 -1
14 0 4 43 0 3
haar_x3
-2.227892e-001 0 -1
-7.704547e-001 2.121817e-002 
-1.242993e+000

12
-1
