32
1
2
8 13 12 4 0 -1
12 13 4 4 0 3
haar_x3
-6.693374e-002 0 -1
-8.475426e-001 4.969987e-002 
1
2
3 12 9 3 0 -1
3 13 9 1 0 3
haar_y3
-6.149119e-003 0 -1
5.978595e-001 -5.928802e-002 
1
2
6 12 1 3 0 -1
6 13 1 1 0 3
haar_y3
8.461488e-004 0 -1
-1.080124e-001 4.143345e-001 
1
2
12 6 3 5 0 -1
13 6 1 5 0 3
haar_x3
-1.226956e-002 0 -1
6.951123e-001 -4.888821e-002 
1
2
17 12 3 1 0 -1
18 12 1 1 0 3
haar_x3
9.680872e-004 0 -1
-1.042689e-001 3.952169e-001 
1
2
13 9 3 2 0 -1
14 9 1 2 0 3
haar_x3
-5.550203e-003 0 -1
6.242625e-001 -6.802900e-002 
1
2
11 7 3 4 0 -1
12 7 1 4 0 3
haar_x3
-1.178299e-002 0 -1
7.002182e-001 -6.962221e-002 
1
2
8 2 10 18 0 -1
13 2 5 18 0 2
haar_x2
3.150257e-002 0 -1
1.940234e-001 -2.324841e-001 
1
3
20 9 6 8 0 -1
20 9 3 4 0 2
23 13 3 4 0 2
haar_x2_y2
2.272603e-002 0 -1
3.023075e-002 -8.679675e-001 
1
2
14 4 3 6 0 -1
15 4 1 6 0 3
haar_x3
1.594049e-002 0 -1
-3.209115e-002 7.852950e-001 
1
3
4 18 4 2 0 -1
4 18 2 1 0 2
6 19 2 1 0 2
haar_x2_y2
-1.101187e-003 0 -1
-4.624483e-001 7.320787e-002 
1
2
8 2 11 18 0 -1
8 11 11 9 0 2
haar_y2
2.295509e-001 0 -1
5.873792e-002 -8.661144e-001 
1
2
14 8 3 3 0 -1
15 8 1 3 0 3
haar_x3
-1.064077e-002 0 -1
8.186484e-001 -5.623915e-002 
1
2
6 15 15 4 0 -1
6 17 15 2 0 2
haar_y2
6.920377e-003 0 -1
6.751677e-002 -6.046087e-001 
1
2
7 2 12 18 0 -1
7 11 12 9 0 2
haar_y2
-3.536543e-003 0 -1
-4.832312e-001 6.704908e-002 
1
2
8 7 3 1 0 -1
9 7 1 1 0 3
haar_x3
1.691818e-003 0 -1
-1.006030e-001 4.584135e-001 
1
2
0 2 5 4 0 -1
0 4 5 2 0 2
haar_y2
-1.717633e-002 0 -1
-6.992487e-001 7.172529e-002 
1
2
15 9 3 2 0 -1
16 9 1 2 0 3
haar_x3
-6.397618e-003 0 -1
5.879121e-001 -8.116561e-002 
1
3
26 18 2 2 0 -1
26 18 1 1 0 2
27 19 1 1 0 2
haar_x2_y2
-6.232942e-004 0 -1
-6.960239e-001 6.188295e-002 
1
2
16 10 3 1 0 -1
17 10 1 1 0 3
haar_x3
-3.870604e-003 0 -1
8.787799e-001 -4.940933e-002 
1
2
27 10 3 3 0 -1
28 10 1 3 0 3
haar_x3
-1.686734e-003 0 -1
2.913277e-001 -1.157201e-001 
1
2
27 8 3 8 0 -1
28 8 1 8 0 3
haar_x3
3.261853e-003 0 -1
-1.308511e-001 3.151432e-001 
1
2
7 3 14 3 0 -1
14 3 7 3 0 2
haar_x2
4.602746e-002 0 -1
7.132620e-002 -6.051093e-001 
1
2
14 18 3 2 0 -1
15 18 1 2 0 3
haar_x3
-1.755701e-003 0 -1
3.802853e-001 -1.046451e-001 
1
2
0 0 3 3 0 -1
0 1 3 1 0 3
haar_y3
2.318282e-003 0 -1
5.373628e-002 -6.615714e-001 
1
2
14 18 2 1 0 -1
15 18 1 1 0 2
haar_x2
1.475476e-003 0 -1
-7.121833e-002 5.256864e-001 
1
2
18 9 3 1 0 -1
19 9 1 1 0 3
haar_x3
4.918115e-004 0 -1
-1.266765e-001 2.690394e-001 
1
3
1 3 10 16 0 -1
1 3 5 8 0 2
6 11 5 8 0 2
haar_x2_y2
1.143623e-001 0 -1
3.788457e-002 -9.093273e-001 
1
2
13 12 5 4 0 -1
13 14 5 2 0 2
haar_y2
7.969128e-003 0 -1
5.810012e-002 -4.612617e-001 
1
3
10 7 12 8 0 -1
10 7 6 4 0 2
16 11 6 4 0 2
haar_x2_y2
4.519403e-002 0 -1
4.270582e-002 -7.010276e-001 
1
2
18 10 10 10 0 -1
18 15 10 5 0 2
haar_y2
-2.294983e-002 0 -1
-2.363697e-001 1.414340e-001 
1
2
15 13 12 3 0 -1
15 14 12 1 0 3
haar_y3
3.297297e-003 0 -1
-1.304551e-001 2.711011e-001 
-8.972840e-001

16
-1
