31
1
2
6 12 6 10 0 -1
9 12 3 10 0 2
haar_x2
6.525742e-002 0 -1
-3.744787e-001 4.806377e-001 
1
2
0 15 8 10 0 -1
4 15 4 10 0 2
haar_x2
-5.718143e-002 0 -1
3.099782e-001 -3.042143e-001 
1
2
1 10 10 16 0 -1
1 18 10 8 0 2
haar_y2
8.646761e-002 0 -1
-2.340663e-001 3.462709e-001 
1
2
10 24 2 1 0 -1
11 24 1 1 0 2
haar_x2
-5.932065e-004 0 -1
-5.868845e-001 1.305021e-001 
1
2
9 24 3 1 0 -1
10 24 1 1 0 3
haar_x3
-5.466709e-004 0 -1
-4.643443e-001 1.791062e-001 
1
3
6 0 4 8 0 -1
6 0 2 4 0 2
8 4 2 4 0 2
haar_x2_y2
-1.930536e-002 0 -1
3.559788e-001 -1.799051e-001 
1
3
0 24 2 2 0 -1
0 24 1 1 0 2
1 25 1 1 0 2
haar_x2_y2
-5.446930e-004 0 -1
-4.568162e-001 1.245991e-001 
1
2
5 14 6 5 0 -1
7 14 2 5 0 3
haar_x3
3.187591e-002 0 -1
-1.251506e-001 4.501485e-001 
1
2
10 21 2 1 0 -1
11 21 1 1 0 2
haar_x2
2.989370e-005 0 -1
-2.387827e-001 1.995166e-001 
1
2
0 4 4 7 0 -1
2 4 2 7 0 2
haar_x2
-2.446337e-002 0 -1
2.866256e-001 -1.609886e-001 
1
2
2 1 10 18 0 -1
2 7 10 6 0 3
haar_y3
2.192769e-001 0 -1
-1.272632e-001 4.987162e-001 
1
2
8 4 2 12 0 -1
8 8 2 4 0 3
haar_y3
-5.629256e-003 0 -1
2.085559e-001 -2.183209e-001 
1
2
11 3 1 3 0 -1
11 4 1 1 0 3
haar_y3
-1.237634e-003 0 -1
-4.401786e-001 1.141210e-001 
1
2
11 3 1 2 0 -1
11 4 1 1 0 2
haar_y2
1.763101e-003 0 -1
7.356618e-002 -5.536582e-001 
1
2
0 25 12 1 0 -1
6 25 6 1 0 2
haar_x2
2.533779e-002 0 -1
5.527612e-002 -6.685081e-001 
1
2
0 25 10 1 0 -1
5 25 5 1 0 2
haar_x2
-2.273340e-002 0 -1
-6.087548e-001 7.382374e-002 
1
2
4 17 6 7 0 -1
6 17 2 7 0 3
haar_x3
2.172257e-002 0 -1
-1.396082e-001 3.429143e-001 
1
2
11 4 1 3 0 -1
11 5 1 1 0 3
haar_y3
-2.042364e-003 0 -1
-4.502598e-001 9.884230e-002 
1
2
2 0 6 3 0 -1
2 1 6 1 0 3
haar_y3
-2.932986e-003 0 -1
2.541005e-001 -1.618911e-001 
1
2
10 0 2 1 0 -1
11 0 1 1 0 2
haar_x2
-7.357764e-004 0 -1
-3.875079e-001 1.020044e-001 
1
2
3 0 8 6 0 -1
3 2 8 2 0 3
haar_y3
-1.230163e-002 0 -1
2.639091e-001 -1.556841e-001 
1
2
6 3 4 4 0 -1
6 5 4 2 0 2
haar_y2
-6.566862e-003 0 -1
2.406131e-001 -1.790835e-001 
1
2
0 24 3 1 0 -1
1 24 1 1 0 3
haar_x3
-1.222911e-003 0 -1
-4.055164e-001 1.002553e-001 
1
2
0 25 2 1 0 -1
1 25 1 1 0 2
haar_x2
2.322076e-004 0 -1
1.082531e-001 -3.452042e-001 
1
2
7 23 4 1 0 -1
9 23 2 1 0 2
haar_x2
7.963624e-004 0 -1
-1.922304e-001 2.020110e-001 
1
2
1 0 7 2 0 -1
1 1 7 1 0 2
haar_y2
1.097615e-003 0 -1
-1.656948e-001 2.313493e-001 
1
2
0 10 6 6 0 -1
2 10 2 6 0 3
haar_x3
-9.434026e-003 0 -1
2.289743e-001 -1.544690e-001 
1
2
0 2 6 14 0 -1
2 2 2 14 0 3
haar_x3
4.698571e-002 0 -1
-1.203929e-001 3.409224e-001 
1
3
2 7 4 10 0 -1
2 7 2 5 0 2
4 12 2 5 0 2
haar_x2_y2
-4.617526e-002 0 -1
5.424761e-001 -6.815083e-002 
1
3
1 0 4 22 0 -1
1 0 2 11 0 2
3 11 2 11 0 2
haar_x2_y2
6.979023e-002 0 -1
-8.685932e-002 4.428675e-001 
1
3
2 4 2 8 0 -1
2 4 1 4 0 2
3 8 1 4 0 2
haar_x2_y2
-5.776129e-003 0 -1
3.066497e-001 -1.059037e-001 
-1.365673e+000

3
-1
