60
1
2
17 12 1 4 0 -1
17 14 1 2 0 2
haar_y2
3.107532e-004 0 -1
-2.308595e-001 1.501237e-001 
1
2
7 6 6 6 0 -1
7 8 6 2 0 3
haar_y3
5.189311e-002 0 -1
-5.277806e-002 5.873891e-001 
1
2
0 18 8 2 0 -1
0 19 8 1 0 2
haar_y2
-9.808253e-003 0 -1
-8.798903e-001 1.582695e-002 
1
2
10 0 1 16 0 -1
10 8 1 8 0 2
haar_y2
-5.058025e-002 0 -1
-8.931435e-001 3.699969e-002 
1
2
12 5 2 4 0 -1
12 7 2 2 0 2
haar_y2
2.574947e-003 0 -1
1.708662e-001 -2.057010e-001 
1
2
12 5 1 3 0 -1
12 6 1 1 0 3
haar_y3
4.625648e-003 0 -1
-1.797552e-002 7.310020e-001 
1
2
0 3 19 15 0 -1
0 8 19 5 0 3
haar_y3
-4.464202e-001 0 -1
-5.069602e-001 3.691671e-002 
1
3
3 14 12 4 0 -1
3 14 6 2 0 2
9 16 6 2 0 2
haar_x2_y2
1.051323e-002 0 -1
1.038971e-001 -2.804729e-001 
1
2
10 7 3 2 0 -1
11 7 1 2 0 3
haar_x3
-8.431592e-004 0 -1
-3.594951e-001 7.699279e-002 
1
2
7 8 11 12 0 -1
7 14 11 6 0 2
haar_y2
2.624975e-002 0 -1
-1.740355e-001 1.318014e-001 
1
2
8 0 3 20 0 -1
9 0 1 20 0 3
haar_x3
9.462886e-003 0 -1
-1.131050e-001 2.528394e-001 
1
2
8 15 3 5 0 -1
9 15 1 5 0 3
haar_x3
-2.866627e-003 0 -1
2.500987e-001 -1.006494e-001 
1
2
17 13 3 6 0 -1
17 16 3 3 0 2
haar_y2
1.876107e-002 0 -1
9.091738e-002 -2.960271e-001 
1
2
0 16 8 4 0 -1
0 18 8 2 0 2
haar_y2
6.855996e-003 0 -1
-2.152525e-001 1.173017e-001 
1
2
12 6 1 3 0 -1
12 7 1 1 0 3
haar_y3
2.651531e-003 0 -1
-6.425783e-002 4.519787e-001 
1
2
16 13 3 1 0 -1
17 13 1 1 0 3
haar_x3
9.697403e-004 0 -1
-9.210997e-002 2.430537e-001 
1
2
12 5 3 6 0 -1
13 5 1 6 0 3
haar_x3
-4.634674e-003 0 -1
-6.227389e-001 2.925786e-002 
1
3
18 0 2 20 0 -1
18 0 1 10 0 2
19 10 1 10 0 2
haar_x2_y2
1.212256e-002 0 -1
-6.660902e-002 3.916365e-001 
1
2
9 7 1 6 0 -1
9 9 1 2 0 3
haar_y3
1.082375e-002 0 -1
-3.175889e-002 7.185166e-001 
1
2
10 13 1 4 0 -1
10 15 1 2 0 2
haar_y2
-3.799159e-003 0 -1
-4.431993e-001 5.972968e-002 
1
2
17 3 3 2 0 -1
18 3 1 2 0 3
haar_x3
-7.181980e-003 0 -1
6.807247e-001 -4.391718e-002 
1
2
17 18 3 2 0 -1
18 18 1 2 0 3
haar_x3
3.057766e-003 0 -1
-7.081905e-002 3.183310e-001 
1
2
17 18 3 2 0 -1
18 18 1 2 0 3
haar_x3
-1.178724e-003 0 -1
2.005313e-001 -1.176888e-001 
1
2
17 17 2 3 0 -1
17 18 2 1 0 3
haar_y3
-9.805033e-004 0 -1
-4.481892e-001 5.404156e-002 
1
2
7 6 12 13 0 -1
11 6 4 13 0 3
haar_x3
1.541017e-001 0 -1
4.054283e-002 -6.106695e-001 
1
2
1 17 3 3 0 -1
1 18 3 1 0 3
haar_y3
1.678499e-003 0 -1
8.158329e-002 -2.792938e-001 
1
2
15 18 5 2 0 -1
15 19 5 1 0 2
haar_y2
-2.414072e-003 0 -1
-4.293855e-001 5.538313e-002 
1
2
1 19 3 1 0 -1
2 19 1 1 0 3
haar_x3
1.258183e-003 0 -1
-8.608040e-002 3.069528e-001 
1
3
0 9 4 2 0 -1
0 9 2 1 0 2
2 10 2 1 0 2
haar_x2_y2
4.759077e-003 0 -1
-4.487335e-002 5.500150e-001 
1
2
1 19 3 1 0 -1
2 19 1 1 0 3
haar_x3
-2.551103e-003 0 -1
4.824378e-001 -4.794440e-002 
1
2
6 8 2 3 0 -1
6 9 2 1 0 3
haar_y3
-4.825120e-003 0 -1
4.911232e-001 -4.711479e-002 
1
2
0 10 5 4 0 -1
0 12 5 2 0 2
haar_y2
-2.693265e-003 0 -1
-1.895688e-001 1.233931e-001 
1
2
1 6 4 12 0 -1
1 12 4 6 0 2
haar_y2
-5.356434e-002 0 -1
3.601724e-001 -7.470994e-002 
1
2
15 5 1 3 0 -1
15 6 1 1 0 3
haar_y3
-2.540069e-003 0 -1
4.012453e-001 -5.510755e-002 
1
2
1 6 6 5 0 -1
3 6 2 5 0 3
haar_x3
2.204625e-002 0 -1
4.889262e-002 -5.301415e-001 
1
2
0 5 6 12 0 -1
3 5 3 12 0 2
haar_x2
-8.516505e-002 0 -1
-6.355956e-001 2.752518e-002 
1
2
17 13 3 6 0 -1
18 13 1 6 0 3
haar_x3
1.525322e-002 0 -1
-5.443792e-002 4.108058e-001 
1
2
17 13 1 3 0 -1
17 14 1 1 0 3
haar_y3
1.235321e-003 0 -1
5.670241e-002 -4.289639e-001 
1
2
4 4 1 3 0 -1
4 5 1 1 0 3
haar_y3
-3.328969e-003 0 -1
5.055611e-001 -4.802529e-002 
1
2
8 7 3 2 0 -1
9 7 1 2 0 3
haar_x3
-1.308705e-003 0 -1
-4.650888e-001 5.223298e-002 
1
2
5 6 4 6 0 -1
5 8 4 2 0 3
haar_y3
4.350521e-002 0 -1
-2.818164e-002 7.786779e-001 
1
2
1 0 3 1 0 -1
2 0 1 1 0 3
haar_x3
1.532568e-003 0 -1
-4.796085e-002 4.374533e-001 
1
2
2 0 2 4 0 -1
2 2 2 2 0 2
haar_y2
-1.955394e-003 0 -1
-2.334814e-001 1.176673e-001 
1
3
17 10 2 2 0 -1
17 10 1 1 0 2
18 11 1 1 0 2
haar_x2_y2
2.515983e-003 0 -1
-3.270021e-002 7.477525e-001 
1
2
0 0 3 8 0 -1
1 0 1 8 0 3
haar_x3
-8.721739e-003 0 -1
3.974649e-001 -5.023231e-002 
1
2
12 5 3 5 0 -1
13 5 1 5 0 3
haar_x3
4.079639e-003 0 -1
3.962620e-002 -5.628909e-001 
1
2
2 2 3 14 0 -1
2 9 3 7 0 2
haar_y2
-1.409359e-001 0 -1
-8.756447e-001 2.053153e-002 
1
3
0 7 10 6 0 -1
0 7 5 3 0 2
5 10 5 3 0 2
haar_x2_y2
3.697112e-002 0 -1
-7.798512e-002 3.023822e-001 
1
2
11 5 6 5 0 -1
13 5 2 5 0 3
haar_x3
-1.106490e-002 0 -1
-3.949764e-001 5.729201e-002 
1
2
1 3 1 4 0 -1
1 5 1 2 0 2
haar_y2
7.845582e-004 0 -1
8.648417e-002 -2.617593e-001 
1
3
8 5 6 2 0 -1
8 5 3 1 0 2
11 6 3 1 0 2
haar_x2_y2
-8.116342e-003 0 -1
6.731378e-001 -3.103318e-002 
1
2
0 7 20 12 0 -1
0 11 20 4 0 3
haar_y3
2.842104e-001 0 -1
2.648295e-002 -8.865111e-001 
1
2
13 4 3 6 0 -1
14 4 1 6 0 3
haar_x3
2.351403e-003 0 -1
5.928503e-002 -3.182509e-001 
1
2
17 17 2 1 0 -1
18 17 1 1 0 2
haar_x2
-1.371859e-003 0 -1
1.836757e-001 -1.047465e-001 
1
2
5 14 2 2 0 -1
6 14 1 2 0 2
haar_x2
9.271874e-005 0 -1
1.379403e-001 -1.478531e-001 
1
3
5 11 2 6 0 -1
5 11 1 3 0 2
6 14 1 3 0 2
haar_x2_y2
2.714983e-003 0 -1
-6.940533e-002 3.945826e-001 
1
2
9 16 3 3 0 -1
9 17 3 1 0 3
haar_y3
3.617079e-003 0 -1
6.017365e-002 -4.430635e-001 
1
3
7 5 8 2 0 -1
7 5 4 1 0 2
11 6 4 1 0 2
haar_x2_y2
4.294615e-003 0 -1
-6.907663e-002 3.223130e-001 
1
2
10 9 4 3 0 -1
10 10 4 1 0 3
haar_y3
-1.325040e-002 0 -1
7.758987e-001 -2.793538e-002 
1
2
3 3 6 5 0 -1
5 3 2 5 0 3
haar_x3
3.833178e-003 0 -1
1.010760e-001 -2.151799e-001 
-9.968523e-001

18
-1
