50
1
2
8 6 4 2 0 -1
10 6 2 2 0 2
haar_x2
1.971842e-003 0 -1
-3.049974e-001 2.875460e-001 
1
2
16 0 8 24 0 -1
16 12 8 12 0 2
haar_y2
8.783982e-002 0 -1
-2.926248e-001 2.021833e-001 
1
2
2 11 4 3 0 -1
2 12 4 1 0 3
haar_y3
-3.420591e-003 0 -1
4.656409e-001 -1.155856e-001 
1
2
6 6 2 3 0 -1
7 6 1 3 0 2
haar_x2
1.371737e-003 0 -1
-1.988818e-001 2.697113e-001 
1
2
10 14 4 10 0 -1
10 19 4 5 0 2
haar_y2
-1.885394e-002 0 -1
2.354256e-001 -1.988522e-001 
1
2
1 10 10 9 0 -1
1 13 10 3 0 3
haar_y3
7.821301e-003 0 -1
1.518095e-001 -3.477220e-001 
1
2
0 6 9 4 0 -1
3 6 3 4 0 3
haar_x3
1.845794e-002 0 -1
-1.880360e-001 2.570910e-001 
1
2
6 0 10 7 0 -1
11 0 5 7 0 2
haar_x2
-2.242349e-002 0 -1
2.339855e-001 -1.822189e-001 
1
2
0 17 1 4 0 -1
0 19 1 2 0 2
haar_y2
-6.403254e-004 0 -1
-3.883618e-001 8.488019e-002 
1
2
0 15 1 8 0 -1
0 19 1 4 0 2
haar_y2
4.300219e-004 0 -1
1.793144e-001 -2.918231e-001 
1
2
11 11 1 3 0 -1
11 12 1 1 0 3
haar_y3
-6.186359e-004 0 -1
-7.008992e-001 4.012866e-002 
1
2
3 8 4 2 0 -1
3 9 4 1 0 2
haar_y2
5.643676e-004 0 -1
-2.505973e-001 1.464119e-001 
1
2
0 12 8 3 0 -1
0 13 8 1 0 3
haar_y3
4.058676e-003 0 -1
-1.001996e-001 3.878128e-001 
1
2
12 11 1 3 0 -1
12 12 1 1 0 3
haar_y3
7.372185e-004 0 -1
5.160535e-002 -6.866047e-001 
1
2
1 11 5 3 0 -1
1 12 5 1 0 3
haar_y3
2.326415e-003 0 -1
-1.290990e-001 3.350822e-001 
1
2
1 13 6 3 0 -1
1 14 6 1 0 3
haar_y3
1.964051e-003 0 -1
-1.225417e-001 3.401619e-001 
1
2
0 4 1 2 0 -1
0 5 1 1 0 2
haar_y2
-2.085065e-004 0 -1
-3.134968e-001 1.192922e-001 
1
2
5 3 2 12 0 -1
5 9 2 6 0 2
haar_y2
3.033633e-002 0 -1
6.078311e-002 -5.483454e-001 
1
2
0 16 1 2 0 -1
0 17 1 1 0 2
haar_y2
-2.182125e-004 0 -1
-3.187330e-001 9.561440e-002 
1
2
20 0 4 22 0 -1
22 0 2 22 0 2
haar_x2
-1.945514e-002 0 -1
2.216583e-001 -1.410142e-001 
1
2
13 20 8 4 0 -1
13 22 8 2 0 2
haar_y2
1.367528e-003 0 -1
-1.417297e-001 2.236452e-001 
1
2
8 12 3 4 0 -1
9 12 1 4 0 3
haar_x3
-2.165759e-003 0 -1
-6.049708e-001 4.533852e-002 
1
2
4 6 2 2 0 -1
4 7 2 1 0 2
haar_y2
1.429018e-003 0 -1
-1.164830e-001 2.637808e-001 
1
2
9 13 1 2 0 -1
9 14 1 1 0 2
haar_y2
-2.181947e-005 0 -1
1.319824e-001 -2.292892e-001 
1
2
2 10 2 1 0 -1
3 10 1 1 0 2
haar_x2
-3.222987e-004 0 -1
2.893377e-001 -1.032479e-001 
1
2
0 3 1 4 0 -1
0 5 1 2 0 2
haar_y2
2.801383e-004 0 -1
1.315441e-001 -2.512339e-001 
1
2
11 16 2 1 0 -1
12 16 1 1 0 2
haar_x2
5.045891e-004 0 -1
3.849704e-002 -6.492885e-001 
1
2
2 14 6 3 0 -1
2 15 6 1 0 3
haar_y3
1.720679e-003 0 -1
-1.011069e-001 2.956019e-001 
1
2
4 11 8 2 0 -1
8 11 4 2 0 2
haar_x2
1.628278e-002 0 -1
5.524559e-002 -5.827705e-001 
1
2
4 13 6 3 0 -1
7 13 3 3 0 2
haar_x2
2.902827e-003 0 -1
-2.148450e-001 1.538084e-001 
1
2
17 1 3 2 0 -1
17 2 3 1 0 2
haar_y2
-3.117509e-003 0 -1
-8.135907e-001 3.479047e-002 
1
2
6 8 2 1 0 -1
7 8 1 1 0 2
haar_x2
-2.687805e-004 0 -1
2.304683e-001 -1.257257e-001 
1
2
11 0 3 19 0 -1
12 0 1 19 0 3
haar_x3
1.306415e-002 0 -1
3.967469e-002 -8.260932e-001 
1
2
7 6 3 4 0 -1
8 6 1 4 0 3
haar_x3
2.287495e-004 0 -1
-1.659847e-001 1.696814e-001 
1
2
9 9 3 1 0 -1
10 9 1 1 0 3
haar_x3
2.346662e-005 0 -1
-1.939738e-001 1.526425e-001 
1
2
9 4 4 11 0 -1
11 4 2 11 0 2
haar_x2
9.918263e-003 0 -1
-1.019290e-001 2.828037e-001 
1
2
12 10 4 3 0 -1
12 11 4 1 0 3
haar_y3
-1.703379e-003 0 -1
-5.263851e-001 4.907201e-002 
1
2
7 1 2 10 0 -1
8 1 1 10 0 2
haar_x2
1.004859e-002 0 -1
3.153259e-002 -7.579197e-001 
1
3
3 16 4 2 0 -1
3 16 2 1 0 2
5 17 2 1 0 2
haar_x2_y2
1.279985e-003 0 -1
-8.450955e-002 3.471482e-001 
1
2
12 4 7 3 0 -1
12 5 7 1 0 3
haar_y3
-4.554383e-003 0 -1
-5.224262e-001 5.075324e-002 
1
2
1 3 21 18 0 -1
1 9 21 6 0 3
haar_y3
-5.910142e-003 0 -1
-5.403689e-001 4.710454e-002 
1
2
7 6 4 3 0 -1
7 7 4 1 0 3
haar_y3
1.213957e-003 0 -1
-1.195501e-001 2.355439e-001 
1
2
5 6 5 3 0 -1
5 7 5 1 0 3
haar_y3
-2.540248e-003 0 -1
2.814410e-001 -1.097551e-001 
1
2
2 7 3 6 0 -1
3 7 1 6 0 3
haar_x3
3.186203e-003 0 -1
-1.003416e-001 2.603574e-001 
1
2
0 0 7 18 0 -1
0 6 7 6 0 3
haar_y3
1.526727e-001 0 -1
4.156921e-002 -6.763145e-001 
1
2
14 11 3 12 0 -1
15 11 1 12 0 3
haar_x3
-7.851550e-003 0 -1
-7.753711e-001 2.888304e-002 
1
2
6 4 6 5 0 -1
8 4 2 5 0 3
haar_x3
4.984339e-003 0 -1
-1.380273e-001 1.975583e-001 
1
2
5 6 3 3 0 -1
5 7 3 1 0 3
haar_y3
5.242141e-004 0 -1
-1.269420e-001 2.190716e-001 
1
2
8 4 1 12 0 -1
8 10 1 6 0 2
haar_y2
-8.555514e-003 0 -1
-6.616433e-001 4.800660e-002 
1
2
8 13 3 4 0 -1
9 13 1 4 0 3
haar_x3
2.731969e-003 0 -1
3.751925e-002 -5.653812e-001 
-1.307375e+000

8
-1
