49
1
3
8 0 12 14 0 -1
8 0 6 7 0 2
14 7 6 7 0 2
haar_x2_y2
9.644273e-002 0 -1
-3.384053e-001 2.172552e-001 
1
2
14 8 1 9 0 -1
14 11 1 3 0 3
haar_y3
-2.541841e-002 0 -1
5.591761e-001 -1.132134e-001 
1
2
4 18 4 1 0 -1
6 18 2 1 0 2
haar_x2
1.191188e-003 0 -1
-2.558649e-001 1.776252e-001 
1
2
12 1 6 2 0 -1
12 2 6 1 0 2
haar_y2
-2.396987e-002 0 -1
4.346763e-001 -1.303975e-001 
1
2
19 0 1 2 0 -1
19 1 1 1 0 2
haar_y2
-8.356200e-004 0 -1
-4.070431e-001 1.801636e-001 
1
2
3 4 4 4 0 -1
3 6 4 2 0 2
haar_y2
9.040104e-003 0 -1
-4.467714e-001 1.868603e-002 
1
2
11 13 2 4 0 -1
12 13 1 4 0 2
haar_x2
2.802786e-003 0 -1
1.250428e-001 -4.460859e-001 
1
2
17 7 3 3 0 -1
18 7 1 3 0 3
haar_x3
-5.580733e-003 0 -1
-6.081637e-001 6.397053e-002 
1
2
17 9 1 6 0 -1
17 12 1 3 0 2
haar_y2
-1.119091e-002 0 -1
-6.063935e-001 2.170486e-002 
1
2
16 6 2 10 0 -1
16 11 2 5 0 2
haar_y2
5.912676e-003 0 -1
7.526682e-002 -5.093850e-001 
1
2
1 10 12 3 0 -1
5 10 4 3 0 3
haar_x3
-1.119153e-002 0 -1
1.520574e-001 -2.161641e-001 
1
2
5 1 2 12 0 -1
5 5 2 4 0 3
haar_y3
-1.564908e-002 0 -1
5.951071e-001 -8.072269e-002 
1
3
4 9 8 6 0 -1
4 9 4 3 0 2
8 12 4 3 0 2
haar_x2_y2
2.929275e-002 0 -1
-1.250492e-001 3.125533e-001 
1
2
2 11 14 6 0 -1
2 13 14 2 0 3
haar_y3
-1.138158e-001 0 -1
4.275614e-001 -8.574060e-002 
1
2
2 14 14 6 0 -1
2 16 14 2 0 3
haar_y3
8.348763e-002 0 -1
1.057406e-001 -3.819429e-001 
1
3
7 12 4 8 0 -1
7 12 2 4 0 2
9 16 2 4 0 2
haar_x2_y2
-1.273148e-002 0 -1
-5.524923e-001 6.140205e-002 
1
2
13 0 2 2 0 -1
13 1 2 1 0 2
haar_y2
-7.119418e-003 0 -1
3.556031e-001 -1.007995e-001 
1
2
3 0 12 2 0 -1
7 0 4 2 0 3
haar_x3
3.316034e-002 0 -1
1.364846e-001 -2.472493e-001 
1
2
15 3 2 6 0 -1
15 6 2 3 0 2
haar_y2
4.117798e-002 0 -1
5.561046e-002 -6.642184e-001 
1
3
13 18 6 2 0 -1
13 18 3 1 0 2
16 19 3 1 0 2
haar_x2_y2
6.246011e-003 0 -1
-1.103182e-001 3.548827e-001 
1
2
12 16 5 2 0 -1
12 17 5 1 0 2
haar_y2
2.478079e-003 0 -1
1.168443e-001 -3.290865e-001 
1
3
18 0 2 6 0 -1
18 0 1 3 0 2
19 3 1 3 0 2
haar_x2_y2
1.991800e-003 0 -1
-1.992655e-001 1.694748e-001 
1
2
17 8 3 3 0 -1
18 8 1 3 0 3
haar_x3
9.298014e-003 0 -1
5.314425e-002 -7.286403e-001 
1
2
4 10 6 10 0 -1
4 15 6 5 0 2
haar_y2
-3.141373e-002 0 -1
-4.443919e-001 6.187632e-002 
1
2
6 8 1 9 0 -1
6 11 1 3 0 3
haar_y3
7.726002e-003 0 -1
-7.375040e-002 6.432843e-001 
1
2
2 5 9 12 0 -1
2 11 9 6 0 2
haar_y2
4.249859e-002 0 -1
6.457467e-002 -6.852271e-001 
1
2
12 9 1 3 0 -1
12 10 1 1 0 3
haar_y3
-2.379452e-003 0 -1
3.218527e-001 -1.191123e-001 
1
2
13 9 1 3 0 -1
13 10 1 1 0 3
haar_y3
3.902763e-003 0 -1
-4.389996e-002 6.845670e-001 
1
2
7 9 3 2 0 -1
8 9 1 2 0 3
haar_x3
4.407393e-003 0 -1
-5.897065e-002 5.046840e-001 
1
2
1 0 4 1 0 -1
3 0 2 1 0 2
haar_x2
6.897965e-003 0 -1
6.759425e-002 -4.952221e-001 
1
2
7 6 8 14 0 -1
11 6 4 14 0 2
haar_x2
1.415304e-001 0 -1
-4.011970e-002 9.146958e-001 
1
2
12 15 2 3 0 -1
13 15 1 3 0 2
haar_x2
1.585835e-003 0 -1
9.240221e-002 -3.573330e-001 
1
2
13 15 2 2 0 -1
14 15 1 2 0 2
haar_x2
-4.170552e-003 0 -1
-7.534693e-001 3.727861e-002 
1
3
1 3 2 2 0 -1
1 3 1 1 0 2
2 4 1 1 0 2
haar_x2_y2
1.703431e-003 0 -1
-8.482321e-002 4.106264e-001 
1
2
2 2 1 3 0 -1
2 3 1 1 0 3
haar_y3
1.410126e-003 0 -1
-9.075376e-002 3.391758e-001 
1
3
6 4 14 4 0 -1
6 4 7 2 0 2
13 6 7 2 0 2
haar_x2_y2
-1.600119e-002 0 -1
-4.080319e-001 7.489206e-002 
1
2
0 12 6 2 0 -1
0 13 6 1 0 2
haar_y2
1.562955e-003 0 -1
-1.036659e-001 3.036514e-001 
1
2
4 11 3 4 0 -1
4 13 3 2 0 2
haar_y2
-1.458026e-002 0 -1
3.279629e-001 -1.100301e-001 
1
2
0 13 20 3 0 -1
0 14 20 1 0 3
haar_y3
2.976993e-002 0 -1
-6.459993e-002 4.988698e-001 
1
2
11 16 6 1 0 -1
13 16 2 1 0 3
haar_x3
-4.740125e-003 0 -1
-4.969607e-001 6.813901e-002 
1
2
9 1 1 2 0 -1
9 2 1 1 0 2
haar_y2
-2.222831e-003 0 -1
3.336326e-001 -1.044624e-001 
1
2
11 0 6 3 0 -1
13 0 2 3 0 3
haar_x3
1.003432e-002 0 -1
6.079774e-002 -5.612326e-001 
1
2
0 4 12 2 0 -1
6 4 6 2 0 2
haar_x2
6.714324e-002 0 -1
2.811289e-002 -9.092515e-001 
1
2
3 10 14 10 0 -1
3 15 14 5 0 2
haar_y2
-1.258392e-001 0 -1
-7.017699e-001 3.323987e-002 
1
2
12 1 6 12 0 -1
12 5 6 4 0 3
haar_y3
-6.544415e-002 0 -1
5.490251e-001 -6.300688e-002 
1
3
14 3 4 16 0 -1
14 3 2 8 0 2
16 11 2 8 0 2
haar_x2_y2
-3.252118e-002 0 -1
-4.938227e-001 6.528907e-002 
1
2
11 18 6 2 0 -1
11 19 6 1 0 2
haar_y2
-7.213475e-004 0 -1
1.078546e-001 -2.732433e-001 
1
3
10 16 8 4 0 -1
10 16 4 2 0 2
14 18 4 2 0 2
haar_x2_y2
2.820547e-002 0 -1
-7.371412e-002 5.525398e-001 
1
3
10 14 4 6 0 -1
10 14 2 3 0 2
12 17 2 3 0 2
haar_x2_y2
-7.070019e-003 0 -1
-3.019352e-001 1.242970e-001 
-1.114154e+000

15
-1
