52
1
2
0 1 12 20 0 -1
4 1 4 20 0 3
haar_x3
-4.558018e-001 0 -1
3.754250e-001 -2.469217e-001 
1
2
8 6 1 2 0 -1
8 7 1 1 0 2
haar_y2
-8.726121e-005 0 -1
2.395467e-001 -3.139084e-001 
1
3
6 2 4 6 0 -1
6 2 2 3 0 2
8 5 2 3 0 2
haar_x2_y2
-1.275070e-002 0 -1
3.677119e-001 -1.566263e-001 
1
2
8 23 2 2 0 -1
9 23 1 2 0 2
haar_x2
6.350741e-005 0 -1
-3.529470e-001 1.142311e-001 
1
2
2 9 6 2 0 -1
5 9 3 2 0 2
haar_x2
-1.779746e-002 0 -1
-4.368370e-001 1.536047e-001 
1
2
6 0 6 1 0 -1
9 0 3 1 0 2
haar_x2
4.574887e-003 0 -1
6.621438e-002 -3.692953e-001 
1
2
2 24 2 2 0 -1
3 24 1 2 0 2
haar_x2
-2.417420e-005 0 -1
1.475234e-001 -2.662502e-001 
1
2
3 10 2 12 0 -1
3 14 2 4 0 3
haar_y3
-5.945771e-003 0 -1
1.912204e-001 -1.922123e-001 
1
3
0 10 2 10 0 -1
0 10 1 5 0 2
1 15 1 5 0 2
haar_x2_y2
1.167089e-002 0 -1
-1.112809e-001 3.960150e-001 
1
3
1 4 2 6 0 -1
1 4 1 3 0 2
2 7 1 3 0 2
haar_x2_y2
3.542345e-003 0 -1
-1.068648e-001 3.036460e-001 
1
2
2 6 1 2 0 -1
2 7 1 1 0 2
haar_y2
-5.861227e-005 0 -1
1.461442e-001 -2.192056e-001 
1
3
9 9 2 6 0 -1
9 9 1 3 0 2
10 12 1 3 0 2
haar_x2_y2
4.008228e-003 0 -1
-9.893195e-002 2.994671e-001 
1
2
5 13 2 1 0 -1
6 13 1 1 0 2
haar_x2
5.859411e-004 0 -1
9.134163e-002 -3.307617e-001 
1
2
2 3 8 6 0 -1
2 5 8 2 0 3
haar_y3
-2.339298e-002 0 -1
2.933785e-001 -9.545637e-002 
1
2
2 2 10 3 0 -1
2 3 10 1 0 3
haar_y3
-4.490615e-003 0 -1
2.293290e-001 -1.647108e-001 
1
2
8 7 1 2 0 -1
8 8 1 1 0 2
haar_y2
-2.650348e-005 0 -1
1.579031e-001 -2.068264e-001 
1
2
10 4 2 1 0 -1
11 4 1 1 0 2
haar_x2
-1.159493e-003 0 -1
-4.552370e-001 7.345933e-002 
1
2
8 0 3 21 0 -1
8 7 3 7 0 3
haar_y3
3.355719e-002 0 -1
-1.189524e-001 2.083852e-001 
1
2
6 11 6 2 0 -1
8 11 2 2 0 3
haar_x3
-7.154760e-003 0 -1
2.008395e-001 -1.308385e-001 
1
2
4 22 3 3 0 -1
5 22 1 3 0 3
haar_x3
-6.984447e-003 0 -1
3.302028e-001 -8.775894e-002 
1
2
2 10 1 2 0 -1
2 11 1 1 0 2
haar_y2
-2.417420e-005 0 -1
1.555630e-001 -1.615902e-001 
1
2
4 5 1 2 0 -1
4 6 1 1 0 2
haar_y2
-6.693833e-005 0 -1
1.546985e-001 -1.738241e-001 
1
2
0 2 2 1 0 -1
1 2 1 1 0 2
haar_x2
7.405483e-004 0 -1
7.891910e-002 -3.264747e-001 
1
2
5 2 2 2 0 -1
6 2 1 2 0 2
haar_x2
9.521888e-003 0 -1
-4.358869e-002 6.239244e-001 
1
2
0 2 2 1 0 -1
1 2 1 1 0 2
haar_x2
-6.279295e-004 0 -1
-2.595274e-001 9.915922e-002 
1
3
9 4 2 10 0 -1
9 4 1 5 0 2
10 9 1 5 0 2
haar_x2_y2
-8.161897e-003 0 -1
3.723005e-001 -7.245630e-002 
1
2
7 8 1 2 0 -1
7 9 1 1 0 2
haar_y2
-2.417420e-005 0 -1
1.385629e-001 -1.902424e-001 
1
2
0 9 9 16 0 -1
3 9 3 16 0 3
haar_x3
-1.080727e-001 0 -1
1.674953e-001 -1.669136e-001 
1
2
1 2 3 8 0 -1
1 6 3 4 0 2
haar_y2
7.715264e-003 0 -1
-1.227146e-001 2.284583e-001 
1
2
8 5 1 3 0 -1
8 6 1 1 0 3
haar_y3
-2.714863e-005 0 -1
1.878957e-001 -1.410087e-001 
1
2
0 25 12 1 0 -1
6 25 6 1 0 2
haar_x2
3.211528e-002 0 -1
4.082674e-002 -5.716717e-001 
1
2
4 4 1 3 0 -1
4 5 1 1 0 3
haar_y3
-5.902015e-005 0 -1
1.512683e-001 -1.433687e-001 
1
2
3 6 2 2 0 -1
3 7 2 1 0 2
haar_y2
-8.009879e-005 0 -1
1.297614e-001 -2.028576e-001 
1
2
2 3 6 3 0 -1
2 4 6 1 0 3
haar_y3
-1.407170e-003 0 -1
1.681909e-001 -1.522917e-001 
1
2
2 5 5 3 0 -1
2 6 5 1 0 3
haar_y3
-3.102333e-004 0 -1
1.776460e-001 -1.560753e-001 
1
2
4 1 3 3 0 -1
4 2 3 1 0 3
haar_y3
-1.709797e-003 0 -1
1.819484e-001 -1.471119e-001 
1
2
4 16 2 1 0 -1
5 16 1 1 0 2
haar_x2
5.883151e-004 0 -1
7.825372e-002 -3.209972e-001 
1
2
11 4 1 6 0 -1
11 7 1 3 0 2
haar_y2
-2.805417e-003 0 -1
-2.526523e-001 1.028677e-001 
1
2
7 23 3 3 0 -1
8 23 1 3 0 3
haar_x3
3.419611e-003 0 -1
-7.470832e-002 3.076202e-001 
1
2
9 25 2 1 0 -1
10 25 1 1 0 2
haar_x2
-3.370695e-004 0 -1
-3.379760e-001 7.466263e-002 
1
2
8 5 4 13 0 -1
10 5 2 13 0 2
haar_x2
-4.547705e-002 0 -1
4.353318e-001 -6.920176e-002 
1
2
6 10 6 15 0 -1
6 15 6 5 0 3
haar_y3
-1.954540e-001 0 -1
-7.202230e-001 3.638018e-002 
1
2
10 25 2 1 0 -1
11 25 1 1 0 2
haar_x2
1.561185e-003 0 -1
6.341851e-002 -3.567943e-001 
1
2
0 0 12 1 0 -1
6 0 6 1 0 2
haar_x2
-4.775036e-002 0 -1
-5.737834e-001 3.232929e-002 
1
2
5 1 3 10 0 -1
6 1 1 10 0 3
haar_x3
-5.172286e-003 0 -1
1.810168e-001 -1.161274e-001 
1
2
2 7 1 2 0 -1
2 8 1 1 0 2
haar_y2
-9.248930e-005 0 -1
1.256405e-001 -1.688829e-001 
1
2
2 9 9 9 0 -1
5 9 3 9 0 3
haar_x3
-2.212546e-001 0 -1
-5.766300e-001 3.364216e-002 
1
2
7 2 5 2 0 -1
7 3 5 1 0 2
haar_y2
-9.866720e-003 0 -1
-4.657743e-001 3.859200e-002 
1
2
3 4 1 3 0 -1
3 5 1 1 0 3
haar_y3
-1.251605e-004 0 -1
1.474121e-001 -1.399602e-001 
1
2
2 0 10 3 0 -1
2 1 10 1 0 3
haar_y3
-5.067193e-003 0 -1
2.281801e-001 -8.006500e-002 
1
2
0 4 1 2 0 -1
0 5 1 1 0 2
haar_y2
2.279774e-003 0 -1
4.256055e-002 -4.507822e-001 
1
2
4 9 3 4 0 -1
5 9 1 4 0 3
haar_x3
1.004668e-002 0 -1
3.464668e-002 -4.881174e-001 
-1.238971e+000

9
-1
