5
1
2
0 27 24 18 0 -1
8 27 8 18 0 3
haar_x3
-4.601422e-002 0 -1
7.980156e-001 -6.666678e-001 
1
3
9 0 14 20 0 -1
9 0 7 10 0 2
16 10 7 10 0 2
haar_x2_y2
-1.486216e-002 0 -1
7.951230e-001 -3.816007e-001 
1
2
0 7 12 15 0 -1
4 7 4 15 0 3
haar_x3
-1.512883e-002 0 -1
7.214621e-001 -2.751699e-001 
1
2
4 7 18 11 0 -1
10 7 6 11 0 3
haar_x3
-1.654459e-002 0 -1
6.099699e-001 -3.754964e-001 
1
3
1 0 14 12 0 -1
1 0 7 6 0 2
8 6 7 6 0 2
haar_x2_y2
1.309414e-002 0 -1
-2.460697e-001 7.809656e-001 
-9.595384e-001

-1
-1
