32
1
2
13 8 3 2 0 -1
14 8 1 2 0 3
haar_x3
4.251449e-003 0 -1
-1.110497e-001 4.583775e-001 
1
2
15 8 3 2 0 -1
16 8 1 2 0 3
haar_x3
3.956209e-003 0 -1
-8.978435e-002 4.977568e-001 
1
2
1 12 18 4 0 -1
7 12 6 4 0 3
haar_x3
-1.798791e-002 0 -1
-3.597185e-001 1.201458e-001 
1
2
15 9 3 1 0 -1
16 9 1 1 0 3
haar_x3
-3.278222e-003 0 -1
5.686684e-001 -6.366263e-002 
1
2
3 17 16 3 0 -1
3 18 16 1 0 3
haar_y3
1.873014e-004 0 -1
1.109570e-001 -3.285816e-001 
1
2
20 13 9 3 0 -1
23 13 3 3 0 3
haar_x3
-1.355131e-002 0 -1
-5.825481e-001 9.199583e-002 
1
3
4 8 16 12 0 -1
4 8 8 6 0 2
12 14 8 6 0 2
haar_x2_y2
4.361848e-002 0 -1
7.307276e-002 -5.682558e-001 
1
2
0 0 3 13 0 -1
1 0 1 13 0 3
haar_x3
-5.041328e-003 0 -1
2.793440e-001 -1.509797e-001 
1
2
0 7 3 1 0 -1
1 7 1 1 0 3
haar_x3
1.445378e-003 0 -1
-1.002175e-001 4.152034e-001 
1
2
16 9 3 1 0 -1
17 9 1 1 0 3
haar_x3
-3.189958e-003 0 -1
6.497472e-001 -4.897627e-002 
1
2
19 1 9 14 0 -1
19 8 9 7 0 2
haar_y2
1.610523e-001 0 -1
7.791007e-002 -5.042436e-001 
1
2
14 12 4 6 0 -1
14 14 4 2 0 3
haar_y3
-8.755200e-003 0 -1
-7.821852e-001 3.507967e-002 
1
2
11 6 17 14 0 -1
11 13 17 7 0 2
haar_y2
2.149082e-001 0 -1
5.481936e-002 -6.937091e-001 
1
2
15 4 1 3 0 -1
15 5 1 1 0 3
haar_y3
1.132659e-003 0 -1
-1.070945e-001 4.142368e-001 
1
2
15 4 2 3 0 -1
15 5 2 1 0 3
haar_y3
-2.975860e-003 0 -1
4.993261e-001 -8.645784e-002 
1
2
12 8 3 3 0 -1
13 8 1 3 0 3
haar_x3
6.307128e-003 0 -1
-7.542605e-002 5.239601e-001 
1
2
3 16 20 4 0 -1
3 18 20 2 0 2
haar_y2
-6.727153e-002 0 -1
-7.313334e-001 5.478467e-002 
1
2
16 8 3 1 0 -1
17 8 1 1 0 3
haar_x3
1.729259e-003 0 -1
-1.025476e-001 4.027789e-001 
1
2
15 15 3 4 0 -1
16 15 1 4 0 3
haar_x3
2.081246e-003 0 -1
-1.152805e-001 3.242914e-001 
1
2
15 10 9 3 0 -1
15 11 9 1 0 3
haar_y3
1.784951e-003 0 -1
-1.728426e-001 2.189492e-001 
1
2
6 11 2 3 0 -1
6 12 2 1 0 3
haar_y3
-2.118384e-003 0 -1
5.043954e-001 -6.779889e-002 
1
2
5 11 16 3 0 -1
5 12 16 1 0 3
haar_y3
1.156588e-003 0 -1
-2.068616e-001 2.165345e-001 
1
2
19 17 8 2 0 -1
19 18 8 1 0 2
haar_y2
7.638030e-004 0 -1
1.003887e-001 -4.021974e-001 
1
2
11 5 14 5 0 -1
18 5 7 5 0 2
haar_x2
-5.019233e-002 0 -1
-4.628840e-001 8.079224e-002 
1
3
13 3 14 12 0 -1
13 3 7 6 0 2
20 9 7 6 0 2
haar_x2_y2
-8.075867e-002 0 -1
-7.790056e-001 5.008081e-002 
1
2
5 4 9 16 0 -1
5 12 9 8 0 2
haar_y2
1.709974e-002 0 -1
-4.871706e-001 7.245715e-002 
1
2
0 11 3 2 0 -1
1 11 1 2 0 3
haar_x3
4.705189e-003 0 -1
-6.044134e-002 6.929268e-001 
1
2
14 16 3 3 0 -1
15 16 1 3 0 3
haar_x3
2.553842e-003 0 -1
-9.508637e-002 4.045510e-001 
1
2
12 18 6 1 0 -1
15 18 3 1 0 2
haar_x2
-4.700806e-003 0 -1
4.497125e-001 -8.438707e-002 
1
2
21 0 9 1 0 -1
24 0 3 1 0 3
haar_x3
8.434439e-003 0 -1
-9.137595e-002 4.390847e-001 
1
2
17 12 8 3 0 -1
17 13 8 1 0 3
haar_y3
2.920740e-003 0 -1
-1.145528e-001 3.153902e-001 
1
2
4 7 6 2 0 -1
6 7 2 2 0 3
haar_x3
-2.765257e-003 0 -1
2.415441e-001 -1.578948e-001 
-9.060943e-001

15
-1
