51
1
2
13 8 2 6 0 -1
13 11 2 3 0 2
haar_y2
-2.123945e-002 0 -1
3.136830e-001 -2.460233e-001 
1
3
12 18 8 2 0 -1
12 18 4 1 0 2
16 19 4 1 0 2
haar_x2_y2
5.188928e-004 0 -1
-3.082065e-001 1.602163e-001 
1
2
11 7 8 7 0 -1
15 7 4 7 0 2
haar_x2
-8.199530e-003 0 -1
-4.945931e-001 9.951040e-002 
1
3
18 0 2 4 0 -1
18 0 1 2 0 2
19 2 1 2 0 2
haar_x2_y2
1.281301e-003 0 -1
-2.229342e-001 2.019894e-001 
1
2
2 12 5 6 0 -1
2 14 5 2 0 3
haar_y3
2.378378e-002 0 -1
-7.418575e-002 5.021473e-001 
1
2
13 13 2 3 0 -1
13 14 2 1 0 3
haar_y3
-5.139126e-003 0 -1
4.263732e-001 -1.232980e-001 
1
2
11 9 1 6 0 -1
11 12 1 3 0 2
haar_y2
3.450443e-003 0 -1
-1.480222e-001 2.993162e-001 
1
2
5 11 1 6 0 -1
5 13 1 2 0 3
haar_y3
-1.033306e-002 0 -1
3.716950e-001 -1.115737e-001 
1
2
18 8 1 4 0 -1
18 10 1 2 0 2
haar_y2
1.306664e-003 0 -1
7.704382e-002 -4.749789e-001 
1
2
7 18 6 2 0 -1
9 18 2 2 0 3
haar_x3
-4.684913e-003 0 -1
-5.178977e-001 6.866121e-002 
1
3
4 1 16 16 0 -1
4 1 8 8 0 2
12 9 8 8 0 2
haar_x2_y2
2.512566e-002 0 -1
-2.951639e-001 1.055782e-001 
1
2
13 13 3 7 0 -1
14 13 1 7 0 3
haar_x3
-1.381708e-002 0 -1
-7.411049e-001 2.901484e-002 
1
2
6 16 3 4 0 -1
7 16 1 4 0 3
haar_x3
-3.610324e-003 0 -1
-6.506848e-001 4.247454e-002 
1
2
7 8 6 7 0 -1
9 8 2 7 0 3
haar_x3
9.348761e-003 0 -1
-1.615949e-001 1.838962e-001 
1
2
7 0 5 12 0 -1
7 6 5 6 0 2
haar_y2
-1.143394e-001 0 -1
-7.641761e-001 3.532835e-002 
1
2
4 6 2 14 0 -1
4 13 2 7 0 2
haar_y2
-7.352141e-002 0 -1
-7.010660e-001 2.445425e-002 
1
2
14 4 3 2 0 -1
15 4 1 2 0 3
haar_x3
-5.431077e-003 0 -1
6.360408e-001 -4.845877e-002 
1
2
8 1 12 12 0 -1
8 7 12 6 0 2
haar_y2
1.327197e-001 0 -1
8.474579e-002 -3.764347e-001 
1
2
13 4 3 1 0 -1
14 4 1 1 0 3
haar_x3
-9.076536e-004 0 -1
2.279788e-001 -1.468928e-001 
1
3
12 3 8 6 0 -1
12 3 4 3 0 2
16 6 4 3 0 2
haar_x2_y2
-3.831976e-002 0 -1
-4.542272e-001 7.869498e-002 
1
2
7 7 3 1 0 -1
8 7 1 1 0 3
haar_x3
2.537476e-003 0 -1
-7.673796e-002 4.352260e-001 
1
2
11 1 4 19 0 -1
13 1 2 19 0 2
haar_x2
3.059754e-002 0 -1
7.249667e-002 -4.982075e-001 
1
2
6 6 1 8 0 -1
6 10 1 4 0 2
haar_y2
-2.126315e-002 0 -1
4.145889e-001 -8.460965e-002 
1
2
17 2 3 7 0 -1
18 2 1 7 0 3
haar_x3
-1.883012e-002 0 -1
-8.348559e-001 3.381215e-002 
1
2
13 10 3 1 0 -1
14 10 1 1 0 3
haar_x3
1.339752e-003 0 -1
-1.126792e-001 2.729236e-001 
1
2
8 15 3 4 0 -1
8 17 3 2 0 2
haar_y2
1.645333e-002 0 -1
6.577749e-002 -4.089856e-001 
1
3
1 3 2 2 0 -1
1 3 1 1 0 2
2 4 1 1 0 2
haar_x2_y2
2.293360e-003 0 -1
-5.737817e-002 5.338068e-001 
1
2
4 4 11 4 0 -1
4 6 11 2 0 2
haar_y2
1.588123e-002 0 -1
-3.444137e-001 8.545005e-002 
1
2
6 15 6 2 0 -1
8 15 2 2 0 3
haar_x3
1.321055e-002 0 -1
3.714271e-002 -6.846134e-001 
1
2
14 9 6 1 0 -1
16 9 2 1 0 3
haar_x3
-4.679098e-003 0 -1
-6.976715e-001 3.831147e-002 
1
2
8 8 4 12 0 -1
8 12 4 4 0 3
haar_y3
-1.156370e-001 0 -1
4.078641e-001 -7.475223e-002 
1
2
4 10 6 10 0 -1
4 15 6 5 0 2
haar_y2
8.203129e-002 0 -1
8.372696e-002 -3.603233e-001 
1
2
5 10 11 8 0 -1
5 14 11 4 0 2
haar_y2
5.441123e-002 0 -1
-1.730253e-001 2.054864e-001 
1
2
7 11 2 3 0 -1
7 12 2 1 0 3
haar_y3
9.294990e-003 0 -1
-6.098015e-002 5.394249e-001 
1
3
7 10 10 6 0 -1
7 10 5 3 0 2
12 13 5 3 0 2
haar_x2_y2
2.962942e-003 0 -1
1.130388e-001 -2.863393e-001 
1
2
0 13 8 2 0 -1
0 14 8 1 0 2
haar_y2
-1.069232e-002 0 -1
5.029103e-001 -6.339210e-002 
1
2
13 16 2 4 0 -1
14 16 1 4 0 2
haar_x2
-6.325272e-003 0 -1
-5.371063e-001 6.094434e-002 
1
2
11 13 1 6 0 -1
11 15 1 2 0 3
haar_y3
1.084461e-002 0 -1
3.693032e-002 -5.958395e-001 
1
2
3 12 4 3 0 -1
3 13 4 1 0 3
haar_y3
-3.794594e-003 0 -1
2.062357e-001 -1.419974e-001 
1
2
14 12 2 2 0 -1
14 13 2 1 0 2
haar_y2
3.948689e-003 0 -1
-7.753950e-002 3.999830e-001 
1
2
7 10 11 10 0 -1
7 15 11 5 0 2
haar_y2
1.366298e-001 0 -1
7.766705e-002 -4.184977e-001 
1
2
10 16 3 4 0 -1
11 16 1 4 0 3
haar_x3
5.305508e-003 0 -1
3.399578e-002 -8.179066e-001 
1
2
6 8 9 1 0 -1
9 8 3 1 0 3
haar_x3
1.482353e-002 0 -1
-7.346526e-002 4.140681e-001 
1
2
2 0 9 6 0 -1
5 0 3 6 0 3
haar_x3
-7.870396e-002 0 -1
-4.779209e-001 6.658788e-002 
1
3
13 14 6 6 0 -1
13 14 3 3 0 2
16 17 3 3 0 2
haar_x2_y2
3.872702e-002 0 -1
-5.486483e-002 5.864112e-001 
1
2
14 3 6 4 0 -1
16 3 2 4 0 3
haar_x3
5.665483e-003 0 -1
1.470897e-001 -1.852113e-001 
1
2
8 13 11 6 0 -1
8 15 11 2 0 3
haar_y3
-1.194750e-002 0 -1
-2.866305e-001 1.012972e-001 
1
2
1 8 12 8 0 -1
5 8 4 8 0 3
haar_x3
-2.978352e-002 0 -1
1.519277e-001 -1.732494e-001 
1
3
0 6 14 2 0 -1
0 6 7 1 0 2
7 7 7 1 0 2
haar_x2_y2
1.106743e-002 0 -1
3.717396e-002 -6.734535e-001 
1
2
10 15 9 5 0 -1
13 15 3 5 0 3
haar_x3
4.845152e-002 0 -1
5.679881e-002 -4.709689e-001 
1
2
16 1 1 12 0 -1
16 7 1 6 0 2
haar_y2
2.753180e-002 0 -1
6.963590e-002 -4.059608e-001 
-1.140945e+000

14
-1
