67
2
2
2 3 6 2 0 -1.000000
5 3 3 2 0 2.000000
haar
0.001822 0 1
2
0 0 17 9 0 -1.000000
0 3 17 3 0 3.000000
haar
0.008131 -1 -2
0.310879 0.313324 0.664587 
2
2
4 7 12 2 0 -1.000000
8 7 4 2 0 3.000000
haar
0.001706 0 1
2
10 4 6 4 0 -1.000000
12 4 2 4 0 3.000000
haar
-0.000074 -1 -2
0.264013 0.564721 0.348537 
2
2
0 10 20 4 0 -1.000000
0 12 20 2 0 2.000000
haar
0.000383 1 0
2
4 3 6 5 0 -1.000000
6 3 2 5 0 3.000000
haar
0.003187 -1 -2
0.314065 0.648920 0.388773 
2
2
1 1 18 4 0 -1.000000
7 1 6 4 0 3.000000
haar
0.160443 1 0
2
13 9 2 3 0 -1.000000
13 9 1 3 0 2.000000
haar
-0.006729 -1 -2
0.721653 0.165314 0.513983 
2
2
6 15 7 4 0 -1.000000
6 17 7 2 0 2.000000
haar
0.000007 0 1
2
3 17 4 2 0 -1.000000
3 18 4 1 0 2.000000
haar
0.000556 -1 -2
0.314062 0.599370 0.331740 
2
2
9 4 8 10 0 -1.000000
9 9 8 5 0 2.000000
haar
-0.010822 0 1
2
9 17 3 2 0 -1.000000
10 17 1 2 0 3.000000
haar
-0.004583 -1 -2
0.265294 0.184957 0.531396 
2
2
8 2 4 8 0 -1.000000
8 6 4 4 0 2.000000
haar
-0.003021 1 0
3
3 4 14 12 0 -1.000000
3 4 7 6 0 2.000000
10 10 7 6 0 2.000000
haar
0.077865 -1 -2
0.404010 0.615819 0.178649 
2
2
7 7 6 4 0 -1.000000
9 7 2 4 0 3.000000
haar
0.026494 0 1
2
6 7 9 4 0 -1.000000
6 9 9 2 0 2.000000
haar
0.036912 -1 -2
0.451109 0.452822 0.597228 
2
2
2 10 3 3 0 -1.000000
2 11 3 1 0 3.000000
haar
0.005786 1 0
2
4 6 2 9 0 -1.000000
4 9 2 3 0 3.000000
haar
0.000938 -1 -2
0.253389 0.341041 0.592364 
2
2
9 11 3 3 0 -1.000000
9 12 3 1 0 3.000000
haar
-0.011003 0 1
2
3 1 15 2 0 -1.000000
3 2 15 1 0 2.000000
haar
-0.001174 -1 -2
0.695804 0.385108 0.540819 
2
2
9 8 2 3 0 -1.000000
9 9 2 1 0 3.000000
haar
-0.003660 0 1
2
9 6 2 5 0 -1.000000
10 6 1 5 0 2.000000
haar
-0.002482 -1 -2
0.200931 0.629539 0.439504 
2
2
9 7 2 3 0 -1.000000
9 8 2 1 0 3.000000
haar
-0.004461 0 1
2
4 10 12 10 0 -1.000000
4 15 12 5 0 2.000000
haar
-0.003597 -1 -2
0.240530 0.545017 0.378236 
2
2
0 10 4 2 0 -1.000000
0 11 4 1 0 2.000000
haar
-0.003622 0 1
2
5 15 9 2 0 -1.000000
5 16 9 1 0 2.000000
haar
0.001206 -1 -2
0.303390 0.463378 0.633595 
2
2
8 14 6 3 0 -1.000000
8 15 6 1 0 3.000000
haar
0.004312 1 0
2
8 16 4 3 0 -1.000000
8 17 4 1 0 3.000000
haar
-0.004496 -1 -2
0.659883 0.662170 0.475525 
2
2
8 9 4 2 0 -1.000000
8 10 4 1 0 2.000000
haar
-0.001386 0 1
2
3 3 14 2 0 -1.000000
3 4 14 1 0 2.000000
haar
-0.000516 -1 -2
0.280120 0.382949 0.562363 
2
2
11 12 1 2 0 -1.000000
11 13 1 1 0 2.000000
haar
0.000070 0 1
2
4 12 12 1 0 -1.000000
8 12 4 1 0 3.000000
haar
-0.000210 -1 -2
0.453634 0.560814 0.426578 
2
2
0 2 1 2 0 -1.000000
0 3 1 1 0 2.000000
haar
0.001364 1 0
2
7 4 4 6 0 -1.000000
9 4 2 6 0 2.000000
haar
0.001548 -1 -2
0.263709 0.417075 0.593299 
2
3
0 2 20 14 0 -1.000000
10 2 10 7 0 2.000000
0 9 10 7 0 2.000000
haar
0.191796 0 1
2
14 6 1 3 0 -1.000000
14 7 1 1 0 3.000000
haar
-0.004478 -1 -2
0.525676 0.663262 0.489259 
2
3
0 4 20 12 0 -1.000000
0 4 10 6 0 2.000000
10 10 10 6 0 2.000000
haar
-0.126492 0 1
2
8 12 1 2 0 -1.000000
8 13 1 1 0 2.000000
haar
0.000065 -1 -2
0.149978 0.423332 0.575604 
2
2
9 18 3 2 0 -1.000000
10 18 1 2 0 3.000000
haar
0.004186 0 1
2
9 17 6 2 0 -1.000000
11 17 2 2 0 3.000000
haar
0.000275 -1 -2
0.528883 0.452402 0.560413 
2
2
5 6 2 3 0 -1.000000
5 7 2 1 0 3.000000
haar
-0.002291 0 1
2
5 4 3 3 0 -1.000000
5 5 3 1 0 3.000000
haar
0.001674 -1 -2
0.557827 0.332306 0.555879 
2
2
14 15 3 2 0 -1.000000
14 16 3 1 0 2.000000
haar
0.001235 1 0
2
11 3 3 4 0 -1.000000
12 3 1 4 0 3.000000
haar
-0.008716 -1 -2
0.365395 0.192453 0.531365 
2
2
3 15 3 2 0 -1.000000
3 16 3 1 0 2.000000
haar
0.004661 1 0
2
9 12 2 3 0 -1.000000
9 13 2 1 0 3.000000
haar
-0.008582 -1 -2
0.202773 0.763606 0.514083 
2
2
9 13 3 7 0 -1.000000
10 13 1 7 0 3.000000
haar
0.014352 0 1
2
12 12 5 3 0 -1.000000
12 13 5 1 0 3.000000
haar
-0.007795 -1 -2
0.525298 0.263294 0.532869 
2
2
8 18 3 2 0 -1.000000
9 18 1 2 0 3.000000
haar
-0.003416 0 1
3
4 7 12 4 0 -1.000000
4 7 6 2 0 2.000000
10 9 6 2 0 2.000000
haar
-0.004264 -1 -2
0.241609 0.393654 0.547874 
2
2
6 19 14 1 0 -1.000000
6 19 7 1 0 2.000000
haar
0.008718 0 1
2
16 14 3 2 0 -1.000000
16 15 3 1 0 2.000000
haar
-0.003223 -1 -2
0.478820 0.363161 0.528832 
2
3
1 0 6 10 0 -1.000000
1 0 3 5 0 2.000000
4 5 3 5 0 2.000000
haar
-0.042188 0 1
3
1 0 4 10 0 -1.000000
1 0 2 5 0 2.000000
3 5 2 5 0 2.000000
haar
0.019876 -1 -2
0.693114 0.452010 0.685506 
2
2
15 3 5 6 0 -1.000000
15 5 5 2 0 3.000000
haar
-0.031135 1 0
2
9 5 2 15 0 -1.000000
9 10 2 5 0 3.000000
haar
0.005703 -1 -2
0.530042 0.560689 0.423062 
2
2
0 3 5 6 0 -1.000000
0 5 5 2 0 3.000000
haar
0.005273 1 0
2
6 0 3 2 0 -1.000000
7 0 1 2 0 3.000000
haar
-0.003123 -1 -2
0.324723 0.198570 0.534987 
2
3
12 8 8 2 0 -1.000000
16 8 4 1 0 2.000000
12 9 4 1 0 2.000000
haar
0.000465 0 1
2
5 8 12 1 0 -1.000000
9 8 4 1 0 3.000000
haar
0.030356 -1 -2
0.420751 0.515346 0.311810 
2
2
3 13 3 3 0 -1.000000
3 14 3 1 0 3.000000
haar
-0.004299 0 1
2
5 13 3 2 0 -1.000000
5 14 3 1 0 2.000000
haar
0.000195 -1 -2
0.327451 0.595308 0.422552 
2
2
9 15 3 3 0 -1.000000
9 16 3 1 0 3.000000
haar
-0.007778 0 1
2
7 15 7 3 0 -1.000000
7 16 7 1 0 3.000000
haar
0.016918 -1 -2
0.721118 0.493659 0.703028 
2
2
3 14 11 6 0 -1.000000
3 16 11 2 0 3.000000
haar
-0.051949 0 1
2
0 19 14 1 0 -1.000000
7 19 7 1 0 2.000000
haar
-0.005475 -1 -2
0.142553 0.605933 0.439400 
2
2
9 17 6 2 0 -1.000000
11 17 2 2 0 3.000000
haar
0.000015 0 1
2
12 11 6 2 0 -1.000000
14 11 2 2 0 3.000000
haar
0.001024 -1 -2
0.448885 0.425655 0.579544 
2
2
5 17 6 2 0 -1.000000
7 17 2 2 0 3.000000
haar
-0.000104 0 1
2
0 1 9 10 0 -1.000000
3 1 3 10 0 3.000000
haar
0.008785 -1 -2
0.424604 0.495801 0.675943 
2
2
10 1 3 3 0 -1.000000
11 1 1 3 0 3.000000
haar
0.003401 0 1
2
9 5 6 4 0 -1.000000
9 5 3 4 0 2.000000
haar
0.000586 -1 -2
0.542348 0.363654 0.546435 
2
2
7 1 3 3 0 -1.000000
8 1 1 3 0 3.000000
haar
-0.002297 0 1
2
0 4 4 11 0 -1.000000
2 4 2 11 0 2.000000
haar
-0.014330 -1 -2
0.254882 0.658766 0.453280 
2
2
9 5 6 4 0 -1.000000
9 5 3 4 0 2.000000
haar
0.000986 0 1
3
6 0 8 10 0 -1.000000
10 0 4 5 0 2.000000
6 5 4 5 0 2.000000
haar
-0.046641 -1 -2
0.382277 0.307732 0.524413 
2
2
6 6 5 14 0 -1.000000
6 13 5 7 0 2.000000
haar
-0.119073 0 1
2
8 5 4 14 0 -1.000000
8 12 4 7 0 2.000000
haar
0.019333 -1 -2
0.103386 0.555475 0.322132 
2
2
7 7 6 5 0 -1.000000
9 7 2 5 0 3.000000
haar
0.031428 0 1
2
9 3 3 9 0 -1.000000
9 6 3 3 0 3.000000
haar
0.000201 -1 -2
0.468238 0.537307 0.380067 
2
2
8 1 3 3 0 -1.000000
9 1 1 3 0 3.000000
haar
-0.006258 0 1
2
9 6 2 4 0 -1.000000
10 6 1 4 0 2.000000
haar
0.008286 -1 -2
0.179921 0.509507 0.754461 
2
2
10 8 6 9 0 -1.000000
10 8 3 9 0 2.000000
haar
0.002053 0 1
2
16 4 3 8 0 -1.000000
17 4 1 8 0 3.000000
haar
0.003252 -1 -2
0.562864 0.480169 0.580210 
2
3
5 9 10 6 0 -1.000000
5 9 5 3 0 2.000000
10 12 5 3 0 2.000000
haar
-0.031885 0 1
2
5 5 6 4 0 -1.000000
8 5 3 4 0 2.000000
haar
0.001838 -1 -2
0.174275 0.346660 0.510715 
2
2
9 8 4 2 0 -1.000000
9 9 4 1 0 2.000000
haar
-0.000485 1 0
2
11 7 2 2 0 -1.000000
11 7 1 2 0 2.000000
haar
-0.002541 -1 -2
0.532609 0.634278 0.499269 
2
3
8 12 4 8 0 -1.000000
8 12 2 4 0 2.000000
10 16 2 4 0 2.000000
haar
-0.005156 0 1
2
0 1 4 9 0 -1.000000
0 4 4 3 0 3.000000
haar
-0.044969 -1 -2
0.343343 0.186814 0.521546 
2
2
9 10 3 3 0 -1.000000
9 11 3 1 0 3.000000
haar
0.005898 1 0
2
8 11 4 2 0 -1.000000
8 12 4 1 0 2.000000
haar
0.003276 -1 -2
0.622931 0.493577 0.721794 
2
2
7 8 4 2 0 -1.000000
7 9 4 1 0 2.000000
haar
-0.000102 1 0
2
7 8 6 1 0 -1.000000
9 8 2 1 0 3.000000
haar
-0.000163 -1 -2
0.500798 0.602415 0.232951 
2
2
16 0 4 9 0 -1.000000
16 0 2 9 0 2.000000
haar
0.009054 0 1
2
16 0 3 6 0 -1.000000
16 3 3 3 0 2.000000
haar
0.035398 -1 -2
0.451042 0.514200 0.286029 
2
2
0 0 4 9 0 -1.000000
2 0 2 9 0 2.000000
haar
0.005647 0 1
2
1 0 3 6 0 -1.000000
1 3 3 3 0 2.000000
haar
-0.002481 -1 -2
0.470493 0.417985 0.672665 
2
2
9 7 6 9 0 -1.000000
11 7 2 9 0 3.000000
haar
-0.004109 0 1
2
10 6 3 6 0 -1.000000
11 6 1 6 0 3.000000
haar
-0.002071 -1 -2
0.580980 0.607478 0.452406 
2
3
1 2 18 2 0 -1.000000
1 2 9 1 0 2.000000
10 3 9 1 0 2.000000
haar
-0.002894 0 1
2
5 8 6 8 0 -1.000000
7 8 2 8 0 3.000000
haar
0.001347 -1 -2
0.338352 0.569691 0.397085 
2
2
9 0 6 16 0 -1.000000
11 0 2 16 0 3.000000
haar
-0.090779 0 1
3
14 1 6 18 0 -1.000000
17 1 3 9 0 2.000000
14 10 3 9 0 2.000000
haar
-0.083172 -1 -2
0.150270 0.757367 0.493644 
2
2
2 9 2 3 0 -1.000000
2 10 2 1 0 3.000000
haar
-0.001411 0 1
3
0 1 6 18 0 -1.000000
0 1 3 9 0 2.000000
3 10 3 9 0 2.000000
haar
0.055669 -1 -2
0.339093 0.502510 0.742208 
2
2
11 8 4 12 0 -1.000000
11 8 2 12 0 2.000000
haar
0.057702 0 1
2
2 1 18 18 0 -1.000000
2 10 18 9 0 2.000000
haar
-0.425033 -1 -2
0.519737 0.097347 0.518574 
2
2
6 3 3 1 0 -1.000000
7 3 1 1 0 3.000000
haar
-0.000444 0 1
2
4 12 2 2 0 -1.000000
4 13 2 1 0 2.000000
haar
0.000179 -1 -2
0.364935 0.561928 0.376030 
2
2
8 13 5 3 0 -1.000000
8 14 5 1 0 3.000000
haar
0.005038 1 0
2
8 14 4 3 0 -1.000000
8 15 4 1 0 3.000000
haar
0.015191 -1 -2
0.632845 0.493608 0.742652 
2
2
3 12 5 3 0 -1.000000
3 13 5 1 0 3.000000
haar
-0.012300 0 1
2
6 3 3 4 0 -1.000000
7 3 1 4 0 3.000000
haar
0.001517 -1 -2
0.138935 0.509196 0.348265 
2
3
11 10 2 2 0 -1.000000
12 10 1 1 0 2.000000
11 11 1 1 0 2.000000
haar
0.000958 1 0
2
5 8 12 1 0 -1.000000
9 8 4 1 0 3.000000
haar
-0.018962 -1 -2
0.603632 0.231917 0.511665 
2
2
8 4 4 8 0 -1.000000
10 4 2 8 0 2.000000
haar
-0.022272 0 1
2
6 6 8 5 0 -1.000000
10 6 4 5 0 2.000000
haar
-0.025145 -1 -2
0.655502 0.132607 0.467403 
2
2
10 4 6 4 0 -1.000000
12 4 2 4 0 3.000000
haar
0.019534 0 1
3
12 7 2 2 0 -1.000000
13 7 1 1 0 2.000000
12 8 1 1 0 2.000000
haar
-0.001123 -1 -2
0.518203 0.631824 0.482552 
2
2
3 5 10 8 0 -1.000000
3 9 10 4 0 2.000000
haar
-0.001486 0 1
2
7 1 2 12 0 -1.000000
7 7 2 6 0 2.000000
haar
0.000350 -1 -2
0.291867 0.562137 0.424921 
2
3
12 7 2 2 0 -1.000000
13 7 1 1 0 2.000000
12 8 1 1 0 2.000000
haar
-0.001123 1 0
2
11 13 1 6 0 -1.000000
11 16 1 3 0 2.000000
haar
0.010410 -1 -2
0.481375 0.518401 0.205122 
2
2
5 1 6 15 0 -1.000000
7 1 2 15 0 3.000000
haar
-0.087833 0 1
3
6 7 2 2 0 -1.000000
6 7 1 1 0 2.000000
7 8 1 1 0 2.000000
haar
0.001658 -1 -2
0.117992 0.498781 0.697376 
2
2
17 5 2 2 0 -1.000000
17 6 2 1 0 2.000000
haar
-0.002301 1 0
3
10 3 4 10 0 -1.000000
12 3 2 5 0 2.000000
10 8 2 5 0 2.000000
haar
0.033026 -1 -2
0.533983 0.503329 0.685191 
2
2
1 5 2 2 0 -1.000000
1 6 2 1 0 2.000000
haar
-0.001359 0 1
3
7 10 2 2 0 -1.000000
7 10 1 1 0 2.000000
8 11 1 1 0 2.000000
haar
0.000781 -1 -2
0.300282 0.459308 0.644005 
2
3
3 12 14 4 0 -1.000000
10 12 7 2 0 2.000000
3 14 7 2 0 2.000000
haar
-0.018026 1 0
2
9 15 3 2 0 -1.000000
9 16 3 1 0 2.000000
haar
0.001235 -1 -2
0.531129 0.472911 0.572146 
2
2
1 13 3 3 0 -1.000000
1 14 3 1 0 3.000000
haar
-0.000926 0 1
2
0 3 1 2 0 -1.000000
0 4 1 1 0 2.000000
haar
0.000801 -1 -2
0.366233 0.536199 0.300863 
32.647129

-1
-1
