28
1
2
3 2 16 16 0 -1
3 10 16 8 0 2
haar_y2
-2.737669e-001 0 -1
5.978267e-001 -2.583592e-001 
1
2
13 0 6 6 0 -1
15 0 2 6 0 3
haar_x3
2.874539e-002 0 -1
1.549134e-001 -5.394748e-001 
1
2
6 16 7 3 0 -1
6 17 7 1 0 3
haar_y3
-1.172316e-002 0 -1
-7.393240e-001 8.051407e-002 
1
2
9 5 10 7 0 -1
14 5 5 7 0 2
haar_x2
-4.471560e-002 0 -1
-5.375002e-001 1.307566e-001 
1
2
6 8 7 12 0 -1
6 14 7 6 0 2
haar_y2
-6.747684e-002 0 -1
4.527569e-001 -1.691173e-001 
1
2
8 6 7 14 0 -1
8 13 7 7 0 2
haar_y2
4.611586e-002 0 -1
-1.041029e-001 5.116646e-001 
1
2
16 6 3 8 0 -1
17 6 1 8 0 3
haar_x3
-1.324194e-002 0 -1
-7.532113e-001 7.516880e-002 
1
2
8 18 4 2 0 -1
8 19 4 1 0 2
haar_y2
-1.524769e-003 0 -1
1.981642e-001 -2.815864e-001 
1
2
13 13 2 3 0 -1
14 13 1 3 0 2
haar_x2
-5.448815e-003 0 -1
6.824075e-001 -9.738442e-002 
1
2
3 4 2 12 0 -1
3 10 2 6 0 2
haar_y2
-4.836431e-002 0 -1
6.354659e-001 -5.926600e-002 
1
2
6 13 3 6 0 -1
7 13 1 6 0 3
haar_x3
5.292918e-003 0 -1
-7.863233e-002 4.677733e-001 
1
3
6 11 4 6 0 -1
6 11 2 3 0 2
8 14 2 3 0 2
haar_x2_y2
-9.510405e-003 0 -1
3.806471e-001 -9.401659e-002 
1
2
7 6 7 9 0 -1
7 9 7 3 0 3
haar_y3
-1.725708e-001 0 -1
-6.439007e-001 6.069826e-002 
1
2
7 8 7 12 0 -1
7 14 7 6 0 2
haar_y2
1.040505e-001 0 -1
-7.947131e-002 5.582252e-001 
1
2
8 13 6 4 0 -1
8 15 6 2 0 2
haar_y2
-1.967301e-003 0 -1
2.825086e-001 -1.282704e-001 
1
2
18 12 2 4 0 -1
19 12 1 4 0 2
haar_x2
-4.669524e-003 0 -1
2.967983e-001 -1.218258e-001 
1
2
18 14 2 2 0 -1
19 14 1 2 0 2
haar_x2
2.280796e-003 0 -1
-1.177032e-001 2.926689e-001 
1
2
19 1 1 10 0 -1
19 6 1 5 0 2
haar_y2
1.393865e-002 0 -1
9.483697e-002 -3.630261e-001 
1
2
6 15 6 3 0 -1
6 16 6 1 0 3
haar_y3
-9.781744e-003 0 -1
-5.649984e-001 5.651721e-002 
1
2
6 16 3 2 0 -1
7 16 1 2 0 3
haar_x3
-2.213393e-003 0 -1
4.982712e-001 -6.732583e-002 
1
2
2 8 18 5 0 -1
8 8 6 5 0 3
haar_x3
6.146521e-002 0 -1
7.301160e-002 -4.788438e-001 
1
2
1 1 17 18 0 -1
1 10 17 9 0 2
haar_y2
-5.321946e-001 0 -1
8.942788e-001 -3.487998e-002 
1
2
9 14 3 5 0 -1
10 14 1 5 0 3
haar_x3
-2.080848e-003 0 -1
3.246582e-001 -8.821348e-002 
1
2
9 15 3 5 0 -1
10 15 1 5 0 3
haar_x3
3.300960e-003 0 -1
-9.225569e-002 4.314777e-001 
1
2
14 17 2 1 0 -1
15 17 1 1 0 2
haar_x2
-1.880964e-003 0 -1
4.062831e-001 -7.636585e-002 
1
2
5 14 2 1 0 -1
6 14 1 1 0 2
haar_x2
2.354520e-003 0 -1
-4.854334e-002 6.382286e-001 
1
2
4 14 3 2 0 -1
5 14 1 2 0 3
haar_x3
3.348534e-003 0 -1
-6.594712e-002 4.036804e-001 
1
2
10 11 9 4 0 -1
13 11 3 4 0 3
haar_x3
5.220116e-002 0 -1
5.862983e-002 -5.251781e-001 
-1.114981e+000

7
-1
