52
1
2
1 1 4 21 0 -1
3 1 2 21 0 2
haar_x2
-7.720764e-002 0 -1
3.691616e-001 -3.052610e-001 
1
2
3 2 6 3 0 -1
5 2 2 3 0 3
haar_x3
-2.821314e-002 0 -1
4.358131e-001 -1.574892e-001 
1
2
7 14 4 11 0 -1
9 14 2 11 0 2
haar_x2
3.115977e-002 0 -1
-2.716205e-001 2.204695e-001 
1
2
4 0 4 15 0 -1
4 5 4 5 0 3
haar_y3
1.839243e-001 0 -1
-8.484723e-002 5.855349e-001 
1
2
6 5 5 4 0 -1
6 7 5 2 0 2
haar_y2
-9.696259e-003 0 -1
2.706887e-001 -1.892138e-001 
1
2
4 12 3 1 0 -1
5 12 1 1 0 3
haar_x3
-7.511124e-004 0 -1
-3.586181e-001 8.650564e-002 
1
2
3 12 3 1 0 -1
4 12 1 1 0 3
haar_x3
-1.993689e-003 0 -1
-4.172308e-001 9.252811e-002 
1
2
1 6 8 16 0 -1
1 14 8 8 0 2
haar_y2
-3.451774e-001 0 -1
5.421455e-001 -5.699814e-002 
1
2
0 5 2 9 0 -1
1 5 1 9 0 2
haar_x2
-6.386621e-003 0 -1
2.262870e-001 -1.684099e-001 
1
2
2 3 6 2 0 -1
4 3 2 2 0 3
haar_x3
6.378201e-003 0 -1
-8.978193e-002 3.202678e-001 
1
2
1 0 1 3 0 -1
1 1 1 1 0 3
haar_y3
-1.598486e-003 0 -1
-4.615682e-001 6.562085e-002 
1
3
0 1 6 2 0 -1
0 1 3 1 0 2
3 2 3 1 0 2
haar_x2_y2
-1.661136e-003 0 -1
2.009274e-001 -1.445327e-001 
1
2
2 1 7 24 0 -1
2 9 7 8 0 3
haar_y3
4.715466e-001 0 -1
-4.244772e-002 7.432925e-001 
1
2
0 9 10 16 0 -1
0 17 10 8 0 2
haar_y2
1.543750e-001 0 -1
-9.769177e-002 3.310781e-001 
1
2
10 1 1 3 0 -1
10 2 1 1 0 3
haar_y3
7.288448e-004 0 -1
8.022895e-002 -3.232453e-001 
1
3
10 7 2 8 0 -1
10 7 1 4 0 2
11 11 1 4 0 2
haar_x2_y2
4.852518e-003 0 -1
-1.089759e-001 2.676676e-001 
1
2
3 0 6 6 0 -1
3 2 6 2 0 3
haar_y3
1.520838e-002 0 -1
-8.577408e-002 2.977091e-001 
1
3
10 2 2 2 0 -1
10 2 1 1 0 2
11 3 1 1 0 2
haar_x2_y2
-2.433233e-004 0 -1
-2.472198e-001 1.133839e-001 
1
3
10 2 2 2 0 -1
10 2 1 1 0 2
11 3 1 1 0 2
haar_x2_y2
5.241802e-004 0 -1
9.785016e-002 -3.149874e-001 
1
3
0 11 4 6 0 -1
0 11 2 3 0 2
2 14 2 3 0 2
haar_x2_y2
-8.546451e-003 0 -1
2.236458e-001 -1.292383e-001 
1
2
4 2 3 24 0 -1
5 2 1 24 0 3
haar_x3
-1.135196e-002 0 -1
2.092777e-001 -1.280610e-001 
1
2
4 2 4 3 0 -1
4 3 4 1 0 3
haar_y3
-1.756279e-003 0 -1
1.842715e-001 -1.589956e-001 
1
2
4 0 3 13 0 -1
5 0 1 13 0 3
haar_x3
-3.697912e-002 0 -1
-7.454805e-001 3.518789e-002 
1
3
10 23 2 2 0 -1
10 23 1 1 0 2
11 24 1 1 0 2
haar_x2_y2
6.825979e-004 0 -1
6.434933e-002 -3.507134e-001 
1
3
10 23 2 2 0 -1
10 23 1 1 0 2
11 24 1 1 0 2
haar_x2_y2
-3.516308e-004 0 -1
-3.031389e-001 1.006743e-001 
1
3
2 20 4 6 0 -1
2 20 2 3 0 2
4 23 2 3 0 2
haar_x2_y2
-8.400489e-003 0 -1
3.337894e-001 -8.894178e-002 
1
2
0 24 2 2 0 -1
1 24 1 2 0 2
haar_x2
3.056725e-004 0 -1
1.039441e-001 -2.735310e-001 
1
2
5 0 2 15 0 -1
6 0 1 15 0 2
haar_x2
9.032983e-003 0 -1
-1.046559e-001 2.522785e-001 
1
3
1 22 6 4 0 -1
1 22 3 2 0 2
4 24 3 2 0 2
haar_x2_y2
5.510205e-003 0 -1
-9.539880e-002 2.451915e-001 
1
2
0 3 2 11 0 -1
1 3 1 11 0 2
haar_x2
7.683058e-003 0 -1
-7.566982e-002 3.092886e-001 
1
2
10 4 2 8 0 -1
11 4 1 8 0 2
haar_x2
9.993346e-003 0 -1
-8.827922e-002 2.607655e-001 
1
2
0 10 1 3 0 -1
0 11 1 1 0 3
haar_y3
1.836774e-003 0 -1
5.873490e-002 -4.029706e-001 
1
2
1 2 11 6 0 -1
1 4 11 2 0 3
haar_y3
-2.010651e-002 0 -1
2.102491e-001 -1.123092e-001 
1
2
3 4 4 6 0 -1
3 7 4 3 0 2
haar_y2
-4.707537e-003 0 -1
1.276848e-001 -1.876215e-001 
1
2
4 9 1 16 0 -1
4 17 1 8 0 2
haar_y2
-1.040007e-002 0 -1
2.079614e-001 -1.368444e-001 
1
3
5 13 4 12 0 -1
5 13 2 6 0 2
7 19 2 6 0 2
haar_x2_y2
-3.453884e-002 0 -1
4.330605e-001 -5.386498e-002 
1
3
7 14 2 12 0 -1
7 14 1 6 0 2
8 20 1 6 0 2
haar_x2_y2
6.534164e-003 0 -1
-8.895436e-002 2.858222e-001 
1
2
5 14 2 1 0 -1
6 14 1 1 0 2
haar_x2
4.157491e-004 0 -1
9.832609e-002 -2.659766e-001 
1
2
4 15 2 1 0 -1
5 15 1 1 0 2
haar_x2
-2.143457e-003 0 -1
-4.465804e-001 4.780550e-002 
1
2
4 0 4 2 0 -1
4 1 4 1 0 2
haar_y2
-3.998005e-003 0 -1
2.068028e-001 -1.065875e-001 
1
2
2 0 1 3 0 -1
2 1 1 1 0 3
haar_y3
-1.078327e-003 0 -1
-3.152081e-001 7.373574e-002 
1
2
2 0 1 3 0 -1
2 1 1 1 0 3
haar_y3
5.057799e-004 0 -1
1.083701e-001 -2.311942e-001 
1
3
1 0 4 6 0 -1
1 0 2 3 0 2
3 3 2 3 0 2
haar_x2_y2
1.045078e-002 0 -1
-7.716061e-002 2.794288e-001 
1
2
0 5 4 5 0 -1
2 5 2 5 0 2
haar_x2
-2.089398e-002 0 -1
2.137029e-001 -1.072422e-001 
1
2
0 6 6 20 0 -1
2 6 2 20 0 3
haar_x3
-2.558739e-001 0 -1
-8.789545e-001 2.519311e-002 
1
2
3 8 9 14 0 -1
6 8 3 14 0 3
haar_x3
8.255803e-002 0 -1
-6.821009e-002 3.417490e-001 
1
2
3 15 9 2 0 -1
6 15 3 2 0 3
haar_x3
-7.991463e-003 0 -1
1.383031e-001 -2.045336e-001 
1
3
5 11 2 2 0 -1
5 11 1 1 0 2
6 12 1 1 0 2
haar_x2_y2
-3.871815e-004 0 -1
-2.390747e-001 9.755605e-002 
1
3
3 2 4 6 0 -1
3 2 2 3 0 2
5 5 2 3 0 2
haar_x2_y2
-9.482537e-003 0 -1
2.506534e-001 -8.130353e-002 
1
2
5 8 1 4 0 -1
5 10 1 2 0 2
haar_y2
2.543033e-004 0 -1
1.051435e-001 -2.118212e-001 
1
3
0 15 4 10 0 -1
0 15 2 5 0 2
2 20 2 5 0 2
haar_x2_y2
-2.073980e-002 0 -1
3.228346e-001 -6.893343e-002 
1
3
8 2 2 16 0 -1
8 2 1 8 0 2
9 10 1 8 0 2
haar_x2_y2
-8.222610e-003 0 -1
2.984282e-001 -7.120308e-002 
-1.206232e+000

7
-1
