172
1
2
8 2 3 4 0 -1
8 4 3 2 0 2
haar_y2
-1.968997e-002 0 -1
3.000000e-001 -9.677745e-002 
1
3
2 5 4 14 0 -1
2 5 2 7 0 2
4 12 2 7 0 2
haar_x2_y2
-5.212048e-002 0 -1
2.068562e-001 -1.114854e-001 
1
2
10 23 2 1 0 -1
11 23 1 1 0 2
haar_x2
6.726425e-005 0 -1
-2.323608e-001 4.661084e-002 
1
2
9 22 3 1 0 -1
10 22 1 1 0 3
haar_x3
-5.701802e-004 0 -1
-2.418678e-001 7.950372e-002 
1
3
10 1 2 2 0 -1
10 1 1 1 0 2
11 2 1 1 0 2
haar_x2_y2
-4.141411e-004 0 -1
-2.249841e-001 7.201909e-002 
1
2
0 0 6 1 0 -1
2 0 2 1 0 3
haar_x3
1.873629e-003 0 -1
-8.574814e-002 1.407296e-001 
1
2
1 8 8 12 0 -1
1 12 8 4 0 3
haar_y3
-1.042110e-001 0 -1
2.013967e-001 -6.922704e-002 
1
2
3 0 5 21 0 -1
3 7 5 7 0 3
haar_y3
-1.523758e-001 0 -1
1.479475e-001 -8.765268e-002 
1
2
0 24 4 2 0 -1
2 24 2 2 0 2
haar_x2
-4.388283e-004 0 -1
6.185492e-002 -1.629898e-001 
1
2
0 11 10 15 0 -1
0 16 10 5 0 3
haar_y3
1.890318e-001 0 -1
3.938376e-002 -3.752938e-001 
1
2
0 11 3 1 0 -1
1 11 1 1 0 3
haar_x3
-3.456508e-003 0 -1
2.218771e-001 -4.458606e-002 
1
2
1 1 1 3 0 -1
1 2 1 1 0 3
haar_y3
5.269996e-004 0 -1
6.500139e-002 -1.516785e-001 
1
2
9 2 3 1 0 -1
10 2 1 1 0 3
haar_x3
-5.494703e-004 0 -1
-1.800473e-001 5.682245e-002 
1
2
5 11 6 3 0 -1
5 12 6 1 0 3
haar_y3
6.838802e-003 0 -1
-4.731981e-002 2.161300e-001 
1
2
6 3 6 6 0 -1
6 5 6 2 0 3
haar_y3
-3.971489e-002 0 -1
-3.414391e-001 3.517186e-002 
1
2
8 4 4 6 0 -1
8 6 4 2 0 3
haar_y3
-6.854192e-003 0 -1
1.097725e-001 -9.062608e-002 
1
2
1 23 3 3 0 -1
2 23 1 3 0 3
haar_x3
-1.691534e-003 0 -1
-1.998527e-001 4.632274e-002 
1
2
7 4 3 3 0 -1
8 4 1 3 0 3
haar_x3
9.151978e-003 0 -1
-4.102229e-002 2.493611e-001 
1
2
3 18 3 2 0 -1
4 18 1 2 0 3
haar_x3
-5.900993e-003 0 -1
1.749003e-001 -5.368518e-002 
1
3
3 9 2 14 0 -1
3 9 1 7 0 2
4 16 1 7 0 2
haar_x2_y2
1.355620e-002 0 -1
-5.576976e-002 2.025393e-001 
1
2
4 9 3 2 0 -1
5 9 1 2 0 3
haar_x3
-1.467148e-003 0 -1
-1.497814e-001 7.172459e-002 
1
2
8 19 3 1 0 -1
9 19 1 1 0 3
haar_x3
3.977781e-003 0 -1
-4.638835e-002 2.234248e-001 
1
2
3 25 3 1 0 -1
4 25 1 1 0 3
haar_x3
-8.279554e-004 0 -1
-1.654360e-001 6.063009e-002 
1
2
1 0 9 3 0 -1
1 1 9 1 0 3
haar_y3
-1.173914e-002 0 -1
1.740219e-001 -4.933333e-002 
1
2
1 0 8 2 0 -1
1 1 8 1 0 2
haar_y2
4.867474e-003 0 -1
-6.138089e-002 2.161850e-001 
1
2
6 4 2 8 0 -1
6 8 2 4 0 2
haar_y2
-2.047364e-002 0 -1
-1.600093e-001 5.934153e-002 
1
2
6 9 5 6 0 -1
6 11 5 2 0 3
haar_y3
-1.031024e-002 0 -1
1.229000e-001 -7.250791e-002 
1
2
4 9 3 2 0 -1
5 9 1 2 0 3
haar_x3
2.778876e-003 0 -1
5.738287e-002 -1.683802e-001 
1
3
0 0 2 2 0 -1
0 0 1 1 0 2
1 1 1 1 0 2
haar_x2_y2
4.809826e-004 0 -1
5.351784e-002 -1.676839e-001 
1
2
8 7 3 4 0 -1
9 7 1 4 0 3
haar_x3
-1.069588e-002 0 -1
1.698494e-001 -4.935114e-002 
1
2
9 1 1 18 0 -1
9 7 1 6 0 3
haar_y3
7.699063e-002 0 -1
-1.600298e-002 6.681014e-001 
1
2
8 7 3 6 0 -1
9 7 1 6 0 3
haar_x3
-4.495250e-002 0 -1
-7.181093e-001 1.519046e-002 
1
2
0 1 9 2 0 -1
3 1 3 2 0 3
haar_x3
-6.765282e-002 0 -1
3.046466e-001 -3.035272e-002 
1
2
2 0 6 3 0 -1
4 0 2 3 0 3
haar_x3
6.779922e-003 0 -1
-6.474764e-002 1.550399e-001 
1
2
5 0 6 3 0 -1
7 0 2 3 0 3
haar_x3
9.348479e-003 0 -1
-6.458499e-002 1.321835e-001 
1
2
2 2 10 1 0 -1
7 2 5 1 0 2
haar_x2
2.548221e-002 0 -1
4.402477e-002 -1.991981e-001 
1
3
6 16 6 2 0 -1
6 16 3 1 0 2
9 17 3 1 0 2
haar_x2_y2
-3.356200e-004 0 -1
9.759811e-002 -9.223218e-002 
1
2
8 25 4 1 0 -1
10 25 2 1 0 2
haar_x2
1.804268e-004 0 -1
-1.490068e-001 5.983551e-002 
1
2
5 25 6 1 0 -1
7 25 2 1 0 3
haar_x3
-1.335939e-003 0 -1
-1.460067e-001 8.655906e-002 
1
2
6 4 4 6 0 -1
8 4 2 6 0 2
haar_x2
-1.044928e-001 0 -1
9.228794e-001 -8.022088e-003 
1
2
3 13 9 2 0 -1
6 13 3 2 0 3
haar_x3
-7.089922e-002 0 -1
-4.839162e-001 2.100774e-002 
1
2
1 18 6 6 0 -1
3 18 2 6 0 3
haar_x3
2.892968e-002 0 -1
-5.653770e-002 1.662572e-001 
1
2
2 13 3 10 0 -1
3 13 1 10 0 3
haar_x3
-1.459913e-002 0 -1
1.767494e-001 -5.456437e-002 
1
2
2 16 3 1 0 -1
3 16 1 1 0 3
haar_x3
-9.251553e-003 0 -1
-6.663743e-001 1.298160e-002 
1
2
0 2 12 1 0 -1
4 2 4 1 0 3
haar_x3
-2.764925e-003 0 -1
6.072761e-002 -1.464765e-001 
1
2
2 0 1 8 0 -1
2 4 1 4 0 2
haar_y2
8.912091e-003 0 -1
-4.742069e-002 2.065870e-001 
1
2
1 5 3 2 0 -1
2 5 1 2 0 3
haar_x3
-9.974088e-004 0 -1
1.013038e-001 -9.488475e-002 
1
2
9 1 3 12 0 -1
10 1 1 12 0 3
haar_x3
-6.356894e-003 0 -1
1.189741e-001 -7.329876e-002 
1
2
9 6 3 6 0 -1
10 6 1 6 0 3
haar_x3
1.004997e-002 0 -1
-5.569605e-002 1.809319e-001 
1
2
6 10 2 16 0 -1
6 18 2 8 0 2
haar_y2
-1.258002e-001 0 -1
6.230769e-001 -1.216124e-002 
1
3
5 15 2 10 0 -1
5 15 1 5 0 2
6 20 1 5 0 2
haar_x2_y2
3.962754e-003 0 -1
-6.349296e-002 1.325182e-001 
1
3
5 16 2 10 0 -1
5 16 1 5 0 2
6 21 1 5 0 2
haar_x2_y2
-1.286063e-003 0 -1
1.074640e-001 -7.925704e-002 
1
2
3 10 9 4 0 -1
6 10 3 4 0 3
haar_x3
-1.406446e-002 0 -1
7.052718e-002 -1.188991e-001 
1
2
0 23 10 2 0 -1
5 23 5 2 0 2
haar_x2
-4.935035e-002 0 -1
-2.823650e-001 2.746641e-002 
1
2
8 9 2 1 0 -1
9 9 1 1 0 2
haar_x2
4.316932e-004 0 -1
7.807816e-002 -1.082094e-001 
1
3
0 20 2 2 0 -1
0 20 1 1 0 2
1 21 1 1 0 2
haar_x2_y2
1.294098e-003 0 -1
2.341427e-002 -3.093686e-001 
1
2
1 3 1 3 0 -1
1 4 1 1 0 3
haar_y3
5.254520e-003 0 -1
1.583641e-002 -4.527711e-001 
1
2
10 0 1 24 0 -1
10 12 1 12 0 2
haar_y2
8.111001e-002 0 -1
1.262810e-002 -5.056949e-001 
1
2
3 21 4 1 0 -1
5 21 2 1 0 2
haar_x2
1.556609e-002 0 -1
1.008533e-002 -6.681640e-001 
1
2
0 6 8 6 0 -1
0 8 8 2 0 3
haar_y3
-9.143662e-003 0 -1
1.031037e-001 -6.961871e-002 
1
2
4 2 1 15 0 -1
4 7 1 5 0 3
haar_y3
-5.121198e-002 0 -1
-5.091300e-001 1.648368e-002 
1
2
2 9 8 3 0 -1
2 10 8 1 0 3
haar_y3
-3.289715e-003 0 -1
1.328854e-001 -6.312580e-002 
1
2
5 0 3 6 0 -1
5 2 3 2 0 3
haar_y3
-5.279336e-002 0 -1
-4.950955e-001 1.763440e-002 
1
2
3 3 2 10 0 -1
4 3 1 10 0 2
haar_x2
-5.221563e-002 0 -1
-6.298156e-001 1.049867e-002 
1
2
2 4 3 15 0 -1
3 4 1 15 0 3
haar_x3
3.889976e-002 0 -1
-2.783419e-002 2.775957e-001 
1
2
1 11 6 1 0 -1
3 11 2 1 0 3
haar_x3
-1.071582e-003 0 -1
8.438443e-002 -1.137709e-001 
1
2
4 0 1 18 0 -1
4 6 1 6 0 3
haar_y3
1.039932e-001 0 -1
-1.617913e-002 5.641220e-001 
1
3
0 21 8 4 0 -1
0 21 4 2 0 2
4 23 4 2 0 2
haar_x2_y2
3.328532e-002 0 -1
2.018335e-002 -3.811678e-001 
1
2
4 17 6 2 0 -1
6 17 2 2 0 3
haar_x3
-3.751370e-003 0 -1
6.866042e-002 -1.030651e-001 
1
2
6 18 6 5 0 -1
8 18 2 5 0 3
haar_x3
-4.255184e-002 0 -1
1.699401e-001 -4.910796e-002 
1
3
7 17 2 4 0 -1
7 17 1 2 0 2
8 19 1 2 0 2
haar_x2_y2
5.877850e-004 0 -1
-5.979125e-002 1.236294e-001 
1
2
10 17 2 1 0 -1
11 17 1 1 0 2
haar_x2
6.977615e-004 0 -1
6.157365e-002 -1.271888e-001 
1
2
1 1 6 9 0 -1
3 1 2 9 0 3
haar_x3
-1.391733e-001 0 -1
-4.496112e-001 1.666545e-002 
1
2
5 0 6 21 0 -1
7 0 2 21 0 3
haar_x3
-2.833942e-001 0 -1
-6.942421e-001 1.017477e-002 
1
2
5 3 3 2 0 -1
6 3 1 2 0 3
haar_x3
4.174916e-003 0 -1
-4.529314e-002 1.726382e-001 
1
3
2 17 8 2 0 -1
2 17 4 1 0 2
6 18 4 1 0 2
haar_x2_y2
-9.663207e-003 0 -1
-3.482167e-001 2.107230e-002 
1
2
11 11 1 14 0 -1
11 18 1 7 0 2
haar_y2
-2.824499e-003 0 -1
1.094382e-001 -7.332754e-002 
1
2
7 1 4 3 0 -1
7 2 4 1 0 3
haar_y3
-1.811469e-004 0 -1
8.537728e-002 -8.204783e-002 
1
2
8 1 3 3 0 -1
9 1 1 3 0 3
haar_x3
-1.700654e-003 0 -1
-1.406724e-001 5.406544e-002 
1
2
3 5 4 6 0 -1
3 8 4 3 0 2
haar_y2
-3.727044e-002 0 -1
-2.386358e-001 2.933968e-002 
1
2
6 1 6 1 0 -1
8 1 2 1 0 3
haar_x3
-1.388602e-002 0 -1
3.022238e-001 -2.556079e-002 
1
3
6 3 2 6 0 -1
6 3 1 3 0 2
7 6 1 3 0 2
haar_x2_y2
1.994263e-002 0 -1
1.275911e-002 -6.867825e-001 
1
2
4 4 3 3 0 -1
5 4 1 3 0 3
haar_x3
3.326306e-002 0 -1
-1.264081e-002 7.683533e-001 
1
2
4 11 2 1 0 -1
5 11 1 1 0 2
haar_x2
2.473638e-004 0 -1
6.779219e-002 -1.200659e-001 
1
2
3 3 9 22 0 -1
6 3 3 22 0 3
haar_x3
9.844373e-002 0 -1
-3.569501e-002 2.082073e-001 
1
2
8 20 4 1 0 -1
10 20 2 1 0 2
haar_x2
1.814922e-003 0 -1
-9.880066e-002 7.719241e-002 
1
2
1 5 4 2 0 -1
1 6 4 1 0 2
haar_y2
-2.477820e-004 0 -1
7.031398e-002 -1.019337e-001 
1
2
0 5 4 2 0 -1
0 6 4 1 0 2
haar_y2
-6.677277e-003 0 -1
-2.364212e-001 3.453379e-002 
1
2
4 8 3 3 0 -1
4 9 3 1 0 3
haar_y3
-1.419229e-002 0 -1
3.789525e-001 -2.029286e-002 
1
3
0 12 2 14 0 -1
0 12 1 7 0 2
1 19 1 7 0 2
haar_x2_y2
1.295675e-002 0 -1
-3.440597e-002 2.137016e-001 
1
2
0 9 2 5 0 -1
1 9 1 5 0 2
haar_x2
2.301927e-002 0 -1
-1.292190e-002 5.252060e-001 
1
2
0 16 2 8 0 -1
1 16 1 8 0 2
haar_x2
7.868195e-003 0 -1
2.651876e-002 -3.286075e-001 
1
2
8 3 3 21 0 -1
8 10 3 7 0 3
haar_y3
-2.502521e-001 0 -1
7.371677e-001 -1.284559e-002 
1
2
3 7 4 3 0 -1
3 8 4 1 0 3
haar_y3
-9.812908e-004 0 -1
1.073406e-001 -6.588473e-002 
1
2
6 8 1 2 0 -1
6 9 1 1 0 2
haar_y2
3.446981e-004 0 -1
5.169328e-002 -1.435908e-001 
1
2
4 9 2 3 0 -1
4 10 2 1 0 3
haar_y3
-1.162738e-002 0 -1
5.039691e-001 -1.550176e-002 
1
2
0 0 12 2 0 -1
4 0 4 2 0 3
haar_x3
-1.203265e-001 0 -1
-5.013219e-001 1.561931e-002 
1
2
4 19 8 3 0 -1
8 19 4 3 0 2
haar_x2
-4.094573e-002 0 -1
-3.413590e-001 2.047712e-002 
1
2
7 18 4 4 0 -1
9 18 2 4 0 2
haar_x2
-8.925198e-003 0 -1
2.157997e-001 -3.829074e-002 
1
2
8 7 2 16 0 -1
9 7 1 16 0 2
haar_x2
-3.807387e-002 0 -1
-5.377997e-001 1.826692e-002 
1
2
7 12 3 13 0 -1
8 12 1 13 0 3
haar_x3
8.467453e-003 0 -1
-5.959157e-002 1.293937e-001 
1
2
7 9 3 13 0 -1
8 9 1 13 0 3
haar_x3
-1.128278e-002 0 -1
1.086153e-001 -7.321347e-002 
1
2
9 6 3 15 0 -1
10 6 1 15 0 3
haar_x3
6.066159e-002 0 -1
1.447291e-002 -5.610374e-001 
1
2
3 11 3 15 0 -1
4 11 1 15 0 3
haar_x3
-6.114634e-002 0 -1
-4.824401e-001 1.277244e-002 
1
2
1 2 3 2 0 -1
2 2 1 2 0 3
haar_x3
1.465491e-002 0 -1
1.501610e-002 -5.005106e-001 
1
2
8 12 3 14 0 -1
9 12 1 14 0 3
haar_x3
-3.381527e-002 0 -1
2.514122e-001 -3.190719e-002 
1
2
6 0 6 26 0 -1
8 0 2 26 0 3
haar_x3
-3.286302e-001 0 -1
-5.893568e-001 1.574954e-002 
1
3
3 17 8 2 0 -1
3 17 4 1 0 2
7 18 4 1 0 2
haar_x2_y2
1.805154e-002 0 -1
5.828269e-003 -8.683870e-001 
1
2
3 25 3 1 0 -1
4 25 1 1 0 3
haar_x3
8.704654e-004 0 -1
3.997425e-002 -1.709531e-001 
1
3
2 0 4 2 0 -1
2 0 2 1 0 2
4 1 2 1 0 2
haar_x2_y2
-5.781550e-003 0 -1
1.938836e-001 -3.570059e-002 
1
2
2 6 6 9 0 -1
2 9 6 3 0 3
haar_y3
1.683693e-001 0 -1
8.744197e-003 -7.669841e-001 
1
2
4 10 3 12 0 -1
5 10 1 12 0 3
haar_x3
8.814419e-003 0 -1
-4.821264e-002 1.497355e-001 
1
3
2 16 4 2 0 -1
2 16 2 1 0 2
4 17 2 1 0 2
haar_x2_y2
-3.819515e-003 0 -1
-2.364309e-001 3.273490e-002 
1
2
0 1 10 1 0 -1
5 1 5 1 0 2
haar_x2
3.736066e-002 0 -1
1.283619e-002 -5.867196e-001 
1
2
0 6 4 20 0 -1
0 16 4 10 0 2
haar_y2
2.410262e-002 0 -1
-1.037045e-001 7.264353e-002 
1
2
2 11 7 14 0 -1
2 18 7 7 0 2
haar_y2
1.955380e-001 0 -1
3.849817e-002 -2.477745e-001 
1
3
0 18 6 6 0 -1
0 18 3 3 0 2
3 21 3 3 0 2
haar_x2_y2
6.704881e-003 0 -1
-7.641558e-002 1.041083e-001 
1
3
0 4 2 2 0 -1
0 4 1 1 0 2
1 5 1 1 0 2
haar_x2_y2
5.723292e-005 0 -1
-7.508830e-002 1.022603e-001 
1
2
0 2 1 4 0 -1
0 4 1 2 0 2
haar_y2
-6.415200e-003 0 -1
-2.661136e-001 3.024816e-002 
1
2
0 1 11 9 0 -1
0 4 11 3 0 3
haar_y3
-5.574976e-002 0 -1
1.457556e-001 -5.760559e-002 
1
3
0 0 4 4 0 -1
0 0 2 2 0 2
2 2 2 2 0 2
haar_x2_y2
1.437405e-003 0 -1
-7.444666e-002 1.260042e-001 
1
2
11 1 1 3 0 -1
11 2 1 1 0 3
haar_y3
2.814151e-003 0 -1
2.615671e-002 -3.274214e-001 
1
2
2 2 3 3 0 -1
2 3 3 1 0 3
haar_y3
-3.700559e-003 0 -1
1.457034e-001 -5.728742e-002 
1
2
2 0 3 9 0 -1
2 3 3 3 0 3
haar_y3
-6.858213e-002 0 -1
-4.475530e-001 1.755523e-002 
1
2
0 2 2 14 0 -1
0 9 2 7 0 2
haar_y2
7.487471e-002 0 -1
2.143352e-002 -3.231609e-001 
1
2
1 4 1 10 0 -1
1 9 1 5 0 2
haar_y2
2.676131e-003 0 -1
-7.920007e-002 1.018140e-001 
1
2
9 8 2 10 0 -1
9 13 2 5 0 2
haar_y2
-5.539107e-002 0 -1
4.056162e-001 -1.794863e-002 
1
2
11 11 1 6 0 -1
11 14 1 3 0 2
haar_y2
-3.628504e-003 0 -1
-2.047019e-001 4.466528e-002 
1
2
2 7 5 6 0 -1
2 10 5 3 0 2
haar_y2
1.020712e-002 0 -1
5.465733e-002 -1.484865e-001 
1
2
1 3 2 12 0 -1
1 7 2 4 0 3
haar_y3
-3.637450e-002 0 -1
1.667080e-001 -5.895813e-002 
1
3
0 9 6 4 0 -1
0 9 3 2 0 2
3 11 3 2 0 2
haar_x2_y2
2.279213e-002 0 -1
-2.755899e-002 3.533535e-001 
1
3
0 23 8 2 0 -1
0 23 4 1 0 2
4 24 4 1 0 2
haar_x2_y2
7.156058e-004 0 -1
-8.828450e-002 8.656696e-002 
1
3
6 20 6 6 0 -1
6 20 3 3 0 2
9 23 3 3 0 2
haar_x2_y2
-4.194080e-002 0 -1
-4.377258e-001 1.739306e-002 
1
3
8 3 2 2 0 -1
8 3 1 1 0 2
9 4 1 1 0 2
haar_x2_y2
-1.419453e-003 0 -1
1.620704e-001 -4.893054e-002 
1
3
3 20 6 4 0 -1
3 20 3 2 0 2
6 22 3 2 0 2
haar_x2_y2
-2.944791e-002 0 -1
-6.598438e-001 1.002320e-002 
1
2
0 0 6 13 0 -1
2 0 2 13 0 3
haar_x3
-2.319534e-001 0 -1
-7.648810e-001 8.582880e-003 
1
2
2 3 10 3 0 -1
2 4 10 1 0 3
haar_y3
-4.974448e-003 0 -1
1.218465e-001 -6.156470e-002 
1
2
7 24 3 2 0 -1
8 24 1 2 0 3
haar_x3
-1.610161e-002 0 -1
-8.049195e-001 8.657455e-003 
1
2
5 14 3 5 0 -1
6 14 1 5 0 3
haar_x3
1.669126e-002 0 -1
-2.968224e-002 2.806101e-001 
1
2
5 15 3 1 0 -1
6 15 1 1 0 3
haar_x3
-6.293038e-005 0 -1
7.448602e-002 -1.048131e-001 
1
2
0 11 3 6 0 -1
0 14 3 3 0 2
haar_y2
-6.644533e-004 0 -1
1.064579e-001 -6.760596e-002 
1
2
0 0 3 1 0 -1
1 0 1 1 0 3
haar_x3
6.286834e-004 0 -1
5.692532e-002 -1.280115e-001 
1
2
2 0 3 8 0 -1
3 0 1 8 0 3
haar_x3
-7.124919e-003 0 -1
1.144903e-001 -6.587010e-002 
1
3
1 1 2 4 0 -1
1 1 1 2 0 2
2 3 1 2 0 2
haar_x2_y2
-1.672155e-002 0 -1
-9.399582e-001 7.290777e-003 
1
2
8 5 3 4 0 -1
8 7 3 2 0 2
haar_y2
-4.802522e-003 0 -1
8.491367e-002 -8.871300e-002 
1
2
8 6 2 2 0 -1
8 7 2 1 0 2
haar_y2
-4.969880e-003 0 -1
-2.439715e-001 3.020490e-002 
1
3
8 7 2 4 0 -1
8 7 1 2 0 2
9 9 1 2 0 2
haar_x2_y2
-6.059354e-003 0 -1
2.516201e-001 -3.239858e-002 
1
2
3 2 3 21 0 -1
3 9 3 7 0 3
haar_y3
-2.022238e-001 0 -1
4.189792e-001 -1.560067e-002 
1
2
0 4 12 15 0 -1
0 9 12 5 0 3
haar_y3
-4.044039e-001 0 -1
-7.136914e-001 1.161390e-002 
1
2
6 11 2 1 0 -1
7 11 1 1 0 2
haar_x2
8.813636e-004 0 -1
4.740135e-002 -1.691166e-001 
1
2
0 11 12 5 0 -1
6 11 6 5 0 2
haar_x2
2.031356e-001 0 -1
-1.862676e-002 4.661945e-001 
1
2
8 6 2 20 0 -1
8 16 2 10 0 2
haar_y2
1.656704e-001 0 -1
1.131182e-002 -8.563809e-001 
1
2
6 10 5 6 0 -1
6 12 5 2 0 3
haar_y3
-7.461771e-003 0 -1
1.057488e-001 -7.319411e-002 
1
2
7 10 5 6 0 -1
7 12 5 2 0 3
haar_y3
4.557304e-003 0 -1
-6.717160e-002 1.151161e-001 
1
2
5 6 3 6 0 -1
6 6 1 6 0 3
haar_x3
7.324560e-004 0 -1
7.997150e-002 -9.526499e-002 
1
2
3 0 3 23 0 -1
4 0 1 23 0 3
haar_x3
-2.783303e-002 0 -1
1.457974e-001 -5.418048e-002 
1
3
0 1 8 6 0 -1
0 1 4 3 0 2
4 4 4 3 0 2
haar_x2_y2
-5.489846e-002 0 -1
-3.417037e-001 2.150200e-002 
1
2
6 17 3 2 0 -1
7 17 1 2 0 3
haar_x3
-1.892618e-002 0 -1
-6.538513e-001 1.045835e-002 
1
2
7 1 2 2 0 -1
7 2 2 1 0 2
haar_y2
-4.020824e-003 0 -1
-2.045117e-001 3.492970e-002 
1
2
9 2 1 3 0 -1
9 3 1 1 0 3
haar_y3
-2.983814e-003 0 -1
2.368620e-001 -3.599294e-002 
1
2
9 1 1 10 0 -1
9 6 1 5 0 2
haar_y2
-4.505146e-002 0 -1
4.102538e-001 -1.738614e-002 
1
2
0 6 1 2 0 -1
0 7 1 1 0 2
haar_y2
-3.447757e-003 0 -1
-4.800868e-001 1.550062e-002 
1
2
10 4 2 2 0 -1
10 5 2 1 0 2
haar_y2
8.910948e-003 0 -1
9.022091e-003 -7.327673e-001 
1
2
8 9 4 3 0 -1
8 10 4 1 0 3
haar_y3
-2.238366e-002 0 -1
-7.241106e-001 7.441347e-003 
1
2
8 2 4 1 0 -1
10 2 2 1 0 2
haar_x2
-6.347875e-003 0 -1
-3.225704e-001 1.997051e-002 
1
3
3 0 4 2 0 -1
3 0 2 1 0 2
5 1 2 1 0 2
haar_x2_y2
5.152263e-003 0 -1
-3.587721e-002 2.144155e-001 
1
2
0 5 10 20 0 -1
5 5 5 20 0 2
haar_x2
-3.426264e-001 0 -1
1.516114e-001 -4.662246e-002 
1
2
0 2 8 14 0 -1
4 2 4 14 0 2
haar_x2
7.252790e-002 0 -1
-4.933989e-002 1.920758e-001 
1
2
3 23 4 1 0 -1
5 23 2 1 0 2
haar_x2
2.525713e-003 0 -1
-4.414600e-002 1.703766e-001 
1
2
2 8 6 18 0 -1
5 8 3 18 0 2
haar_x2
6.520295e-002 0 -1
4.047357e-002 -2.483148e-001 
1
3
2 1 8 18 0 -1
2 1 4 9 0 2
6 10 4 9 0 2
haar_x2_y2
-1.789162e-001 0 -1
-3.187411e-001 2.102950e-002 
1
2
2 2 8 6 0 -1
6 2 4 6 0 2
haar_x2
1.493472e-001 0 -1
-1.871181e-002 4.773405e-001 
-9.543170e-001

23
-1
