18
1
2
2 0 5 2 0 -1
2 1 5 1 0 2
haar_y2
-7.741171e-003 0 -1
7.143698e-001 -3.902302e-001 
1
2
1 3 18 14 0 -1
1 10 18 7 0 2
haar_y2
-2.321635e-001 0 -1
5.543312e-001 -2.687394e-001 
1
2
4 3 13 2 0 -1
4 4 13 1 0 2
haar_y2
9.405733e-003 0 -1
-3.195979e-001 3.937797e-001 
1
2
9 16 4 3 0 -1
9 17 4 1 0 3
haar_y3
-5.914754e-003 0 -1
-7.171875e-001 8.790502e-002 
1
2
9 12 4 8 0 -1
9 16 4 4 0 2
haar_y2
-4.502513e-002 0 -1
6.039596e-001 -1.427456e-001 
1
2
5 5 1 12 0 -1
5 9 1 4 0 3
haar_y3
-4.506581e-003 0 -1
3.108031e-001 -2.273889e-001 
1
2
5 0 5 4 0 -1
5 2 5 2 0 2
haar_y2
4.253982e-003 0 -1
1.147939e-001 -6.144888e-001 
1
2
1 0 9 1 0 -1
4 0 3 1 0 3
haar_x3
9.022973e-003 0 -1
1.355516e-001 -4.993307e-001 
1
3
4 16 10 2 0 -1
4 16 5 1 0 2
9 17 5 1 0 2
haar_x2_y2
-5.794473e-003 0 -1
-4.443457e-001 1.368297e-001 
1
2
5 0 10 9 0 -1
5 3 10 3 0 3
haar_y3
-1.084775e-001 0 -1
-3.275930e-001 1.669652e-001 
1
2
14 1 3 10 0 -1
14 6 3 5 0 2
haar_y2
2.829014e-003 0 -1
-4.958331e-001 1.492308e-001 
1
2
9 3 4 15 0 -1
9 8 4 5 0 3
haar_y3
6.210482e-002 0 -1
3.795121e-002 -9.133449e-001 
1
3
10 13 10 6 0 -1
10 13 5 3 0 2
15 16 5 3 0 2
haar_x2_y2
-4.388584e-002 0 -1
4.824805e-001 -1.188448e-001 
1
2
14 5 3 14 0 -1
14 12 3 7 0 2
haar_y2
-9.308902e-002 0 -1
6.046261e-001 -8.554188e-002 
1
2
0 1 3 4 0 -1
1 1 1 4 0 3
haar_x3
-1.157171e-002 0 -1
-5.638696e-001 8.822912e-002 
1
2
7 0 12 3 0 -1
11 0 4 3 0 3
haar_x3
-1.705086e-002 0 -1
3.695092e-001 -1.347789e-001 
1
3
8 12 12 8 0 -1
8 12 6 4 0 2
14 16 6 4 0 2
haar_x2_y2
6.287368e-002 0 -1
-9.734977e-002 4.111102e-001 
1
2
7 2 8 18 0 -1
7 11 8 9 0 2
haar_y2
3.526290e-002 0 -1
-1.266775e-001 3.997357e-001 
-1.377173e+000

1
-1
