9
2
2
4 7 4 4 0 -1.000000
4 9 4 2 0 2.000000
haar
0.002303 0 1
2
9 4 2 16 0 -1.000000
9 12 2 8 0 2.000000
haar
0.004417 -1 -2
0.101838 0.821906 0.195655 
2
2
1 1 18 5 0 -1.000000
7 1 6 5 0 3.000000
haar
0.022203 0 1
2
4 5 13 8 0 -1.000000
4 9 13 4 0 2.000000
haar
-0.000173 -1 -2
0.220541 0.073263 0.593148 
2
2
1 7 16 9 0 -1.000000
1 10 16 3 0 3.000000
haar
0.004357 0 1
2
2 0 15 4 0 -1.000000
2 2 15 2 0 2.000000
haar
-0.002603 -1 -2
0.184411 0.403221 0.806652 
2
2
7 5 6 4 0 -1.000000
9 5 2 4 0 3.000000
haar
0.001731 0 1
2
6 3 8 9 0 -1.000000
6 6 8 3 0 3.000000
haar
-0.007815 -1 -2
0.254833 0.605707 0.277906 
2
2
8 12 3 8 0 -1.000000
8 16 3 4 0 2.000000
haar
-0.008734 0 1
2
3 16 2 2 0 -1.000000
3 17 2 1 0 2.000000
haar
0.000945 -1 -2
0.288998 0.761659 0.349564 
2
2
14 1 6 12 0 -1.000000
14 1 3 12 0 2.000000
haar
0.049415 1 0
2
4 4 12 6 0 -1.000000
8 4 4 6 0 3.000000
haar
0.004489 -1 -2
0.815165 0.280878 0.602777 
2
2
0 2 6 15 0 -1.000000
3 2 3 15 0 2.000000
haar
0.060314 1 0
2
5 4 9 6 0 -1.000000
5 6 9 2 0 3.000000
haar
-0.001076 -1 -2
0.760750 0.444404 0.143731 
2
2
13 11 6 3 0 -1.000000
13 12 6 1 0 3.000000
haar
-0.009508 1 0
2
12 12 6 4 0 -1.000000
12 14 6 2 0 2.000000
haar
0.007660 -1 -2
0.531817 0.541105 0.218069 
2
2
1 11 6 3 0 -1.000000
1 12 6 1 0 3.000000
haar
0.007647 1 0
2
2 5 5 8 0 -1.000000
2 9 5 4 0 2.000000
haar
-0.000847 -1 -2
0.115896 0.234068 0.599038 
3.472178

-1
-1
